Aug2011.txt
filelist.txt
Sep2011.txt
SMA3000TL-20110801.csv
SMA3000TL-20110802.csv
SMA3000TL-20110803.csv
SMA3000TL-20110804.csv
SMA3000TL-20110805.csv
SMA3000TL-20110806.csv
SMA3000TL-20110807.csv
SMA3000TL-20110808.csv
SMA3000TL-20110809.csv
SMA3000TL-20110810.csv
SMA3000TL-20110811.csv
SMA3000TL-20110812.csv
SMA3000TL-20110813.csv
SMA3000TL-20110814.csv
SMA3000TL-20110815.csv
SMA3000TL-20110816.csv
SMA3000TL-20110817.csv
SMA3000TL-20110818.csv
SMA3000TL-20110819.csv
SMA3000TL-20110820.csv
SMA3000TL-20110821.csv
SMA3000TL-20110822.csv
SMA3000TL-20110823.csv
SMA3000TL-20110824.csv
SMA3000TL-20110825.csv
SMA3000TL-20110826.csv
SMA3000TL-20110827.csv
SMA3000TL-20110828.csv
SMA3000TL-20110829.csv
SMA3000TL-20110830.csv
SMA3000TL-20110831.csv
SMA3000TL-20110901.csv
SMA3000TL-20110902.csv
SMA3000TL-20110903.csv
SMA3000TL-20110904.csv
SMA3000TL-20110905.csv
SMA3000TL-20110906.csv
SMA3000TL-20110907.csv
SMA3000TL-20110908.csv
SMA3000TL-20110909.csv
SMA3000TL-20110910.csv
SMA3000TL-20110911.csv
SMA3000TL-20110912.csv
SMA3000TL-20110913.csv
SMA3000TL-20110914.csv
SMA3000TL-20110915.csv
SMA3000TL-20110916.csv
SMA3000TL-20110917.csv
SMA3000TL-20110918.csv
SMA3000TL-20110919.csv
SMA3000TL-20110920.csv
SMA3000TL-20110921.csv
SMA3000TL-20110922.csv
SMA3000TL-20110923.csv
SMA3000TL-20110924.csv
SMA3000TL-20110925.csv
SMA3000TL-20110926.csv
SMA3000TL-20110927.csv
SMA3000TL-20110928.csv
SMA3000TL-20110929.csv
SMA3000TL-20110930.csv
