sep=;
Version CSV1|Tool SE|Linebreaks CR/LF|Delimiter semicolon|Decimalpoint dot|Precision 3

;SN: 2100448037;SN: 2100448037
;SB 3000TL-20;SB 3000TL-20
;2100448037;2100448037
;Total yield;Power
;Counter;Analog
dd/MM/yyyy hh:mm tt;kWh;kW
25/08/2011 12:00 AM;276.859;0.000
25/08/2011 12:05 AM;276.859;0.000
25/08/2011 12:10 AM;276.859;0.000
25/08/2011 12:15 AM;276.859;0.000
25/08/2011 12:20 AM;276.859;0.000
25/08/2011 12:25 AM;276.859;0.000
25/08/2011 12:30 AM;276.859;0.000
25/08/2011 12:35 AM;276.859;0.000
25/08/2011 12:40 AM;276.859;0.000
25/08/2011 12:45 AM;276.859;0.000
25/08/2011 12:50 AM;276.859;0.000
25/08/2011 12:55 AM;276.859;0.000
25/08/2011 01:00 AM;276.859;0.000
25/08/2011 01:05 AM;276.859;0.000
25/08/2011 01:10 AM;276.859;0.000
25/08/2011 01:15 AM;276.859;0.000
25/08/2011 01:20 AM;276.859;0.000
25/08/2011 01:25 AM;276.859;0.000
25/08/2011 01:30 AM;276.859;0.000
25/08/2011 01:35 AM;276.859;0.000
25/08/2011 01:40 AM;276.859;0.000
25/08/2011 01:45 AM;276.859;0.000
25/08/2011 01:50 AM;276.859;0.000
25/08/2011 01:55 AM;276.859;0.000
25/08/2011 02:00 AM;276.859;0.000
25/08/2011 02:05 AM;276.859;0.000
25/08/2011 02:10 AM;276.859;0.000
25/08/2011 02:15 AM;276.859;0.000
25/08/2011 02:20 AM;276.859;0.000
25/08/2011 02:25 AM;276.859;0.000
25/08/2011 02:30 AM;276.859;0.000
25/08/2011 02:35 AM;276.859;0.000
25/08/2011 02:40 AM;276.859;0.000
25/08/2011 02:45 AM;276.859;0.000
25/08/2011 02:50 AM;276.859;0.000
25/08/2011 02:55 AM;276.859;0.000
25/08/2011 03:00 AM;276.859;0.000
25/08/2011 03:05 AM;276.859;0.000
25/08/2011 03:10 AM;276.859;0.000
25/08/2011 03:15 AM;276.859;0.000
25/08/2011 03:20 AM;276.859;0.000
25/08/2011 03:25 AM;276.859;0.000
25/08/2011 03:30 AM;276.859;0.000
25/08/2011 03:35 AM;276.859;0.000
25/08/2011 03:40 AM;276.859;0.000
25/08/2011 03:45 AM;276.859;0.000
25/08/2011 03:50 AM;276.859;0.000
25/08/2011 03:55 AM;276.859;0.000
25/08/2011 04:00 AM;276.859;0.000
25/08/2011 04:05 AM;276.859;0.000
25/08/2011 04:10 AM;276.859;0.000
25/08/2011 04:15 AM;276.859;0.000
25/08/2011 04:20 AM;276.859;0.000
25/08/2011 04:25 AM;276.859;0.000
25/08/2011 04:30 AM;276.859;0.000
25/08/2011 04:35 AM;276.859;0.000
25/08/2011 04:40 AM;276.859;0.000
25/08/2011 04:45 AM;276.859;0.000
25/08/2011 04:50 AM;276.859;0.000
25/08/2011 04:55 AM;276.859;0.000
25/08/2011 05:00 AM;276.859;0.000
25/08/2011 05:05 AM;276.859;0.000
25/08/2011 05:10 AM;276.859;0.000
25/08/2011 05:15 AM;276.859;0.000
25/08/2011 05:20 AM;276.859;0.000
25/08/2011 05:25 AM;276.859;0.000
25/08/2011 05:30 AM;276.859;0.000
25/08/2011 05:35 AM;276.859;0.000
25/08/2011 05:40 AM;276.859;0.000
25/08/2011 05:45 AM;276.859;0.000
25/08/2011 05:50 AM;276.859;0.000
25/08/2011 05:55 AM;276.859;0.000
25/08/2011 06:00 AM;276.859;0.000
25/08/2011 06:05 AM;276.859;0.000
25/08/2011 06:10 AM;276.859;0.000
25/08/2011 06:15 AM;276.859;0.000
25/08/2011 06:20 AM;276.859;0.000
25/08/2011 06:25 AM;276.859;0.000
25/08/2011 06:30 AM;276.859;0.000
25/08/2011 06:35 AM;276.859;0.000
25/08/2011 06:40 AM;276.859;0.000
25/08/2011 06:45 AM;276.859;0.000
25/08/2011 06:50 AM;276.859;0.000
25/08/2011 06:55 AM;276.859;0.000
25/08/2011 07:00 AM;276.859;0.000
25/08/2011 07:05 AM;276.862;0.036
25/08/2011 07:10 AM;276.867;0.060
25/08/2011 07:15 AM;276.873;0.072
25/08/2011 07:20 AM;276.883;0.120
25/08/2011 07:25 AM;276.899;0.192
25/08/2011 07:30 AM;276.921;0.264
25/08/2011 07:35 AM;276.951;0.360
25/08/2011 07:40 AM;276.967;0.192
25/08/2011 07:45 AM;276.984;0.204
25/08/2011 07:50 AM;277.008;0.288
25/08/2011 07:55 AM;277.026;0.216
25/08/2011 08:00 AM;277.047;0.252
25/08/2011 08:05 AM;277.071;0.288
25/08/2011 08:10 AM;277.098;0.324
25/08/2011 08:15 AM;277.128;0.360
25/08/2011 08:20 AM;277.162;0.408
25/08/2011 08:25 AM;277.206;0.528
25/08/2011 08:30 AM;277.264;0.696
25/08/2011 08:35 AM;277.358;1.128
25/08/2011 08:40 AM;277.483;1.500
25/08/2011 08:45 AM;277.607;1.488
25/08/2011 08:50 AM;277.731;1.488
25/08/2011 08:55 AM;277.871;1.680
25/08/2011 09:00 AM;277.985;1.368
25/08/2011 09:05 AM;278.076;1.092
25/08/2011 09:10 AM;278.142;0.792
25/08/2011 09:15 AM;278.209;0.804
25/08/2011 09:20 AM;278.275;0.792
25/08/2011 09:25 AM;278.353;0.936
25/08/2011 09:30 AM;278.467;1.368
25/08/2011 09:35 AM;278.546;0.948
25/08/2011 09:40 AM;278.625;0.948
25/08/2011 09:45 AM;278.706;0.972
25/08/2011 09:50 AM;278.799;1.116
25/08/2011 09:55 AM;278.896;1.164
25/08/2011 10:00 AM;279.003;1.284
25/08/2011 10:05 AM;279.110;1.284
25/08/2011 10:10 AM;279.230;1.440
25/08/2011 10:15 AM;279.360;1.560
25/08/2011 10:20 AM;279.413;0.636
25/08/2011 10:25 AM;279.466;0.636
25/08/2011 10:30 AM;279.527;0.732
25/08/2011 10:35 AM;279.598;0.852
25/08/2011 10:40 AM;279.661;0.756
25/08/2011 10:45 AM;279.715;0.648
25/08/2011 10:50 AM;279.811;1.152
25/08/2011 10:55 AM;279.856;0.540
25/08/2011 11:00 AM;279.899;0.516
25/08/2011 11:05 AM;280.087;2.256
25/08/2011 11:10 AM;280.273;2.232
25/08/2011 11:15 AM;280.457;2.208
25/08/2011 11:20 AM;280.642;2.220
25/08/2011 11:25 AM;280.828;2.232
25/08/2011 11:30 AM;281.012;2.208
25/08/2011 11:35 AM;281.198;2.232
25/08/2011 11:40 AM;281.386;2.256
25/08/2011 11:45 AM;281.581;2.340
25/08/2011 11:50 AM;281.785;2.448
25/08/2011 11:55 AM;281.997;2.544
25/08/2011 12:00 PM;282.209;2.544
25/08/2011 12:05 PM;282.421;2.544
25/08/2011 12:10 PM;282.631;2.520
25/08/2011 12:15 PM;282.845;2.568
25/08/2011 12:20 PM;283.056;2.532
25/08/2011 12:25 PM;283.219;1.956
25/08/2011 12:30 PM;283.305;1.032
25/08/2011 12:35 PM;283.384;0.948
25/08/2011 12:40 PM;283.455;0.852
25/08/2011 12:45 PM;283.512;0.684
25/08/2011 12:50 PM;283.573;0.732
25/08/2011 12:55 PM;283.675;1.224
25/08/2011 01:00 PM;283.772;1.164
25/08/2011 01:05 PM;283.923;1.812
25/08/2011 01:10 PM;284.117;2.328
25/08/2011 01:15 PM;284.340;2.676
25/08/2011 01:20 PM;284.558;2.616
25/08/2011 01:25 PM;284.773;2.580
25/08/2011 01:30 PM;284.984;2.532
25/08/2011 01:35 PM;285.186;2.424
25/08/2011 01:40 PM;285.397;2.532
25/08/2011 01:45 PM;285.536;1.668
25/08/2011 01:50 PM;285.742;2.472
25/08/2011 01:55 PM;285.928;2.232
25/08/2011 02:00 PM;285.987;0.708
25/08/2011 02:05 PM;286.071;1.008
25/08/2011 02:10 PM;286.120;0.588
25/08/2011 02:15 PM;286.165;0.540
25/08/2011 02:20 PM;286.212;0.564
25/08/2011 02:25 PM;286.254;0.504
25/08/2011 02:30 PM;286.294;0.480
25/08/2011 02:35 PM;286.330;0.432
25/08/2011 02:40 PM;286.364;0.408
25/08/2011 02:45 PM;286.409;0.540
25/08/2011 02:50 PM;286.573;1.968
25/08/2011 02:55 PM;286.752;2.148
25/08/2011 03:00 PM;286.885;1.596
25/08/2011 03:05 PM;287.050;1.980
25/08/2011 03:10 PM;287.118;0.816
25/08/2011 03:15 PM;287.177;0.708
25/08/2011 03:20 PM;287.236;0.708
25/08/2011 03:25 PM;287.309;0.876
25/08/2011 03:30 PM;287.431;1.464
25/08/2011 03:35 PM;287.502;0.852
25/08/2011 03:40 PM;287.570;0.816
25/08/2011 03:45 PM;287.649;0.948
25/08/2011 03:50 PM;287.765;1.392
25/08/2011 03:55 PM;287.868;1.236
25/08/2011 04:00 PM;287.980;1.344
25/08/2011 04:05 PM;288.091;1.332
25/08/2011 04:10 PM;288.195;1.248
25/08/2011 04:15 PM;288.275;0.960
25/08/2011 04:20 PM;288.366;1.092
25/08/2011 04:25 PM;288.452;1.032
25/08/2011 04:30 PM;288.534;0.984
25/08/2011 04:35 PM;288.611;0.924
25/08/2011 04:40 PM;288.683;0.864
25/08/2011 04:45 PM;288.750;0.804
25/08/2011 04:50 PM;288.812;0.744
25/08/2011 04:55 PM;288.868;0.672
25/08/2011 05:00 PM;288.918;0.600
25/08/2011 05:05 PM;288.964;0.552
25/08/2011 05:10 PM;289.004;0.480
25/08/2011 05:15 PM;289.039;0.420
25/08/2011 05:20 PM;289.068;0.348
25/08/2011 05:25 PM;289.092;0.288
25/08/2011 05:30 PM;289.110;0.216
25/08/2011 05:35 PM;289.123;0.156
25/08/2011 05:40 PM;289.129;0.072
25/08/2011 05:45 PM;289.129;0.000
25/08/2011 05:50 PM;289.129;0.000
25/08/2011 05:55 PM;289.129;0.000
25/08/2011 06:00 PM;289.129;0.000
25/08/2011 06:05 PM;289.129;0.000
25/08/2011 06:10 PM;289.129;0.000
25/08/2011 06:15 PM;289.129;0.000
25/08/2011 06:20 PM;289.129;0.000
25/08/2011 06:25 PM;289.129;0.000
25/08/2011 06:30 PM;289.129;0.000
25/08/2011 06:35 PM;289.129;0.000
25/08/2011 06:40 PM;289.129;0.000
25/08/2011 06:45 PM;289.129;0.000
25/08/2011 06:50 PM;289.129;0.000
25/08/2011 06:55 PM;289.129;0.000
25/08/2011 07:00 PM;289.129;0.000
25/08/2011 07:05 PM;289.129;0.000
25/08/2011 07:10 PM;289.129;0.000
25/08/2011 07:15 PM;289.129;0.000
25/08/2011 07:20 PM;289.129;0.000
25/08/2011 07:25 PM;289.129;0.000
25/08/2011 07:30 PM;289.129;0.000
25/08/2011 07:35 PM;289.129;0.000
25/08/2011 07:40 PM;289.129;0.000
25/08/2011 07:45 PM;289.129;0.000
25/08/2011 07:50 PM;289.129;0.000
25/08/2011 07:55 PM;289.129;0.000
25/08/2011 08:00 PM;289.129;0.000
25/08/2011 08:05 PM;289.129;0.000
25/08/2011 08:10 PM;289.129;0.000
25/08/2011 08:15 PM;289.129;0.000
25/08/2011 08:20 PM;289.129;0.000
25/08/2011 08:25 PM;289.129;0.000
25/08/2011 08:30 PM;289.129;0.000
25/08/2011 08:35 PM;289.129;0.000
25/08/2011 08:40 PM;289.129;0.000
25/08/2011 08:45 PM;289.129;0.000
25/08/2011 08:50 PM;289.129;0.000
25/08/2011 08:55 PM;289.129;0.000
25/08/2011 09:00 PM;289.129;0.000
25/08/2011 09:05 PM;289.129;0.000
25/08/2011 09:10 PM;289.129;0.000
25/08/2011 09:15 PM;289.129;0.000
25/08/2011 09:20 PM;289.129;0.000
25/08/2011 09:25 PM;289.129;0.000
25/08/2011 09:30 PM;289.129;0.000
25/08/2011 09:35 PM;289.129;0.000
25/08/2011 09:40 PM;289.129;0.000
25/08/2011 09:45 PM;289.129;0.000
25/08/2011 09:50 PM;289.129;0.000
25/08/2011 09:55 PM;289.129;0.000
25/08/2011 10:00 PM;289.129;0.000
25/08/2011 10:05 PM;289.129;0.000
25/08/2011 10:10 PM;289.129;0.000
25/08/2011 10:15 PM;289.129;0.000
25/08/2011 10:20 PM;289.129;0.000
25/08/2011 10:25 PM;289.129;0.000
25/08/2011 10:30 PM;289.129;0.000
25/08/2011 10:35 PM;289.129;0.000
25/08/2011 10:40 PM;289.129;0.000
25/08/2011 10:45 PM;289.129;0.000
25/08/2011 10:50 PM;289.129;0.000
25/08/2011 10:55 PM;289.129;0.000
25/08/2011 11:00 PM;289.129;0.000
25/08/2011 11:05 PM;289.129;0.000
25/08/2011 11:10 PM;289.129;0.000
25/08/2011 11:15 PM;289.129;0.000
25/08/2011 11:20 PM;289.129;0.000
25/08/2011 11:25 PM;289.129;0.000
25/08/2011 11:30 PM;289.129;0.000
25/08/2011 11:35 PM;289.129;0.000
25/08/2011 11:40 PM;289.129;0.000
25/08/2011 11:45 PM;289.129;0.000
25/08/2011 11:50 PM;289.129;0.000
25/08/2011 11:55 PM;289.129;0.000
