sep=;
Version CSV1|Tool SE|Linebreaks CR/LF|Delimiter semicolon|Decimalpoint dot|Precision 3

;SN: 2100448037;SN: 2100448037
;SB 3000TL-20;SB 3000TL-20
;2100448037;2100448037
;Total yield;Power
;Counter;Analog
dd/MM/yyyy hh:mm tt;kWh;kW
06/08/2011 12:00 AM;45.518;0.000
06/08/2011 12:05 AM;45.518;0.000
06/08/2011 12:10 AM;45.518;0.000
06/08/2011 12:15 AM;45.518;0.000
06/08/2011 12:20 AM;45.518;0.000
06/08/2011 12:25 AM;45.518;0.000
06/08/2011 12:30 AM;45.518;0.000
06/08/2011 12:35 AM;45.518;0.000
06/08/2011 12:40 AM;45.518;0.000
06/08/2011 12:45 AM;45.518;0.000
06/08/2011 12:50 AM;45.518;0.000
06/08/2011 12:55 AM;45.518;0.000
06/08/2011 01:00 AM;45.518;0.000
06/08/2011 01:05 AM;45.518;0.000
06/08/2011 01:10 AM;45.518;0.000
06/08/2011 01:15 AM;45.518;0.000
06/08/2011 01:20 AM;45.518;0.000
06/08/2011 01:25 AM;45.518;0.000
06/08/2011 01:30 AM;45.518;0.000
06/08/2011 01:35 AM;45.518;0.000
06/08/2011 01:40 AM;45.518;0.000
06/08/2011 01:45 AM;45.518;0.000
06/08/2011 01:50 AM;45.518;0.000
06/08/2011 01:55 AM;45.518;0.000
06/08/2011 02:00 AM;45.518;0.000
06/08/2011 02:05 AM;45.518;0.000
06/08/2011 02:10 AM;45.518;0.000
06/08/2011 02:15 AM;45.518;0.000
06/08/2011 02:20 AM;45.518;0.000
06/08/2011 02:25 AM;45.518;0.000
06/08/2011 02:30 AM;45.518;0.000
06/08/2011 02:35 AM;45.518;0.000
06/08/2011 02:40 AM;45.518;0.000
06/08/2011 02:45 AM;45.518;0.000
06/08/2011 02:50 AM;45.518;0.000
06/08/2011 02:55 AM;45.518;0.000
06/08/2011 03:00 AM;45.518;0.000
06/08/2011 03:05 AM;45.518;0.000
06/08/2011 03:10 AM;45.518;0.000
06/08/2011 03:15 AM;45.518;0.000
06/08/2011 03:20 AM;45.518;0.000
06/08/2011 03:25 AM;45.518;0.000
06/08/2011 03:30 AM;45.518;0.000
06/08/2011 03:35 AM;45.518;0.000
06/08/2011 03:40 AM;45.518;0.000
06/08/2011 03:45 AM;45.518;0.000
06/08/2011 03:50 AM;45.518;0.000
06/08/2011 03:55 AM;45.518;0.000
06/08/2011 04:00 AM;45.518;0.000
06/08/2011 04:05 AM;45.518;0.000
06/08/2011 04:10 AM;45.518;0.000
06/08/2011 04:15 AM;45.518;0.000
06/08/2011 04:20 AM;45.518;0.000
06/08/2011 04:25 AM;45.518;0.000
06/08/2011 04:30 AM;45.518;0.000
06/08/2011 04:35 AM;45.518;0.000
06/08/2011 04:40 AM;45.518;0.000
06/08/2011 04:45 AM;45.518;0.000
06/08/2011 04:50 AM;45.518;0.000
06/08/2011 04:55 AM;45.518;0.000
06/08/2011 05:00 AM;45.518;0.000
06/08/2011 05:05 AM;45.518;0.000
06/08/2011 05:10 AM;45.518;0.000
06/08/2011 05:15 AM;45.518;0.000
06/08/2011 05:20 AM;45.518;0.000
06/08/2011 05:25 AM;45.518;0.000
06/08/2011 05:30 AM;45.518;0.000
06/08/2011 05:35 AM;45.518;0.000
06/08/2011 05:40 AM;45.518;0.000
06/08/2011 05:45 AM;45.518;0.000
06/08/2011 05:50 AM;45.518;0.000
06/08/2011 05:55 AM;45.518;0.000
06/08/2011 06:00 AM;45.518;0.000
06/08/2011 06:05 AM;45.518;0.000
06/08/2011 06:10 AM;45.518;0.000
06/08/2011 06:15 AM;45.518;0.000
06/08/2011 06:20 AM;45.518;0.000
06/08/2011 06:25 AM;45.518;0.000
06/08/2011 06:30 AM;45.518;0.000
06/08/2011 06:35 AM;45.518;0.000
06/08/2011 06:40 AM;45.518;0.000
06/08/2011 06:45 AM;45.518;0.000
06/08/2011 06:50 AM;45.518;0.000
06/08/2011 06:55 AM;45.518;0.000
06/08/2011 07:00 AM;45.518;0.000
06/08/2011 07:05 AM;45.518;0.000
06/08/2011 07:10 AM;45.518;0.000
06/08/2011 07:15 AM;45.518;0.000
06/08/2011 07:20 AM;45.518;0.000
06/08/2011 07:25 AM;45.518;0.000
06/08/2011 07:30 AM;45.521;0.036
06/08/2011 07:35 AM;45.529;0.096
06/08/2011 07:40 AM;45.540;0.132
06/08/2011 07:45 AM;45.562;0.264
06/08/2011 07:50 AM;45.589;0.324
06/08/2011 07:55 AM;45.620;0.372
06/08/2011 08:00 AM;45.656;0.432
06/08/2011 08:05 AM;45.697;0.492
06/08/2011 08:10 AM;45.741;0.528
06/08/2011 08:15 AM;45.790;0.588
06/08/2011 08:20 AM;45.844;0.648
06/08/2011 08:25 AM;45.902;0.696
06/08/2011 08:30 AM;45.965;0.756
06/08/2011 08:35 AM;46.033;0.816
06/08/2011 08:40 AM;46.105;0.864
06/08/2011 08:45 AM;46.182;0.924
06/08/2011 08:50 AM;46.265;0.996
06/08/2011 08:55 AM;46.351;1.032
06/08/2011 09:00 AM;46.443;1.104
06/08/2011 09:05 AM;46.539;1.152
06/08/2011 09:10 AM;46.639;1.200
06/08/2011 09:15 AM;46.744;1.260
06/08/2011 09:20 AM;46.853;1.308
06/08/2011 09:25 AM;46.966;1.356
06/08/2011 09:30 AM;47.083;1.404
06/08/2011 09:35 AM;47.203;1.440
06/08/2011 09:40 AM;47.327;1.488
06/08/2011 09:45 AM;47.454;1.524
06/08/2011 09:50 AM;47.585;1.572
06/08/2011 09:55 AM;47.719;1.608
06/08/2011 10:00 AM;47.857;1.656
06/08/2011 10:05 AM;47.998;1.692
06/08/2011 10:10 AM;48.142;1.728
06/08/2011 10:15 AM;48.289;1.764
06/08/2011 10:20 AM;48.438;1.788
06/08/2011 10:25 AM;48.592;1.848
06/08/2011 10:30 AM;48.747;1.860
06/08/2011 10:35 AM;48.905;1.896
06/08/2011 10:40 AM;49.065;1.920
06/08/2011 10:45 AM;49.227;1.944
06/08/2011 10:50 AM;49.391;1.968
06/08/2011 10:55 AM;49.558;2.004
06/08/2011 11:00 AM;49.726;2.016
06/08/2011 11:05 AM;49.895;2.028
06/08/2011 11:10 AM;50.067;2.064
06/08/2011 11:15 AM;50.240;2.076
06/08/2011 11:20 AM;50.415;2.100
06/08/2011 11:25 AM;50.592;2.124
06/08/2011 11:30 AM;50.770;2.136
06/08/2011 11:35 AM;50.950;2.160
06/08/2011 11:40 AM;51.131;2.172
06/08/2011 11:45 AM;51.314;2.196
06/08/2011 11:50 AM;51.502;2.256
06/08/2011 11:55 AM;51.661;1.908
06/08/2011 12:00 PM;51.790;1.548
06/08/2011 12:05 PM;51.982;2.304
06/08/2011 12:10 PM;52.179;2.364
06/08/2011 12:15 PM;52.382;2.436
06/08/2011 12:20 PM;52.584;2.424
06/08/2011 12:25 PM;52.782;2.376
06/08/2011 12:30 PM;52.972;2.280
06/08/2011 12:35 PM;53.163;2.292
06/08/2011 12:40 PM;53.340;2.124
06/08/2011 12:45 PM;53.522;2.184
06/08/2011 12:50 PM;53.699;2.124
06/08/2011 12:55 PM;53.859;1.920
06/08/2011 01:00 PM;54.044;2.220
06/08/2011 01:05 PM;54.230;2.232
06/08/2011 01:10 PM;54.386;1.872
06/08/2011 01:15 PM;54.570;2.208
06/08/2011 01:20 PM;54.751;2.172
06/08/2011 01:25 PM;54.930;2.148
06/08/2011 01:30 PM;55.108;2.136
06/08/2011 01:35 PM;55.284;2.112
06/08/2011 01:40 PM;55.460;2.112
06/08/2011 01:45 PM;55.634;2.088
06/08/2011 01:50 PM;55.805;2.052
06/08/2011 01:55 PM;55.976;2.052
06/08/2011 02:00 PM;56.145;2.028
06/08/2011 02:05 PM;56.312;2.004
06/08/2011 02:10 PM;56.476;1.968
06/08/2011 02:15 PM;56.639;1.956
06/08/2011 02:20 PM;56.801;1.944
06/08/2011 02:25 PM;56.960;1.908
06/08/2011 02:30 PM;57.116;1.872
06/08/2011 02:35 PM;57.270;1.848
06/08/2011 02:40 PM;57.421;1.812
06/08/2011 02:45 PM;57.570;1.788
06/08/2011 02:50 PM;57.717;1.764
06/08/2011 02:55 PM;57.861;1.728
06/08/2011 03:00 PM;58.002;1.692
06/08/2011 03:05 PM;58.140;1.656
06/08/2011 03:10 PM;58.274;1.608
06/08/2011 03:15 PM;58.405;1.572
06/08/2011 03:20 PM;58.533;1.536
06/08/2011 03:25 PM;58.658;1.500
06/08/2011 03:30 PM;58.779;1.452
06/08/2011 03:35 PM;58.897;1.416
06/08/2011 03:40 PM;59.011;1.368
06/08/2011 03:45 PM;59.121;1.320
06/08/2011 03:50 PM;59.210;1.068
06/08/2011 03:55 PM;59.293;0.996
06/08/2011 04:00 PM;59.360;0.804
06/08/2011 04:05 PM;59.424;0.768
06/08/2011 04:10 PM;59.465;0.492
06/08/2011 04:15 PM;59.528;0.756
06/08/2011 04:20 PM;59.614;1.032
06/08/2011 04:25 PM;59.696;0.984
06/08/2011 04:30 PM;59.765;0.828
06/08/2011 04:35 PM;59.819;0.648
06/08/2011 04:40 PM;59.833;0.168
06/08/2011 04:45 PM;59.843;0.120
06/08/2011 04:50 PM;59.852;0.108
06/08/2011 04:55 PM;59.859;0.084
06/08/2011 05:00 PM;59.864;0.060
06/08/2011 05:05 PM;59.869;0.060
06/08/2011 05:10 PM;59.872;0.036
06/08/2011 05:15 PM;59.874;0.024
06/08/2011 05:20 PM;59.876;0.024
06/08/2011 05:25 PM;59.878;0.024
06/08/2011 05:30 PM;59.878;0.000
06/08/2011 05:35 PM;59.878;0.000
06/08/2011 05:40 PM;59.878;0.000
06/08/2011 05:45 PM;59.878;0.000
06/08/2011 05:50 PM;59.878;0.000
06/08/2011 05:55 PM;59.878;0.000
06/08/2011 06:00 PM;59.878;0.000
06/08/2011 06:05 PM;59.878;0.000
06/08/2011 06:10 PM;59.878;0.000
06/08/2011 06:15 PM;59.878;0.000
06/08/2011 06:20 PM;59.878;0.000
06/08/2011 06:25 PM;59.878;0.000
06/08/2011 06:30 PM;59.878;0.000
06/08/2011 06:35 PM;59.878;0.000
06/08/2011 06:40 PM;59.878;0.000
06/08/2011 06:45 PM;59.878;0.000
06/08/2011 06:50 PM;59.878;0.000
06/08/2011 06:55 PM;59.878;0.000
06/08/2011 07:00 PM;59.878;0.000
06/08/2011 07:05 PM;59.878;0.000
06/08/2011 07:10 PM;59.878;0.000
06/08/2011 07:15 PM;59.878;0.000
06/08/2011 07:20 PM;59.878;0.000
06/08/2011 07:25 PM;59.878;0.000
06/08/2011 07:30 PM;59.878;0.000
06/08/2011 07:35 PM;59.878;0.000
06/08/2011 07:40 PM;59.878;0.000
06/08/2011 07:45 PM;59.878;0.000
06/08/2011 07:50 PM;59.878;0.000
06/08/2011 07:55 PM;59.878;0.000
06/08/2011 08:00 PM;59.878;0.000
06/08/2011 08:05 PM;59.878;0.000
06/08/2011 08:10 PM;59.878;0.000
06/08/2011 08:15 PM;59.878;0.000
06/08/2011 08:20 PM;59.878;0.000
06/08/2011 08:25 PM;59.878;0.000
06/08/2011 08:30 PM;59.878;0.000
06/08/2011 08:35 PM;59.878;0.000
06/08/2011 08:40 PM;59.878;0.000
06/08/2011 08:45 PM;59.878;0.000
06/08/2011 08:50 PM;59.878;0.000
06/08/2011 08:55 PM;59.878;0.000
06/08/2011 09:00 PM;59.878;0.000
06/08/2011 09:05 PM;59.878;0.000
06/08/2011 09:10 PM;59.878;0.000
06/08/2011 09:15 PM;59.878;0.000
06/08/2011 09:20 PM;59.878;0.000
06/08/2011 09:25 PM;59.878;0.000
06/08/2011 09:30 PM;59.878;0.000
06/08/2011 09:35 PM;59.878;0.000
06/08/2011 09:40 PM;59.878;0.000
06/08/2011 09:45 PM;59.878;0.000
06/08/2011 09:50 PM;59.878;0.000
06/08/2011 09:55 PM;59.878;0.000
06/08/2011 10:00 PM;59.878;0.000
06/08/2011 10:05 PM;59.878;0.000
06/08/2011 10:10 PM;59.878;0.000
06/08/2011 10:15 PM;59.878;0.000
06/08/2011 10:20 PM;59.878;0.000
06/08/2011 10:25 PM;59.878;0.000
06/08/2011 10:30 PM;59.878;0.000
06/08/2011 10:35 PM;59.878;0.000
06/08/2011 10:40 PM;59.878;0.000
06/08/2011 10:45 PM;59.878;0.000
06/08/2011 10:50 PM;59.878;0.000
06/08/2011 10:55 PM;59.878;0.000
06/08/2011 11:00 PM;59.878;0.000
06/08/2011 11:05 PM;59.878;0.000
06/08/2011 11:10 PM;59.878;0.000
06/08/2011 11:15 PM;59.878;0.000
06/08/2011 11:20 PM;59.878;0.000
06/08/2011 11:25 PM;59.878;0.000
06/08/2011 11:30 PM;59.878;0.000
06/08/2011 11:35 PM;59.878;0.000
06/08/2011 11:40 PM;59.878;0.000
06/08/2011 11:45 PM;59.878;0.000
06/08/2011 11:50 PM;59.878;0.000
06/08/2011 11:55 PM;59.878;0.000
