sep=;
Version CSV1|Tool SE|Linebreaks CR/LF|Delimiter semicolon|Decimalpoint dot|Precision 3

;SN: 2100448037;SN: 2100448037
;SB 3000TL-20;SB 3000TL-20
;2100448037;2100448037
;Total yield;Power
;Counter;Analog
dd/MM/yyyy hh:mm tt;kWh;kW
17/08/2011 12:00 AM;168.950;0.000
17/08/2011 12:05 AM;168.950;0.000
17/08/2011 12:10 AM;168.950;0.000
17/08/2011 12:15 AM;168.950;0.000
17/08/2011 12:20 AM;168.950;0.000
17/08/2011 12:25 AM;168.950;0.000
17/08/2011 12:30 AM;168.950;0.000
17/08/2011 12:35 AM;168.950;0.000
17/08/2011 12:40 AM;168.950;0.000
17/08/2011 12:45 AM;168.950;0.000
17/08/2011 12:50 AM;168.950;0.000
17/08/2011 12:55 AM;168.950;0.000
17/08/2011 01:00 AM;168.950;0.000
17/08/2011 01:05 AM;168.950;0.000
17/08/2011 01:10 AM;168.950;0.000
17/08/2011 01:15 AM;168.950;0.000
17/08/2011 01:20 AM;168.950;0.000
17/08/2011 01:25 AM;168.950;0.000
17/08/2011 01:30 AM;168.950;0.000
17/08/2011 01:35 AM;168.950;0.000
17/08/2011 01:40 AM;168.950;0.000
17/08/2011 01:45 AM;168.950;0.000
17/08/2011 01:50 AM;168.950;0.000
17/08/2011 01:55 AM;168.950;0.000
17/08/2011 02:00 AM;168.950;0.000
17/08/2011 02:05 AM;168.950;0.000
17/08/2011 02:10 AM;168.950;0.000
17/08/2011 02:15 AM;168.950;0.000
17/08/2011 02:20 AM;168.950;0.000
17/08/2011 02:25 AM;168.950;0.000
17/08/2011 02:30 AM;168.950;0.000
17/08/2011 02:35 AM;168.950;0.000
17/08/2011 02:40 AM;168.950;0.000
17/08/2011 02:45 AM;168.950;0.000
17/08/2011 02:50 AM;168.950;0.000
17/08/2011 02:55 AM;168.950;0.000
17/08/2011 03:00 AM;168.950;0.000
17/08/2011 03:05 AM;168.950;0.000
17/08/2011 03:10 AM;168.950;0.000
17/08/2011 03:15 AM;168.950;0.000
17/08/2011 03:20 AM;168.950;0.000
17/08/2011 03:25 AM;168.950;0.000
17/08/2011 03:30 AM;168.950;0.000
17/08/2011 03:35 AM;168.950;0.000
17/08/2011 03:40 AM;168.950;0.000
17/08/2011 03:45 AM;168.950;0.000
17/08/2011 03:50 AM;168.950;0.000
17/08/2011 03:55 AM;168.950;0.000
17/08/2011 04:00 AM;168.950;0.000
17/08/2011 04:05 AM;168.950;0.000
17/08/2011 04:10 AM;168.950;0.000
17/08/2011 04:15 AM;168.950;0.000
17/08/2011 04:20 AM;168.950;0.000
17/08/2011 04:25 AM;168.950;0.000
17/08/2011 04:30 AM;168.950;0.000
17/08/2011 04:35 AM;168.950;0.000
17/08/2011 04:40 AM;168.950;0.000
17/08/2011 04:45 AM;168.950;0.000
17/08/2011 04:50 AM;168.950;0.000
17/08/2011 04:55 AM;168.950;0.000
17/08/2011 05:00 AM;168.950;0.000
17/08/2011 05:05 AM;168.950;0.000
17/08/2011 05:10 AM;168.950;0.000
17/08/2011 05:15 AM;168.950;0.000
17/08/2011 05:20 AM;168.950;0.000
17/08/2011 05:25 AM;168.950;0.000
17/08/2011 05:30 AM;168.950;0.000
17/08/2011 05:35 AM;168.950;0.000
17/08/2011 05:40 AM;168.950;0.000
17/08/2011 05:45 AM;168.950;0.000
17/08/2011 05:50 AM;168.950;0.000
17/08/2011 05:55 AM;168.950;0.000
17/08/2011 06:00 AM;168.950;0.000
17/08/2011 06:05 AM;168.950;0.000
17/08/2011 06:10 AM;168.950;0.000
17/08/2011 06:15 AM;168.950;0.000
17/08/2011 06:20 AM;168.950;0.000
17/08/2011 06:25 AM;168.950;0.000
17/08/2011 06:30 AM;168.950;0.000
17/08/2011 06:35 AM;168.950;0.000
17/08/2011 06:40 AM;168.950;0.000
17/08/2011 06:45 AM;168.950;0.000
17/08/2011 06:50 AM;168.950;0.000
17/08/2011 06:55 AM;168.950;0.000
17/08/2011 07:00 AM;168.950;0.000
17/08/2011 07:05 AM;168.950;0.000
17/08/2011 07:10 AM;168.950;0.000
17/08/2011 07:15 AM;168.950;0.000
17/08/2011 07:20 AM;168.950;0.000
17/08/2011 07:25 AM;168.954;0.048
17/08/2011 07:30 AM;168.961;0.084
17/08/2011 07:35 AM;168.977;0.192
17/08/2011 07:40 AM;169.003;0.312
17/08/2011 07:45 AM;169.025;0.264
17/08/2011 07:50 AM;169.056;0.372
17/08/2011 07:55 AM;169.084;0.336
17/08/2011 08:00 AM;169.123;0.468
17/08/2011 08:05 AM;169.178;0.660
17/08/2011 08:10 AM;169.194;0.192
17/08/2011 08:15 AM;169.214;0.240
17/08/2011 08:20 AM;169.240;0.312
17/08/2011 08:25 AM;169.283;0.516
17/08/2011 08:30 AM;169.365;0.984
17/08/2011 08:35 AM;169.438;0.876
17/08/2011 08:40 AM;169.493;0.660
17/08/2011 08:45 AM;169.540;0.564
17/08/2011 08:50 AM;169.585;0.540
17/08/2011 08:55 AM;169.621;0.432
17/08/2011 09:00 AM;169.667;0.552
17/08/2011 09:05 AM;169.725;0.696
17/08/2011 09:10 AM;169.783;0.696
17/08/2011 09:15 AM;169.841;0.696
17/08/2011 09:20 AM;169.901;0.720
17/08/2011 09:25 AM;169.980;0.948
17/08/2011 09:30 AM;170.067;1.044
17/08/2011 09:35 AM;170.199;1.584
17/08/2011 09:40 AM;170.328;1.548
17/08/2011 09:45 AM;170.471;1.716
17/08/2011 09:50 AM;170.621;1.800
17/08/2011 09:55 AM;170.780;1.908
17/08/2011 10:00 AM;170.942;1.944
17/08/2011 10:05 AM;171.104;1.944
17/08/2011 10:10 AM;171.263;1.908
17/08/2011 10:15 AM;171.415;1.824
17/08/2011 10:20 AM;171.574;1.908
17/08/2011 10:25 AM;171.726;1.824
17/08/2011 10:30 AM;171.850;1.488
17/08/2011 10:35 AM;171.971;1.452
17/08/2011 10:40 AM;172.135;1.968
17/08/2011 10:45 AM;172.304;2.028
17/08/2011 10:50 AM;172.480;2.112
17/08/2011 10:55 AM;172.662;2.184
17/08/2011 11:00 AM;172.779;1.404
17/08/2011 11:05 AM;172.921;1.704
17/08/2011 11:10 AM;172.986;0.780
17/08/2011 11:15 AM;173.065;0.948
17/08/2011 11:20 AM;173.159;1.128
17/08/2011 11:25 AM;173.351;2.304
17/08/2011 11:30 AM;173.495;1.728
17/08/2011 11:35 AM;173.671;2.112
17/08/2011 11:40 AM;173.844;2.076
17/08/2011 11:45 AM;173.967;1.476
17/08/2011 11:50 AM;174.111;1.728
17/08/2011 11:55 AM;174.297;2.232
17/08/2011 12:00 PM;174.489;2.304
17/08/2011 12:05 PM;174.676;2.244
17/08/2011 12:10 PM;174.862;2.232
17/08/2011 12:15 PM;175.053;2.292
17/08/2011 12:20 PM;175.257;2.448
17/08/2011 12:25 PM;175.483;2.712
17/08/2011 12:30 PM;175.605;1.464
17/08/2011 12:35 PM;175.696;1.092
17/08/2011 12:40 PM;175.775;0.948
17/08/2011 12:45 PM;175.968;2.316
17/08/2011 12:50 PM;176.166;2.376
17/08/2011 12:55 PM;176.360;2.328
17/08/2011 01:00 PM;176.554;2.328
17/08/2011 01:05 PM;176.749;2.340
17/08/2011 01:10 PM;176.943;2.328
17/08/2011 01:15 PM;177.141;2.376
17/08/2011 01:20 PM;177.339;2.376
17/08/2011 01:25 PM;177.463;1.488
17/08/2011 01:30 PM;177.651;2.256
17/08/2011 01:35 PM;177.856;2.460
17/08/2011 01:40 PM;178.056;2.400
17/08/2011 01:45 PM;178.145;1.068
17/08/2011 01:50 PM;178.339;2.328
17/08/2011 01:55 PM;178.481;1.704
17/08/2011 02:00 PM;178.587;1.272
17/08/2011 02:05 PM;178.682;1.140
17/08/2011 02:10 PM;178.773;1.092
17/08/2011 02:15 PM;178.869;1.152
17/08/2011 02:20 PM;179.007;1.656
17/08/2011 02:25 PM;179.129;1.464
17/08/2011 02:30 PM;179.227;1.176
17/08/2011 02:35 PM;179.342;1.380
17/08/2011 02:40 PM;179.464;1.464
17/08/2011 02:45 PM;179.568;1.248
17/08/2011 02:50 PM;179.690;1.464
17/08/2011 02:55 PM;179.827;1.644
17/08/2011 03:00 PM;179.964;1.644
17/08/2011 03:05 PM;180.144;2.160
17/08/2011 03:10 PM;180.245;1.212
17/08/2011 03:15 PM;180.342;1.164
17/08/2011 03:20 PM;180.461;1.428
17/08/2011 03:25 PM;180.621;1.920
17/08/2011 03:30 PM;180.747;1.512
17/08/2011 03:35 PM;180.889;1.704
17/08/2011 03:40 PM;181.024;1.620
17/08/2011 03:45 PM;181.100;0.912
17/08/2011 03:50 PM;181.176;0.912
17/08/2011 03:55 PM;181.270;1.128
17/08/2011 04:00 PM;181.337;0.804
17/08/2011 04:05 PM;181.388;0.612
17/08/2011 04:10 PM;181.461;0.876
17/08/2011 04:15 PM;181.509;0.576
17/08/2011 04:20 PM;181.528;0.228
17/08/2011 04:25 PM;181.548;0.240
17/08/2011 04:30 PM;181.567;0.228
17/08/2011 04:35 PM;181.599;0.384
17/08/2011 04:40 PM;181.674;0.900
17/08/2011 04:45 PM;181.733;0.708
17/08/2011 04:50 PM;181.770;0.444
17/08/2011 04:55 PM;181.801;0.372
17/08/2011 05:00 PM;181.844;0.516
17/08/2011 05:05 PM;181.854;0.120
17/08/2011 05:10 PM;181.860;0.072
17/08/2011 05:15 PM;181.865;0.060
17/08/2011 05:20 PM;181.869;0.048
17/08/2011 05:25 PM;181.872;0.036
17/08/2011 05:30 PM;181.874;0.024
17/08/2011 05:35 PM;181.875;0.012
17/08/2011 05:40 PM;181.875;0.000
17/08/2011 05:45 PM;181.875;0.000
17/08/2011 05:50 PM;181.875;0.000
17/08/2011 05:55 PM;181.875;0.000
17/08/2011 06:00 PM;181.875;0.000
17/08/2011 06:05 PM;181.875;0.000
17/08/2011 06:10 PM;181.875;0.000
17/08/2011 06:15 PM;181.875;0.000
17/08/2011 06:20 PM;181.875;0.000
17/08/2011 06:25 PM;181.875;0.000
17/08/2011 06:30 PM;181.875;0.000
17/08/2011 06:35 PM;181.875;0.000
17/08/2011 06:40 PM;181.875;0.000
17/08/2011 06:45 PM;181.875;0.000
17/08/2011 06:50 PM;181.875;0.000
17/08/2011 06:55 PM;181.875;0.000
17/08/2011 07:00 PM;181.875;0.000
17/08/2011 07:05 PM;181.875;0.000
17/08/2011 07:10 PM;181.875;0.000
17/08/2011 07:15 PM;181.875;0.000
17/08/2011 07:20 PM;181.875;0.000
17/08/2011 07:25 PM;181.875;0.000
17/08/2011 07:30 PM;181.875;0.000
17/08/2011 07:35 PM;181.875;0.000
17/08/2011 07:40 PM;181.875;0.000
17/08/2011 07:45 PM;181.875;0.000
17/08/2011 07:50 PM;181.875;0.000
17/08/2011 07:55 PM;181.875;0.000
17/08/2011 08:00 PM;181.875;0.000
17/08/2011 08:05 PM;181.875;0.000
17/08/2011 08:10 PM;181.875;0.000
17/08/2011 08:15 PM;181.875;0.000
17/08/2011 08:20 PM;181.875;0.000
17/08/2011 08:25 PM;181.875;0.000
17/08/2011 08:30 PM;181.875;0.000
17/08/2011 08:35 PM;181.875;0.000
17/08/2011 08:40 PM;181.875;0.000
17/08/2011 08:45 PM;181.875;0.000
17/08/2011 08:50 PM;181.875;0.000
17/08/2011 08:55 PM;181.875;0.000
17/08/2011 09:00 PM;181.875;0.000
17/08/2011 09:05 PM;181.875;0.000
17/08/2011 09:10 PM;181.875;0.000
17/08/2011 09:15 PM;181.875;0.000
17/08/2011 09:20 PM;181.875;0.000
17/08/2011 09:25 PM;181.875;0.000
17/08/2011 09:30 PM;181.875;0.000
17/08/2011 09:35 PM;181.875;0.000
17/08/2011 09:40 PM;181.875;0.000
17/08/2011 09:45 PM;181.875;0.000
17/08/2011 09:50 PM;181.875;0.000
17/08/2011 09:55 PM;181.875;0.000
17/08/2011 10:00 PM;181.875;0.000
17/08/2011 10:05 PM;181.875;0.000
17/08/2011 10:10 PM;181.875;0.000
17/08/2011 10:15 PM;181.875;0.000
17/08/2011 10:20 PM;181.875;0.000
17/08/2011 10:25 PM;181.875;0.000
17/08/2011 10:30 PM;181.875;0.000
17/08/2011 10:35 PM;181.875;0.000
17/08/2011 10:40 PM;181.875;0.000
17/08/2011 10:45 PM;181.875;0.000
17/08/2011 10:50 PM;181.875;0.000
17/08/2011 10:55 PM;181.875;0.000
17/08/2011 11:00 PM;181.875;0.000
17/08/2011 11:05 PM;181.875;0.000
17/08/2011 11:10 PM;181.875;0.000
17/08/2011 11:15 PM;181.875;0.000
17/08/2011 11:20 PM;181.875;0.000
17/08/2011 11:25 PM;181.875;0.000
17/08/2011 11:30 PM;181.875;0.000
17/08/2011 11:35 PM;181.875;0.000
17/08/2011 11:40 PM;181.875;0.000
17/08/2011 11:45 PM;181.875;0.000
17/08/2011 11:50 PM;181.875;0.000
17/08/2011 11:55 PM;181.875;0.000
