sep=;
Version CSV1|Tool SE|Linebreaks CR/LF|Delimiter semicolon|Decimalpoint dot|Precision 3

;SN: 2100448037;SN: 2100448037
;SB 3000TL-20;SB 3000TL-20
;2100448037;2100448037
;Total yield;Power
;Counter;Analog
dd/MM/yyyy hh:mm tt;kWh;kW
14/08/2011 12:00 AM;136.950;0.000
14/08/2011 12:05 AM;136.950;0.000
14/08/2011 12:10 AM;136.950;0.000
14/08/2011 12:15 AM;136.950;0.000
14/08/2011 12:20 AM;136.950;0.000
14/08/2011 12:25 AM;136.950;0.000
14/08/2011 12:30 AM;136.950;0.000
14/08/2011 12:35 AM;136.950;0.000
14/08/2011 12:40 AM;136.950;0.000
14/08/2011 12:45 AM;136.950;0.000
14/08/2011 12:50 AM;136.950;0.000
14/08/2011 12:55 AM;136.950;0.000
14/08/2011 01:00 AM;136.950;0.000
14/08/2011 01:05 AM;136.950;0.000
14/08/2011 01:10 AM;136.950;0.000
14/08/2011 01:15 AM;136.950;0.000
14/08/2011 01:20 AM;136.950;0.000
14/08/2011 01:25 AM;136.950;0.000
14/08/2011 01:30 AM;136.950;0.000
14/08/2011 01:35 AM;136.950;0.000
14/08/2011 01:40 AM;136.950;0.000
14/08/2011 01:45 AM;136.950;0.000
14/08/2011 01:50 AM;136.950;0.000
14/08/2011 01:55 AM;136.950;0.000
14/08/2011 02:00 AM;136.950;0.000
14/08/2011 02:05 AM;136.950;0.000
14/08/2011 02:10 AM;136.950;0.000
14/08/2011 02:15 AM;136.950;0.000
14/08/2011 02:20 AM;136.950;0.000
14/08/2011 02:25 AM;136.950;0.000
14/08/2011 02:30 AM;136.950;0.000
14/08/2011 02:35 AM;136.950;0.000
14/08/2011 02:40 AM;136.950;0.000
14/08/2011 02:45 AM;136.950;0.000
14/08/2011 02:50 AM;136.950;0.000
14/08/2011 02:55 AM;136.950;0.000
14/08/2011 03:00 AM;136.950;0.000
14/08/2011 03:05 AM;136.950;0.000
14/08/2011 03:10 AM;136.950;0.000
14/08/2011 03:15 AM;136.950;0.000
14/08/2011 03:20 AM;136.950;0.000
14/08/2011 03:25 AM;136.950;0.000
14/08/2011 03:30 AM;136.950;0.000
14/08/2011 03:35 AM;136.950;0.000
14/08/2011 03:40 AM;136.950;0.000
14/08/2011 03:45 AM;136.950;0.000
14/08/2011 03:50 AM;136.950;0.000
14/08/2011 03:55 AM;136.950;0.000
14/08/2011 04:00 AM;136.950;0.000
14/08/2011 04:05 AM;136.950;0.000
14/08/2011 04:10 AM;136.950;0.000
14/08/2011 04:15 AM;136.950;0.000
14/08/2011 04:20 AM;136.950;0.000
14/08/2011 04:25 AM;136.950;0.000
14/08/2011 04:30 AM;136.950;0.000
14/08/2011 04:35 AM;136.950;0.000
14/08/2011 04:40 AM;136.950;0.000
14/08/2011 04:45 AM;136.950;0.000
14/08/2011 04:50 AM;136.950;0.000
14/08/2011 04:55 AM;136.950;0.000
14/08/2011 05:00 AM;136.950;0.000
14/08/2011 05:05 AM;136.950;0.000
14/08/2011 05:10 AM;136.950;0.000
14/08/2011 05:15 AM;136.950;0.000
14/08/2011 05:20 AM;136.950;0.000
14/08/2011 05:25 AM;136.950;0.000
14/08/2011 05:30 AM;136.950;0.000
14/08/2011 05:35 AM;136.950;0.000
14/08/2011 05:40 AM;136.950;0.000
14/08/2011 05:45 AM;136.950;0.000
14/08/2011 05:50 AM;136.950;0.000
14/08/2011 05:55 AM;136.950;0.000
14/08/2011 06:00 AM;136.950;0.000
14/08/2011 06:05 AM;136.950;0.000
14/08/2011 06:10 AM;136.950;0.000
14/08/2011 06:15 AM;136.950;0.000
14/08/2011 06:20 AM;136.950;0.000
14/08/2011 06:25 AM;136.950;0.000
14/08/2011 06:30 AM;136.950;0.000
14/08/2011 06:35 AM;136.950;0.000
14/08/2011 06:40 AM;136.950;0.000
14/08/2011 06:45 AM;136.950;0.000
14/08/2011 06:50 AM;136.950;0.000
14/08/2011 06:55 AM;136.950;0.000
14/08/2011 07:00 AM;136.950;0.000
14/08/2011 07:05 AM;136.950;0.000
14/08/2011 07:10 AM;136.950;0.000
14/08/2011 07:15 AM;136.950;0.000
14/08/2011 07:20 AM;136.950;0.000
14/08/2011 07:25 AM;136.950;0.000
14/08/2011 07:30 AM;136.952;0.024
14/08/2011 07:35 AM;136.958;0.072
14/08/2011 07:40 AM;136.961;0.036
14/08/2011 07:45 AM;136.963;0.024
14/08/2011 07:50 AM;136.968;0.060
14/08/2011 07:55 AM;136.973;0.060
14/08/2011 08:00 AM;136.977;0.048
14/08/2011 08:05 AM;136.983;0.072
14/08/2011 08:10 AM;136.998;0.180
14/08/2011 08:15 AM;137.020;0.264
14/08/2011 08:20 AM;137.047;0.324
14/08/2011 08:25 AM;137.058;0.132
14/08/2011 08:30 AM;137.067;0.108
14/08/2011 08:35 AM;137.081;0.168
14/08/2011 08:40 AM;137.108;0.324
14/08/2011 08:45 AM;137.130;0.264
14/08/2011 08:50 AM;137.148;0.216
14/08/2011 08:55 AM;137.171;0.276
14/08/2011 09:00 AM;137.193;0.264
14/08/2011 09:05 AM;137.224;0.372
14/08/2011 09:10 AM;137.256;0.384
14/08/2011 09:15 AM;137.291;0.420
14/08/2011 09:20 AM;137.337;0.552
14/08/2011 09:25 AM;137.392;0.660
14/08/2011 09:30 AM;137.438;0.552
14/08/2011 09:35 AM;137.486;0.576
14/08/2011 09:40 AM;137.545;0.708
14/08/2011 09:45 AM;137.602;0.684
14/08/2011 09:50 AM;137.646;0.528
14/08/2011 09:55 AM;137.691;0.540
14/08/2011 10:00 AM;137.730;0.468
14/08/2011 10:05 AM;137.770;0.480
14/08/2011 10:10 AM;137.811;0.492
14/08/2011 10:15 AM;137.853;0.504
14/08/2011 10:20 AM;137.898;0.540
14/08/2011 10:25 AM;137.944;0.552
14/08/2011 10:30 AM;137.992;0.576
14/08/2011 10:35 AM;138.056;0.768
14/08/2011 10:40 AM;138.145;1.068
14/08/2011 10:45 AM;138.241;1.152
14/08/2011 10:50 AM;138.313;0.864
14/08/2011 10:55 AM;138.408;1.140
14/08/2011 11:00 AM;138.584;2.112
14/08/2011 11:05 AM;138.748;1.968
14/08/2011 11:10 AM;138.911;1.956
14/08/2011 11:15 AM;139.081;2.040
14/08/2011 11:20 AM;139.248;2.004
14/08/2011 11:25 AM;139.431;2.196
14/08/2011 11:30 AM;139.625;2.328
14/08/2011 11:35 AM;139.727;1.224
14/08/2011 11:40 AM;139.891;1.968
14/08/2011 11:45 AM;140.067;2.112
14/08/2011 11:50 AM;140.270;2.436
14/08/2011 11:55 AM;140.407;1.644
14/08/2011 12:00 PM;140.554;1.764
14/08/2011 12:05 PM;140.738;2.208
14/08/2011 12:10 PM;140.909;2.052
14/08/2011 12:15 PM;141.060;1.812
14/08/2011 12:20 PM;141.161;1.212
14/08/2011 12:25 PM;141.331;2.040
14/08/2011 12:30 PM;141.521;2.280
14/08/2011 12:35 PM;141.711;2.280
14/08/2011 12:40 PM;141.891;2.160
14/08/2011 12:45 PM;142.063;2.064
14/08/2011 12:50 PM;142.251;2.256
14/08/2011 12:55 PM;142.439;2.256
14/08/2011 01:00 PM;142.625;2.232
14/08/2011 01:05 PM;142.811;2.232
14/08/2011 01:10 PM;142.998;2.244
14/08/2011 01:15 PM;143.189;2.292
14/08/2011 01:20 PM;143.288;1.188
14/08/2011 01:25 PM;143.361;0.876
14/08/2011 01:30 PM;143.466;1.260
14/08/2011 01:35 PM;143.661;2.340
14/08/2011 01:40 PM;143.823;1.944
14/08/2011 01:45 PM;144.027;2.448
14/08/2011 01:50 PM;144.212;2.220
14/08/2011 01:55 PM;144.390;2.136
14/08/2011 02:00 PM;144.565;2.100
14/08/2011 02:05 PM;144.740;2.100
14/08/2011 02:10 PM;144.917;2.124
14/08/2011 02:15 PM;145.089;2.064
14/08/2011 02:20 PM;145.243;1.848
14/08/2011 02:25 PM;145.410;2.004
14/08/2011 02:30 PM;145.573;1.956
14/08/2011 02:35 PM;145.733;1.920
14/08/2011 02:40 PM;145.893;1.920
14/08/2011 02:45 PM;146.051;1.896
14/08/2011 02:50 PM;146.209;1.896
14/08/2011 02:55 PM;146.365;1.872
14/08/2011 03:00 PM;146.513;1.776
14/08/2011 03:05 PM;146.584;0.852
14/08/2011 03:10 PM;146.710;1.512
14/08/2011 03:15 PM;146.793;0.996
14/08/2011 03:20 PM;146.950;1.884
14/08/2011 03:25 PM;147.087;1.644
14/08/2011 03:30 PM;147.188;1.212
14/08/2011 03:35 PM;147.281;1.116
14/08/2011 03:40 PM;147.375;1.128
14/08/2011 03:45 PM;147.473;1.176
14/08/2011 03:50 PM;147.587;1.368
14/08/2011 03:55 PM;147.675;1.056
14/08/2011 04:00 PM;147.776;1.212
14/08/2011 04:05 PM;147.859;0.996
14/08/2011 04:10 PM;147.910;0.612
14/08/2011 04:15 PM;147.992;0.984
14/08/2011 04:20 PM;148.066;0.888
14/08/2011 04:25 PM;148.151;1.020
14/08/2011 04:30 PM;148.226;0.900
14/08/2011 04:35 PM;148.293;0.804
14/08/2011 04:40 PM;148.342;0.588
14/08/2011 04:45 PM;148.367;0.300
14/08/2011 04:50 PM;148.380;0.156
14/08/2011 04:55 PM;148.391;0.132
14/08/2011 05:00 PM;148.399;0.096
14/08/2011 05:05 PM;148.407;0.096
14/08/2011 05:10 PM;148.413;0.072
14/08/2011 05:15 PM;148.417;0.048
14/08/2011 05:20 PM;148.421;0.048
14/08/2011 05:25 PM;148.423;0.024
14/08/2011 05:30 PM;148.423;0.000
14/08/2011 05:35 PM;148.423;0.000
14/08/2011 05:40 PM;148.423;0.000
14/08/2011 05:45 PM;148.423;0.000
14/08/2011 05:50 PM;148.423;0.000
14/08/2011 05:55 PM;148.423;0.000
14/08/2011 06:00 PM;148.423;0.000
14/08/2011 06:05 PM;148.423;0.000
14/08/2011 06:10 PM;148.423;0.000
14/08/2011 06:15 PM;148.423;0.000
14/08/2011 06:20 PM;148.423;0.000
14/08/2011 06:25 PM;148.423;0.000
14/08/2011 06:30 PM;148.423;0.000
14/08/2011 06:35 PM;148.423;0.000
14/08/2011 06:40 PM;148.423;0.000
14/08/2011 06:45 PM;148.423;0.000
14/08/2011 06:50 PM;148.423;0.000
14/08/2011 06:55 PM;148.423;0.000
14/08/2011 07:00 PM;148.423;0.000
14/08/2011 07:05 PM;148.423;0.000
14/08/2011 07:10 PM;148.423;0.000
14/08/2011 07:15 PM;148.423;0.000
14/08/2011 07:20 PM;148.423;0.000
14/08/2011 07:25 PM;148.423;0.000
14/08/2011 07:30 PM;148.423;0.000
14/08/2011 07:35 PM;148.423;0.000
14/08/2011 07:40 PM;148.423;0.000
14/08/2011 07:45 PM;148.423;0.000
14/08/2011 07:50 PM;148.423;0.000
14/08/2011 07:55 PM;148.423;0.000
14/08/2011 08:00 PM;148.423;0.000
14/08/2011 08:05 PM;148.423;0.000
14/08/2011 08:10 PM;148.423;0.000
14/08/2011 08:15 PM;148.423;0.000
14/08/2011 08:20 PM;148.423;0.000
14/08/2011 08:25 PM;148.423;0.000
14/08/2011 08:30 PM;148.423;0.000
14/08/2011 08:35 PM;148.423;0.000
14/08/2011 08:40 PM;148.423;0.000
14/08/2011 08:45 PM;148.423;0.000
14/08/2011 08:50 PM;148.423;0.000
14/08/2011 08:55 PM;148.423;0.000
14/08/2011 09:00 PM;148.423;0.000
14/08/2011 09:05 PM;148.423;0.000
14/08/2011 09:10 PM;148.423;0.000
14/08/2011 09:15 PM;148.423;0.000
14/08/2011 09:20 PM;148.423;0.000
14/08/2011 09:25 PM;148.423;0.000
14/08/2011 09:30 PM;148.423;0.000
14/08/2011 09:35 PM;148.423;0.000
14/08/2011 09:40 PM;148.423;0.000
14/08/2011 09:45 PM;148.423;0.000
14/08/2011 09:50 PM;148.423;0.000
14/08/2011 09:55 PM;148.423;0.000
14/08/2011 10:00 PM;148.423;0.000
14/08/2011 10:05 PM;148.423;0.000
14/08/2011 10:10 PM;148.423;0.000
14/08/2011 10:15 PM;148.423;0.000
14/08/2011 10:20 PM;148.423;0.000
14/08/2011 10:25 PM;148.423;0.000
14/08/2011 10:30 PM;148.423;0.000
14/08/2011 10:35 PM;148.423;0.000
14/08/2011 10:40 PM;148.423;0.000
14/08/2011 10:45 PM;148.423;0.000
14/08/2011 10:50 PM;148.423;0.000
14/08/2011 10:55 PM;148.423;0.000
14/08/2011 11:00 PM;148.423;0.000
14/08/2011 11:05 PM;148.423;0.000
14/08/2011 11:10 PM;148.423;0.000
14/08/2011 11:15 PM;148.423;0.000
14/08/2011 11:20 PM;148.423;0.000
14/08/2011 11:25 PM;148.423;0.000
14/08/2011 11:30 PM;148.423;0.000
14/08/2011 11:35 PM;148.423;0.000
14/08/2011 11:40 PM;148.423;0.000
14/08/2011 11:45 PM;148.423;0.000
14/08/2011 11:50 PM;148.423;0.000
14/08/2011 11:55 PM;148.423;0.000
