sep=;
Version CSV1|Tool SE|Linebreaks CR/LF|Delimiter semicolon|Decimalpoint dot|Precision 3

;SN: 2100448037;SN: 2100448037
;SB 3000TL-20;SB 3000TL-20
;2100448037;2100448037
;Total yield;Power
;Counter;Analog
dd/MM/yyyy hh:mm tt;kWh;kW
23/08/2011 12:00 AM;248.726;0.000
23/08/2011 12:05 AM;248.726;0.000
23/08/2011 12:10 AM;248.726;0.000
23/08/2011 12:15 AM;248.726;0.000
23/08/2011 12:20 AM;248.726;0.000
23/08/2011 12:25 AM;248.726;0.000
23/08/2011 12:30 AM;248.726;0.000
23/08/2011 12:35 AM;248.726;0.000
23/08/2011 12:40 AM;248.726;0.000
23/08/2011 12:45 AM;248.726;0.000
23/08/2011 12:50 AM;248.726;0.000
23/08/2011 12:55 AM;248.726;0.000
23/08/2011 01:00 AM;248.726;0.000
23/08/2011 01:05 AM;248.726;0.000
23/08/2011 01:10 AM;248.726;0.000
23/08/2011 01:15 AM;248.726;0.000
23/08/2011 01:20 AM;248.726;0.000
23/08/2011 01:25 AM;248.726;0.000
23/08/2011 01:30 AM;248.726;0.000
23/08/2011 01:35 AM;248.726;0.000
23/08/2011 01:40 AM;248.726;0.000
23/08/2011 01:45 AM;248.726;0.000
23/08/2011 01:50 AM;248.726;0.000
23/08/2011 01:55 AM;248.726;0.000
23/08/2011 02:00 AM;248.726;0.000
23/08/2011 02:05 AM;248.726;0.000
23/08/2011 02:10 AM;248.726;0.000
23/08/2011 02:15 AM;248.726;0.000
23/08/2011 02:20 AM;248.726;0.000
23/08/2011 02:25 AM;248.726;0.000
23/08/2011 02:30 AM;248.726;0.000
23/08/2011 02:35 AM;248.726;0.000
23/08/2011 02:40 AM;248.726;0.000
23/08/2011 02:45 AM;248.726;0.000
23/08/2011 02:50 AM;248.726;0.000
23/08/2011 02:55 AM;248.726;0.000
23/08/2011 03:00 AM;248.726;0.000
23/08/2011 03:05 AM;248.726;0.000
23/08/2011 03:10 AM;248.726;0.000
23/08/2011 03:15 AM;248.726;0.000
23/08/2011 03:20 AM;248.726;0.000
23/08/2011 03:25 AM;248.726;0.000
23/08/2011 03:30 AM;248.726;0.000
23/08/2011 03:35 AM;248.726;0.000
23/08/2011 03:40 AM;248.726;0.000
23/08/2011 03:45 AM;248.726;0.000
23/08/2011 03:50 AM;248.726;0.000
23/08/2011 03:55 AM;248.726;0.000
23/08/2011 04:00 AM;248.726;0.000
23/08/2011 04:05 AM;248.726;0.000
23/08/2011 04:10 AM;248.726;0.000
23/08/2011 04:15 AM;248.726;0.000
23/08/2011 04:20 AM;248.726;0.000
23/08/2011 04:25 AM;248.726;0.000
23/08/2011 04:30 AM;248.726;0.000
23/08/2011 04:35 AM;248.726;0.000
23/08/2011 04:40 AM;248.726;0.000
23/08/2011 04:45 AM;248.726;0.000
23/08/2011 04:50 AM;248.726;0.000
23/08/2011 04:55 AM;248.726;0.000
23/08/2011 05:00 AM;248.726;0.000
23/08/2011 05:05 AM;248.726;0.000
23/08/2011 05:10 AM;248.726;0.000
23/08/2011 05:15 AM;248.726;0.000
23/08/2011 05:20 AM;248.726;0.000
23/08/2011 05:25 AM;248.726;0.000
23/08/2011 05:30 AM;248.726;0.000
23/08/2011 05:35 AM;248.726;0.000
23/08/2011 05:40 AM;248.726;0.000
23/08/2011 05:45 AM;248.726;0.000
23/08/2011 05:50 AM;248.726;0.000
23/08/2011 05:55 AM;248.726;0.000
23/08/2011 06:00 AM;248.726;0.000
23/08/2011 06:05 AM;248.726;0.000
23/08/2011 06:10 AM;248.726;0.000
23/08/2011 06:15 AM;248.726;0.000
23/08/2011 06:20 AM;248.726;0.000
23/08/2011 06:25 AM;248.726;0.000
23/08/2011 06:30 AM;248.726;0.000
23/08/2011 06:35 AM;248.726;0.000
23/08/2011 06:40 AM;248.726;0.000
23/08/2011 06:45 AM;248.726;0.000
23/08/2011 06:50 AM;248.726;0.000
23/08/2011 06:55 AM;248.726;0.000
23/08/2011 07:00 AM;248.726;0.000
23/08/2011 07:05 AM;248.727;0.012
23/08/2011 07:10 AM;248.729;0.024
23/08/2011 07:15 AM;248.733;0.048
23/08/2011 07:20 AM;248.738;0.060
23/08/2011 07:25 AM;248.745;0.084
23/08/2011 07:30 AM;248.756;0.132
23/08/2011 07:35 AM;248.774;0.216
23/08/2011 07:40 AM;248.801;0.324
23/08/2011 07:45 AM;248.832;0.372
23/08/2011 07:50 AM;248.868;0.432
23/08/2011 07:55 AM;248.909;0.492
23/08/2011 08:00 AM;248.954;0.540
23/08/2011 08:05 AM;249.004;0.600
23/08/2011 08:10 AM;249.059;0.660
23/08/2011 08:15 AM;249.118;0.708
23/08/2011 08:20 AM;249.181;0.756
23/08/2011 08:25 AM;249.249;0.816
23/08/2011 08:30 AM;249.320;0.852
23/08/2011 08:35 AM;249.395;0.900
23/08/2011 08:40 AM;249.475;0.960
23/08/2011 08:45 AM;249.559;1.008
23/08/2011 08:50 AM;249.648;1.068
23/08/2011 08:55 AM;249.741;1.116
23/08/2011 09:00 AM;249.838;1.164
23/08/2011 09:05 AM;249.940;1.224
23/08/2011 09:10 AM;250.047;1.284
23/08/2011 09:15 AM;250.157;1.320
23/08/2011 09:20 AM;250.272;1.380
23/08/2011 09:25 AM;250.391;1.428
23/08/2011 09:30 AM;250.513;1.464
23/08/2011 09:35 AM;250.640;1.524
23/08/2011 09:40 AM;250.769;1.548
23/08/2011 09:45 AM;250.902;1.596
23/08/2011 09:50 AM;251.038;1.632
23/08/2011 09:55 AM;251.177;1.668
23/08/2011 10:00 AM;251.320;1.716
23/08/2011 10:05 AM;251.465;1.740
23/08/2011 10:10 AM;251.613;1.776
23/08/2011 10:15 AM;251.761;1.776
23/08/2011 10:20 AM;251.912;1.812
23/08/2011 10:25 AM;252.066;1.848
23/08/2011 10:30 AM;252.223;1.884
23/08/2011 10:35 AM;252.383;1.920
23/08/2011 10:40 AM;252.544;1.932
23/08/2011 10:45 AM;252.707;1.956
23/08/2011 10:50 AM;252.873;1.992
23/08/2011 10:55 AM;253.041;2.016
23/08/2011 11:00 AM;253.210;2.028
23/08/2011 11:05 AM;253.382;2.064
23/08/2011 11:10 AM;253.554;2.064
23/08/2011 11:15 AM;253.727;2.076
23/08/2011 11:20 AM;253.905;2.136
23/08/2011 11:25 AM;254.088;2.196
23/08/2011 11:30 AM;254.241;1.836
23/08/2011 11:35 AM;254.438;2.364
23/08/2011 11:40 AM;254.556;1.416
23/08/2011 11:45 AM;254.726;2.040
23/08/2011 11:50 AM;254.894;2.016
23/08/2011 11:55 AM;255.091;2.364
23/08/2011 12:00 PM;255.272;2.172
23/08/2011 12:05 PM;255.463;2.292
23/08/2011 12:10 PM;255.653;2.280
23/08/2011 12:15 PM;255.844;2.292
23/08/2011 12:20 PM;256.030;2.232
23/08/2011 12:25 PM;256.220;2.280
23/08/2011 12:30 PM;256.409;2.268
23/08/2011 12:35 PM;256.597;2.256
23/08/2011 12:40 PM;256.785;2.256
23/08/2011 12:45 PM;256.956;2.052
23/08/2011 12:50 PM;257.136;2.160
23/08/2011 12:55 PM;257.326;2.280
23/08/2011 01:00 PM;257.513;2.244
23/08/2011 01:05 PM;257.700;2.244
23/08/2011 01:10 PM;257.887;2.244
23/08/2011 01:15 PM;258.073;2.232
23/08/2011 01:20 PM;258.257;2.208
23/08/2011 01:25 PM;258.442;2.220
23/08/2011 01:30 PM;258.624;2.184
23/08/2011 01:35 PM;258.806;2.184
23/08/2011 01:40 PM;258.988;2.184
23/08/2011 01:45 PM;259.171;2.196
23/08/2011 01:50 PM;259.351;2.160
23/08/2011 01:55 PM;259.527;2.112
23/08/2011 02:00 PM;259.708;2.172
23/08/2011 02:05 PM;259.871;1.956
23/08/2011 02:10 PM;260.031;1.920
23/08/2011 02:15 PM;260.183;1.824
23/08/2011 02:20 PM;260.355;2.064
23/08/2011 02:25 PM;260.466;1.332
23/08/2011 02:30 PM;260.614;1.776
23/08/2011 02:35 PM;260.784;2.040
23/08/2011 02:40 PM;260.931;1.764
23/08/2011 02:45 PM;261.092;1.932
23/08/2011 02:50 PM;261.246;1.848
23/08/2011 02:55 PM;261.400;1.848
23/08/2011 03:00 PM;261.550;1.800
23/08/2011 03:05 PM;261.690;1.680
23/08/2011 03:10 PM;261.833;1.716
23/08/2011 03:15 PM;261.974;1.692
23/08/2011 03:20 PM;262.060;1.032
23/08/2011 03:25 PM;262.171;1.332
23/08/2011 03:30 PM;262.240;0.828
23/08/2011 03:35 PM;262.378;1.656
23/08/2011 03:40 PM;262.502;1.488
23/08/2011 03:45 PM;262.602;1.200
23/08/2011 03:50 PM;262.693;1.092
23/08/2011 03:55 PM;262.808;1.380
23/08/2011 04:00 PM;262.915;1.284
23/08/2011 04:05 PM;263.016;1.212
23/08/2011 04:10 PM;263.072;0.672
23/08/2011 04:15 PM;263.158;1.032
23/08/2011 04:20 PM;263.233;0.900
23/08/2011 04:25 PM;263.257;0.288
23/08/2011 04:30 PM;263.303;0.552
23/08/2011 04:35 PM;263.336;0.396
23/08/2011 04:40 PM;263.395;0.708
23/08/2011 04:45 PM;263.472;0.924
23/08/2011 04:50 PM;263.522;0.600
23/08/2011 04:55 PM;263.573;0.612
23/08/2011 05:00 PM;263.620;0.564
23/08/2011 05:05 PM;263.662;0.504
23/08/2011 05:10 PM;263.699;0.444
23/08/2011 05:15 PM;263.726;0.324
23/08/2011 05:20 PM;263.740;0.168
23/08/2011 05:25 PM;263.756;0.192
23/08/2011 05:30 PM;263.771;0.180
23/08/2011 05:35 PM;263.777;0.072
23/08/2011 05:40 PM;263.778;0.012
23/08/2011 05:45 PM;263.778;0.000
23/08/2011 05:50 PM;263.778;0.000
23/08/2011 05:55 PM;263.778;0.000
23/08/2011 06:00 PM;263.778;0.000
23/08/2011 06:05 PM;263.778;0.000
23/08/2011 06:10 PM;263.778;0.000
23/08/2011 06:15 PM;263.778;0.000
23/08/2011 06:20 PM;263.778;0.000
23/08/2011 06:25 PM;263.778;0.000
23/08/2011 06:30 PM;263.778;0.000
23/08/2011 06:35 PM;263.778;0.000
23/08/2011 06:40 PM;263.778;0.000
23/08/2011 06:45 PM;263.778;0.000
23/08/2011 06:50 PM;263.778;0.000
23/08/2011 06:55 PM;263.778;0.000
23/08/2011 07:00 PM;263.778;0.000
23/08/2011 07:05 PM;263.778;0.000
23/08/2011 07:10 PM;263.778;0.000
23/08/2011 07:15 PM;263.778;0.000
23/08/2011 07:20 PM;263.778;0.000
23/08/2011 07:25 PM;263.778;0.000
23/08/2011 07:30 PM;263.778;0.000
23/08/2011 07:35 PM;263.778;0.000
23/08/2011 07:40 PM;263.778;0.000
23/08/2011 07:45 PM;263.778;0.000
23/08/2011 07:50 PM;263.778;0.000
23/08/2011 07:55 PM;263.778;0.000
23/08/2011 08:00 PM;263.778;0.000
23/08/2011 08:05 PM;263.778;0.000
23/08/2011 08:10 PM;263.778;0.000
23/08/2011 08:15 PM;263.778;0.000
23/08/2011 08:20 PM;263.778;0.000
23/08/2011 08:25 PM;263.778;0.000
23/08/2011 08:30 PM;263.778;0.000
23/08/2011 08:35 PM;263.778;0.000
23/08/2011 08:40 PM;263.778;0.000
23/08/2011 08:45 PM;263.778;0.000
23/08/2011 08:50 PM;263.778;0.000
23/08/2011 08:55 PM;263.778;0.000
23/08/2011 09:00 PM;263.778;0.000
23/08/2011 09:05 PM;263.778;0.000
23/08/2011 09:10 PM;263.778;0.000
23/08/2011 09:15 PM;263.778;0.000
23/08/2011 09:20 PM;263.778;0.000
23/08/2011 09:25 PM;263.778;0.000
23/08/2011 09:30 PM;263.778;0.000
23/08/2011 09:35 PM;263.778;0.000
23/08/2011 09:40 PM;263.778;0.000
23/08/2011 09:45 PM;263.778;0.000
23/08/2011 09:50 PM;263.778;0.000
23/08/2011 09:55 PM;263.778;0.000
23/08/2011 10:00 PM;263.778;0.000
23/08/2011 10:05 PM;263.778;0.000
23/08/2011 10:10 PM;263.778;0.000
23/08/2011 10:15 PM;263.778;0.000
23/08/2011 10:20 PM;263.778;0.000
23/08/2011 10:25 PM;263.778;0.000
23/08/2011 10:30 PM;263.778;0.000
23/08/2011 10:35 PM;263.778;0.000
23/08/2011 10:40 PM;263.778;0.000
23/08/2011 10:45 PM;263.778;0.000
23/08/2011 10:50 PM;263.778;0.000
23/08/2011 10:55 PM;263.778;0.000
23/08/2011 11:00 PM;263.778;0.000
23/08/2011 11:05 PM;263.778;0.000
23/08/2011 11:10 PM;263.778;0.000
23/08/2011 11:15 PM;263.778;0.000
23/08/2011 11:20 PM;263.778;0.000
23/08/2011 11:25 PM;263.778;0.000
23/08/2011 11:30 PM;263.778;0.000
23/08/2011 11:35 PM;263.778;0.000
23/08/2011 11:40 PM;263.778;0.000
23/08/2011 11:45 PM;263.778;0.000
23/08/2011 11:50 PM;263.778;0.000
23/08/2011 11:55 PM;263.778;0.000
