sep=;
Version CSV1|Tool SE|Linebreaks CR/LF|Delimiter semicolon|Decimalpoint dot|Precision 3

;SN: 2100448037;SN: 2100448037
;SB 3000TL-20;SB 3000TL-20
;2100448037;2100448037
;Total yield;Power
;Counter;Analog
dd/MM/yyyy hh:mm tt;kWh;kW
05/09/2011 12:00 AM;409.557;0.000
05/09/2011 12:05 AM;409.557;0.000
05/09/2011 12:10 AM;409.557;0.000
05/09/2011 12:15 AM;409.557;0.000
05/09/2011 12:20 AM;409.557;0.000
05/09/2011 12:25 AM;409.557;0.000
05/09/2011 12:30 AM;409.557;0.000
05/09/2011 12:35 AM;409.557;0.000
05/09/2011 12:40 AM;409.557;0.000
05/09/2011 12:45 AM;409.557;0.000
05/09/2011 12:50 AM;409.557;0.000
05/09/2011 12:55 AM;409.557;0.000
05/09/2011 01:00 AM;409.557;0.000
05/09/2011 01:05 AM;409.557;0.000
05/09/2011 01:10 AM;409.557;0.000
05/09/2011 01:15 AM;409.557;0.000
05/09/2011 01:20 AM;409.557;0.000
05/09/2011 01:25 AM;409.557;0.000
05/09/2011 01:30 AM;409.557;0.000
05/09/2011 01:35 AM;409.557;0.000
05/09/2011 01:40 AM;409.557;0.000
05/09/2011 01:45 AM;409.557;0.000
05/09/2011 01:50 AM;409.557;0.000
05/09/2011 01:55 AM;409.557;0.000
05/09/2011 02:00 AM;409.557;0.000
05/09/2011 02:05 AM;409.557;0.000
05/09/2011 02:10 AM;409.557;0.000
05/09/2011 02:15 AM;409.557;0.000
05/09/2011 02:20 AM;409.557;0.000
05/09/2011 02:25 AM;409.557;0.000
05/09/2011 02:30 AM;409.557;0.000
05/09/2011 02:35 AM;409.557;0.000
05/09/2011 02:40 AM;409.557;0.000
05/09/2011 02:45 AM;409.557;0.000
05/09/2011 02:50 AM;409.557;0.000
05/09/2011 02:55 AM;409.557;0.000
05/09/2011 03:00 AM;409.557;0.000
05/09/2011 03:05 AM;409.557;0.000
05/09/2011 03:10 AM;409.557;0.000
05/09/2011 03:15 AM;409.557;0.000
05/09/2011 03:20 AM;409.557;0.000
05/09/2011 03:25 AM;409.557;0.000
05/09/2011 03:30 AM;409.557;0.000
05/09/2011 03:35 AM;409.557;0.000
05/09/2011 03:40 AM;409.557;0.000
05/09/2011 03:45 AM;409.557;0.000
05/09/2011 03:50 AM;409.557;0.000
05/09/2011 03:55 AM;409.557;0.000
05/09/2011 04:00 AM;409.557;0.000
05/09/2011 04:05 AM;409.557;0.000
05/09/2011 04:10 AM;409.557;0.000
05/09/2011 04:15 AM;409.557;0.000
05/09/2011 04:20 AM;409.557;0.000
05/09/2011 04:25 AM;409.557;0.000
05/09/2011 04:30 AM;409.557;0.000
05/09/2011 04:35 AM;409.557;0.000
05/09/2011 04:40 AM;409.557;0.000
05/09/2011 04:45 AM;409.557;0.000
05/09/2011 04:50 AM;409.557;0.000
05/09/2011 04:55 AM;409.557;0.000
05/09/2011 05:00 AM;409.557;0.000
05/09/2011 05:05 AM;409.557;0.000
05/09/2011 05:10 AM;409.557;0.000
05/09/2011 05:15 AM;409.557;0.000
05/09/2011 05:20 AM;409.557;0.000
05/09/2011 05:25 AM;409.557;0.000
05/09/2011 05:30 AM;409.557;0.000
05/09/2011 05:35 AM;409.557;0.000
05/09/2011 05:40 AM;409.557;0.000
05/09/2011 05:45 AM;409.557;0.000
05/09/2011 05:50 AM;409.557;0.000
05/09/2011 05:55 AM;409.557;0.000
05/09/2011 06:00 AM;409.557;0.000
05/09/2011 06:05 AM;409.557;0.000
05/09/2011 06:10 AM;409.557;0.000
05/09/2011 06:15 AM;409.557;0.000
05/09/2011 06:20 AM;409.557;0.000
05/09/2011 06:25 AM;409.557;0.000
05/09/2011 06:30 AM;409.557;0.000
05/09/2011 06:35 AM;409.557;0.000
05/09/2011 06:40 AM;409.557;0.000
05/09/2011 06:45 AM;409.557;0.000
05/09/2011 06:50 AM;409.557;0.000
05/09/2011 06:55 AM;409.557;0.000
05/09/2011 07:00 AM;409.558;0.012
05/09/2011 07:05 AM;409.560;0.024
05/09/2011 07:10 AM;409.563;0.036
05/09/2011 07:15 AM;409.569;0.072
05/09/2011 07:20 AM;409.578;0.108
05/09/2011 07:25 AM;409.592;0.168
05/09/2011 07:30 AM;409.605;0.156
05/09/2011 07:35 AM;409.619;0.168
05/09/2011 07:40 AM;409.635;0.192
05/09/2011 07:45 AM;409.659;0.288
05/09/2011 07:50 AM;409.701;0.504
05/09/2011 07:55 AM;409.762;0.732
05/09/2011 08:00 AM;409.820;0.696
05/09/2011 08:05 AM;409.885;0.780
05/09/2011 08:10 AM;409.952;0.804
05/09/2011 08:15 AM;410.021;0.828
05/09/2011 08:20 AM;410.095;0.888
05/09/2011 08:25 AM;410.178;0.996
05/09/2011 08:30 AM;410.274;1.152
05/09/2011 08:35 AM;410.341;0.804
05/09/2011 08:40 AM;410.400;0.708
05/09/2011 08:45 AM;410.458;0.696
05/09/2011 08:50 AM;410.534;0.912
05/09/2011 08:55 AM;410.604;0.840
05/09/2011 09:00 AM;410.687;0.996
05/09/2011 09:05 AM;410.822;1.620
05/09/2011 09:10 AM;410.916;1.128
05/09/2011 09:15 AM;410.995;0.948
05/09/2011 09:20 AM;411.050;0.660
05/09/2011 09:25 AM;411.113;0.756
05/09/2011 09:30 AM;411.170;0.684
05/09/2011 09:35 AM;411.226;0.672
05/09/2011 09:40 AM;411.305;0.948
05/09/2011 09:45 AM;411.401;1.152
05/09/2011 09:50 AM;411.453;0.624
05/09/2011 09:55 AM;411.492;0.468
05/09/2011 10:00 AM;411.545;0.636
05/09/2011 10:05 AM;411.663;1.416
05/09/2011 10:10 AM;411.781;1.416
05/09/2011 10:15 AM;411.874;1.116
05/09/2011 10:20 AM;411.919;0.540
05/09/2011 10:25 AM;411.970;0.612
05/09/2011 10:30 AM;412.016;0.552
05/09/2011 10:35 AM;412.059;0.516
05/09/2011 10:40 AM;412.107;0.576
05/09/2011 10:45 AM;412.182;0.900
05/09/2011 10:50 AM;412.272;1.080
05/09/2011 10:55 AM;412.384;1.344
05/09/2011 11:00 AM;412.495;1.332
05/09/2011 11:05 AM;412.645;1.800
05/09/2011 11:10 AM;412.699;0.648
05/09/2011 11:15 AM;412.762;0.756
05/09/2011 11:20 AM;412.894;1.584
05/09/2011 11:25 AM;413.020;1.512
05/09/2011 11:30 AM;413.085;0.780
05/09/2011 11:35 AM;413.141;0.672
05/09/2011 11:40 AM;413.197;0.672
05/09/2011 11:45 AM;413.258;0.732
05/09/2011 11:50 AM;413.318;0.720
05/09/2011 11:55 AM;413.426;1.296
05/09/2011 12:00 PM;413.593;2.004
05/09/2011 12:05 PM;413.705;1.344
05/09/2011 12:10 PM;413.891;2.232
05/09/2011 12:15 PM;414.091;2.400
05/09/2011 12:20 PM;414.256;1.980
05/09/2011 12:25 PM;414.400;1.728
05/09/2011 12:30 PM;414.552;1.824
05/09/2011 12:35 PM;414.774;2.664
05/09/2011 12:40 PM;415.005;2.772
05/09/2011 12:45 PM;415.128;1.476
05/09/2011 12:50 PM;415.293;1.980
05/09/2011 12:55 PM;415.483;2.280
05/09/2011 01:00 PM;415.647;1.968
05/09/2011 01:05 PM;415.806;1.908
05/09/2011 01:10 PM;415.948;1.704
05/09/2011 01:15 PM;416.093;1.740
05/09/2011 01:20 PM;416.208;1.380
05/09/2011 01:25 PM;416.324;1.392
05/09/2011 01:30 PM;416.428;1.248
05/09/2011 01:35 PM;416.564;1.632
05/09/2011 01:40 PM;416.742;2.136
05/09/2011 01:45 PM;416.905;1.956
05/09/2011 01:50 PM;417.106;2.412
05/09/2011 01:55 PM;417.302;2.352
05/09/2011 02:00 PM;417.486;2.208
05/09/2011 02:05 PM;417.683;2.364
05/09/2011 02:10 PM;417.873;2.280
05/09/2011 02:15 PM;418.053;2.160
05/09/2011 02:20 PM;418.185;1.584
05/09/2011 02:25 PM;418.309;1.488
05/09/2011 02:30 PM;418.387;0.936
05/09/2011 02:35 PM;418.457;0.840
05/09/2011 02:40 PM;418.579;1.464
05/09/2011 02:45 PM;418.659;0.960
05/09/2011 02:50 PM;418.744;1.020
05/09/2011 02:55 PM;418.829;1.020
05/09/2011 03:00 PM;418.988;1.908
05/09/2011 03:05 PM;419.150;1.944
05/09/2011 03:10 PM;419.304;1.848
05/09/2011 03:15 PM;419.464;1.920
05/09/2011 03:20 PM;419.607;1.716
05/09/2011 03:25 PM;419.707;1.200
05/09/2011 03:30 PM;419.820;1.356
05/09/2011 03:35 PM;419.923;1.236
05/09/2011 03:40 PM;420.050;1.524
05/09/2011 03:45 PM;420.123;0.876
05/09/2011 03:50 PM;420.227;1.248
05/09/2011 03:55 PM;420.345;1.416
05/09/2011 04:00 PM;420.482;1.644
05/09/2011 04:05 PM;420.578;1.152
05/09/2011 04:10 PM;420.623;0.540
05/09/2011 04:15 PM;420.730;1.284
05/09/2011 04:20 PM;420.835;1.260
05/09/2011 04:25 PM;420.935;1.200
05/09/2011 04:30 PM;421.031;1.152
05/09/2011 04:35 PM;421.114;0.996
05/09/2011 04:40 PM;421.187;0.876
05/09/2011 04:45 PM;421.256;0.828
05/09/2011 04:50 PM;421.320;0.768
05/09/2011 04:55 PM;421.381;0.732
05/09/2011 05:00 PM;421.436;0.660
05/09/2011 05:05 PM;421.484;0.576
05/09/2011 05:10 PM;421.526;0.504
05/09/2011 05:15 PM;421.561;0.420
05/09/2011 05:20 PM;421.590;0.348
05/09/2011 05:25 PM;421.614;0.288
05/09/2011 05:30 PM;421.633;0.228
05/09/2011 05:35 PM;421.647;0.168
05/09/2011 05:40 PM;421.656;0.108
05/09/2011 05:45 PM;421.657;0.012
05/09/2011 05:50 PM;421.658;0.012
05/09/2011 05:55 PM;421.658;0.000
05/09/2011 06:00 PM;421.658;0.000
05/09/2011 06:05 PM;421.658;0.000
05/09/2011 06:10 PM;421.658;0.000
05/09/2011 06:15 PM;421.658;0.000
05/09/2011 06:20 PM;421.658;0.000
05/09/2011 06:25 PM;421.658;0.000
05/09/2011 06:30 PM;421.658;0.000
05/09/2011 06:35 PM;421.658;0.000
05/09/2011 06:40 PM;421.658;0.000
05/09/2011 06:45 PM;421.658;0.000
05/09/2011 06:50 PM;421.658;0.000
05/09/2011 06:55 PM;421.658;0.000
05/09/2011 07:00 PM;421.658;0.000
05/09/2011 07:05 PM;421.658;0.000
05/09/2011 07:10 PM;421.658;0.000
05/09/2011 07:15 PM;421.658;0.000
05/09/2011 07:20 PM;421.658;0.000
05/09/2011 07:25 PM;421.658;0.000
05/09/2011 07:30 PM;421.658;0.000
05/09/2011 07:35 PM;421.658;0.000
05/09/2011 07:40 PM;421.658;0.000
05/09/2011 07:45 PM;421.658;0.000
05/09/2011 07:50 PM;421.658;0.000
05/09/2011 07:55 PM;421.658;0.000
05/09/2011 08:00 PM;421.658;0.000
05/09/2011 08:05 PM;421.658;0.000
05/09/2011 08:10 PM;421.658;0.000
05/09/2011 08:15 PM;421.658;0.000
05/09/2011 08:20 PM;421.658;0.000
05/09/2011 08:25 PM;421.658;0.000
05/09/2011 08:30 PM;421.658;0.000
05/09/2011 08:35 PM;421.658;0.000
05/09/2011 08:40 PM;421.658;0.000
05/09/2011 08:45 PM;421.658;0.000
05/09/2011 08:50 PM;421.658;0.000
05/09/2011 08:55 PM;421.658;0.000
05/09/2011 09:00 PM;421.658;0.000
05/09/2011 09:05 PM;421.658;0.000
05/09/2011 09:10 PM;421.658;0.000
05/09/2011 09:15 PM;421.658;0.000
05/09/2011 09:20 PM;421.658;0.000
05/09/2011 09:25 PM;421.658;0.000
05/09/2011 09:30 PM;421.658;0.000
05/09/2011 09:35 PM;421.658;0.000
05/09/2011 09:40 PM;421.658;0.000
05/09/2011 09:45 PM;421.658;0.000
05/09/2011 09:50 PM;421.658;0.000
05/09/2011 09:55 PM;421.658;0.000
05/09/2011 10:00 PM;421.658;0.000
05/09/2011 10:05 PM;421.658;0.000
05/09/2011 10:10 PM;421.658;0.000
05/09/2011 10:15 PM;421.658;0.000
05/09/2011 10:20 PM;421.658;0.000
05/09/2011 10:25 PM;421.658;0.000
05/09/2011 10:30 PM;421.658;0.000
05/09/2011 10:35 PM;421.658;0.000
05/09/2011 10:40 PM;421.658;0.000
05/09/2011 10:45 PM;421.658;0.000
05/09/2011 10:50 PM;421.658;0.000
05/09/2011 10:55 PM;421.658;0.000
05/09/2011 11:00 PM;421.658;0.000
05/09/2011 11:05 PM;421.658;0.000
05/09/2011 11:10 PM;421.658;0.000
05/09/2011 11:15 PM;421.658;0.000
05/09/2011 11:20 PM;421.658;0.000
05/09/2011 11:25 PM;421.658;0.000
05/09/2011 11:30 PM;421.658;0.000
05/09/2011 11:35 PM;421.658;0.000
05/09/2011 11:40 PM;421.658;0.000
05/09/2011 11:45 PM;421.658;0.000
05/09/2011 11:50 PM;421.658;0.000
05/09/2011 11:55 PM;421.658;0.000
