sep=;
Version CSV1|Tool SE|Linebreaks CR/LF|Delimiter semicolon|Decimalpoint dot|Precision 3

;SN: 2100448037;SN: 2100448037
;SB 3000TL-20;SB 3000TL-20
;2100448037;2100448037
;Total yield;Power
;Counter;Analog
dd/MM/yyyy hh:mm tt;kWh;kW
19/08/2011 12:00 AM;195.041;0.000
19/08/2011 12:05 AM;195.041;0.000
19/08/2011 12:10 AM;195.041;0.000
19/08/2011 12:15 AM;195.041;0.000
19/08/2011 12:20 AM;195.041;0.000
19/08/2011 12:25 AM;195.041;0.000
19/08/2011 12:30 AM;195.041;0.000
19/08/2011 12:35 AM;195.041;0.000
19/08/2011 12:40 AM;195.041;0.000
19/08/2011 12:45 AM;195.041;0.000
19/08/2011 12:50 AM;195.041;0.000
19/08/2011 12:55 AM;195.041;0.000
19/08/2011 01:00 AM;195.041;0.000
19/08/2011 01:05 AM;195.041;0.000
19/08/2011 01:10 AM;195.041;0.000
19/08/2011 01:15 AM;195.041;0.000
19/08/2011 01:20 AM;195.041;0.000
19/08/2011 01:25 AM;195.041;0.000
19/08/2011 01:30 AM;195.041;0.000
19/08/2011 01:35 AM;195.041;0.000
19/08/2011 01:40 AM;195.041;0.000
19/08/2011 01:45 AM;195.041;0.000
19/08/2011 01:50 AM;195.041;0.000
19/08/2011 01:55 AM;195.041;0.000
19/08/2011 02:00 AM;195.041;0.000
19/08/2011 02:05 AM;195.041;0.000
19/08/2011 02:10 AM;195.041;0.000
19/08/2011 02:15 AM;195.041;0.000
19/08/2011 02:20 AM;195.041;0.000
19/08/2011 02:25 AM;195.041;0.000
19/08/2011 02:30 AM;195.041;0.000
19/08/2011 02:35 AM;195.041;0.000
19/08/2011 02:40 AM;195.041;0.000
19/08/2011 02:45 AM;195.041;0.000
19/08/2011 02:50 AM;195.041;0.000
19/08/2011 02:55 AM;195.041;0.000
19/08/2011 03:00 AM;195.041;0.000
19/08/2011 03:05 AM;195.041;0.000
19/08/2011 03:10 AM;195.041;0.000
19/08/2011 03:15 AM;195.041;0.000
19/08/2011 03:20 AM;195.041;0.000
19/08/2011 03:25 AM;195.041;0.000
19/08/2011 03:30 AM;195.041;0.000
19/08/2011 03:35 AM;195.041;0.000
19/08/2011 03:40 AM;195.041;0.000
19/08/2011 03:45 AM;195.041;0.000
19/08/2011 03:50 AM;195.041;0.000
19/08/2011 03:55 AM;195.041;0.000
19/08/2011 04:00 AM;195.041;0.000
19/08/2011 04:05 AM;195.041;0.000
19/08/2011 04:10 AM;195.041;0.000
19/08/2011 04:15 AM;195.041;0.000
19/08/2011 04:20 AM;195.041;0.000
19/08/2011 04:25 AM;195.041;0.000
19/08/2011 04:30 AM;195.041;0.000
19/08/2011 04:35 AM;195.041;0.000
19/08/2011 04:40 AM;195.041;0.000
19/08/2011 04:45 AM;195.041;0.000
19/08/2011 04:50 AM;195.041;0.000
19/08/2011 04:55 AM;195.041;0.000
19/08/2011 05:00 AM;195.041;0.000
19/08/2011 05:05 AM;195.041;0.000
19/08/2011 05:10 AM;195.041;0.000
19/08/2011 05:15 AM;195.041;0.000
19/08/2011 05:20 AM;195.041;0.000
19/08/2011 05:25 AM;195.041;0.000
19/08/2011 05:30 AM;195.041;0.000
19/08/2011 05:35 AM;195.041;0.000
19/08/2011 05:40 AM;195.041;0.000
19/08/2011 05:45 AM;195.041;0.000
19/08/2011 05:50 AM;195.041;0.000
19/08/2011 05:55 AM;195.041;0.000
19/08/2011 06:00 AM;195.041;0.000
19/08/2011 06:05 AM;195.041;0.000
19/08/2011 06:10 AM;195.041;0.000
19/08/2011 06:15 AM;195.041;0.000
19/08/2011 06:20 AM;195.041;0.000
19/08/2011 06:25 AM;195.041;0.000
19/08/2011 06:30 AM;195.041;0.000
19/08/2011 06:35 AM;195.041;0.000
19/08/2011 06:40 AM;195.041;0.000
19/08/2011 06:45 AM;195.041;0.000
19/08/2011 06:50 AM;195.041;0.000
19/08/2011 06:55 AM;195.041;0.000
19/08/2011 07:00 AM;195.041;0.000
19/08/2011 07:05 AM;195.041;0.000
19/08/2011 07:10 AM;195.041;0.000
19/08/2011 07:15 AM;195.043;0.024
19/08/2011 07:20 AM;195.045;0.024
19/08/2011 07:25 AM;195.049;0.048
19/08/2011 07:30 AM;195.061;0.144
19/08/2011 07:35 AM;195.080;0.228
19/08/2011 07:40 AM;195.109;0.348
19/08/2011 07:45 AM;195.142;0.396
19/08/2011 07:50 AM;195.179;0.444
19/08/2011 07:55 AM;195.222;0.516
19/08/2011 08:00 AM;195.269;0.564
19/08/2011 08:05 AM;195.320;0.612
19/08/2011 08:10 AM;195.375;0.660
19/08/2011 08:15 AM;195.435;0.720
19/08/2011 08:20 AM;195.499;0.768
19/08/2011 08:25 AM;195.566;0.804
19/08/2011 08:30 AM;195.637;0.852
19/08/2011 08:35 AM;195.713;0.912
19/08/2011 08:40 AM;195.792;0.948
19/08/2011 08:45 AM;195.876;1.008
19/08/2011 08:50 AM;195.964;1.056
19/08/2011 08:55 AM;196.057;1.116
19/08/2011 09:00 AM;196.154;1.164
19/08/2011 09:05 AM;196.255;1.212
19/08/2011 09:10 AM;196.360;1.260
19/08/2011 09:15 AM;196.469;1.308
19/08/2011 09:20 AM;196.583;1.368
19/08/2011 09:25 AM;196.700;1.404
19/08/2011 09:30 AM;196.821;1.452
19/08/2011 09:35 AM;196.946;1.500
19/08/2011 09:40 AM;197.074;1.536
19/08/2011 09:45 AM;197.206;1.584
19/08/2011 09:50 AM;197.342;1.632
19/08/2011 09:55 AM;197.480;1.656
19/08/2011 10:00 AM;197.620;1.680
19/08/2011 10:05 AM;197.764;1.728
19/08/2011 10:10 AM;197.911;1.764
19/08/2011 10:15 AM;198.061;1.800
19/08/2011 10:20 AM;198.213;1.824
19/08/2011 10:25 AM;198.367;1.848
19/08/2011 10:30 AM;198.523;1.872
19/08/2011 10:35 AM;198.682;1.908
19/08/2011 10:40 AM;198.843;1.932
19/08/2011 10:45 AM;199.007;1.968
19/08/2011 10:50 AM;199.173;1.992
19/08/2011 10:55 AM;199.341;2.016
19/08/2011 11:00 AM;199.510;2.028
19/08/2011 11:05 AM;199.681;2.052
19/08/2011 11:10 AM;199.853;2.064
19/08/2011 11:15 AM;200.027;2.088
19/08/2011 11:20 AM;200.202;2.100
19/08/2011 11:25 AM;200.379;2.124
19/08/2011 11:30 AM;200.557;2.136
19/08/2011 11:35 AM;200.735;2.136
19/08/2011 11:40 AM;200.915;2.160
19/08/2011 11:45 AM;201.095;2.160
19/08/2011 11:50 AM;201.276;2.172
19/08/2011 11:55 AM;201.458;2.184
19/08/2011 12:00 PM;201.640;2.184
19/08/2011 12:05 PM;201.823;2.196
19/08/2011 12:10 PM;202.006;2.196
19/08/2011 12:15 PM;202.189;2.196
19/08/2011 12:20 PM;202.372;2.196
19/08/2011 12:25 PM;202.555;2.196
19/08/2011 12:30 PM;202.740;2.220
19/08/2011 12:35 PM;202.924;2.208
19/08/2011 12:40 PM;203.108;2.208
19/08/2011 12:45 PM;203.292;2.208
19/08/2011 12:50 PM;203.475;2.196
19/08/2011 12:55 PM;203.657;2.184
19/08/2011 01:00 PM;203.839;2.184
19/08/2011 01:05 PM;204.020;2.172
19/08/2011 01:10 PM;204.202;2.184
19/08/2011 01:15 PM;204.382;2.160
19/08/2011 01:20 PM;204.561;2.148
19/08/2011 01:25 PM;204.740;2.148
19/08/2011 01:30 PM;204.919;2.148
19/08/2011 01:35 PM;205.096;2.124
19/08/2011 01:40 PM;205.273;2.124
19/08/2011 01:45 PM;205.446;2.076
19/08/2011 01:50 PM;205.619;2.076
19/08/2011 01:55 PM;205.789;2.040
19/08/2011 02:00 PM;205.959;2.040
19/08/2011 02:05 PM;206.126;2.004
19/08/2011 02:10 PM;206.292;1.992
19/08/2011 02:15 PM;206.456;1.968
19/08/2011 02:20 PM;206.618;1.944
19/08/2011 02:25 PM;206.777;1.908
19/08/2011 02:30 PM;206.933;1.872
19/08/2011 02:35 PM;207.089;1.872
19/08/2011 02:40 PM;207.243;1.848
19/08/2011 02:45 PM;207.395;1.824
19/08/2011 02:50 PM;207.544;1.788
19/08/2011 02:55 PM;207.690;1.752
19/08/2011 03:00 PM;207.834;1.728
19/08/2011 03:05 PM;207.975;1.692
19/08/2011 03:10 PM;208.112;1.644
19/08/2011 03:15 PM;208.247;1.620
19/08/2011 03:20 PM;208.378;1.572
19/08/2011 03:25 PM;208.506;1.536
19/08/2011 03:30 PM;208.630;1.488
19/08/2011 03:35 PM;208.752;1.464
19/08/2011 03:40 PM;208.870;1.416
19/08/2011 03:45 PM;208.983;1.356
19/08/2011 03:50 PM;209.093;1.320
19/08/2011 03:55 PM;209.199;1.272
19/08/2011 04:00 PM;209.302;1.236
19/08/2011 04:05 PM;209.400;1.176
19/08/2011 04:10 PM;209.495;1.140
19/08/2011 04:15 PM;209.585;1.080
19/08/2011 04:20 PM;209.671;1.032
19/08/2011 04:25 PM;209.752;0.972
19/08/2011 04:30 PM;209.828;0.912
19/08/2011 04:35 PM;209.900;0.864
19/08/2011 04:40 PM;209.967;0.804
19/08/2011 04:45 PM;210.029;0.744
19/08/2011 04:50 PM;210.086;0.684
19/08/2011 04:55 PM;210.137;0.612
19/08/2011 05:00 PM;210.184;0.564
19/08/2011 05:05 PM;210.225;0.492
19/08/2011 05:10 PM;210.261;0.432
19/08/2011 05:15 PM;210.291;0.360
19/08/2011 05:20 PM;210.315;0.288
19/08/2011 05:25 PM;210.334;0.228
19/08/2011 05:30 PM;210.346;0.144
19/08/2011 05:35 PM;210.353;0.084
19/08/2011 05:40 PM;210.357;0.048
19/08/2011 05:45 PM;210.357;0.000
19/08/2011 05:50 PM;210.357;0.000
19/08/2011 05:55 PM;210.357;0.000
19/08/2011 06:00 PM;210.357;0.000
19/08/2011 06:05 PM;210.357;0.000
19/08/2011 06:10 PM;210.357;0.000
19/08/2011 06:15 PM;210.357;0.000
19/08/2011 06:20 PM;210.357;0.000
19/08/2011 06:25 PM;210.357;0.000
19/08/2011 06:30 PM;210.357;0.000
19/08/2011 06:35 PM;210.357;0.000
19/08/2011 06:40 PM;210.357;0.000
19/08/2011 06:45 PM;210.357;0.000
19/08/2011 06:50 PM;210.357;0.000
19/08/2011 06:55 PM;210.357;0.000
19/08/2011 07:00 PM;210.357;0.000
19/08/2011 07:05 PM;210.357;0.000
19/08/2011 07:10 PM;210.357;0.000
19/08/2011 07:15 PM;210.357;0.000
19/08/2011 07:20 PM;210.357;0.000
19/08/2011 07:25 PM;210.357;0.000
19/08/2011 07:30 PM;210.357;0.000
19/08/2011 07:35 PM;210.357;0.000
19/08/2011 07:40 PM;210.357;0.000
19/08/2011 07:45 PM;210.357;0.000
19/08/2011 07:50 PM;210.357;0.000
19/08/2011 07:55 PM;210.357;0.000
19/08/2011 08:00 PM;210.357;0.000
19/08/2011 08:05 PM;210.357;0.000
19/08/2011 08:10 PM;210.357;0.000
19/08/2011 08:15 PM;210.357;0.000
19/08/2011 08:20 PM;210.357;0.000
19/08/2011 08:25 PM;210.357;0.000
19/08/2011 08:30 PM;210.357;0.000
19/08/2011 08:35 PM;210.357;0.000
19/08/2011 08:40 PM;210.357;0.000
19/08/2011 08:45 PM;210.357;0.000
19/08/2011 08:50 PM;210.357;0.000
19/08/2011 08:55 PM;210.357;0.000
19/08/2011 09:00 PM;210.357;0.000
19/08/2011 09:05 PM;210.357;0.000
19/08/2011 09:10 PM;210.357;0.000
19/08/2011 09:15 PM;210.357;0.000
19/08/2011 09:20 PM;210.357;0.000
19/08/2011 09:25 PM;210.357;0.000
19/08/2011 09:30 PM;210.357;0.000
19/08/2011 09:35 PM;210.357;0.000
19/08/2011 09:40 PM;210.357;0.000
19/08/2011 09:45 PM;210.357;0.000
19/08/2011 09:50 PM;210.357;0.000
19/08/2011 09:55 PM;210.357;0.000
19/08/2011 10:00 PM;210.357;0.000
19/08/2011 10:05 PM;210.357;0.000
19/08/2011 10:10 PM;210.357;0.000
19/08/2011 10:15 PM;210.357;0.000
19/08/2011 10:20 PM;210.357;0.000
19/08/2011 10:25 PM;210.357;0.000
19/08/2011 10:30 PM;210.357;0.000
19/08/2011 10:35 PM;210.357;0.000
19/08/2011 10:40 PM;210.357;0.000
19/08/2011 10:45 PM;210.357;0.000
19/08/2011 10:50 PM;210.357;0.000
19/08/2011 10:55 PM;210.357;0.000
19/08/2011 11:00 PM;210.357;0.000
19/08/2011 11:05 PM;210.357;0.000
19/08/2011 11:10 PM;210.357;0.000
19/08/2011 11:15 PM;210.357;0.000
19/08/2011 11:20 PM;210.357;0.000
19/08/2011 11:25 PM;210.357;0.000
19/08/2011 11:30 PM;210.357;0.000
19/08/2011 11:35 PM;210.357;0.000
19/08/2011 11:40 PM;210.357;0.000
19/08/2011 11:45 PM;210.357;0.000
19/08/2011 11:50 PM;210.357;0.000
19/08/2011 11:55 PM;210.357;0.000
