sep=;
Version CSV1|Tool SE|Linebreaks CR/LF|Delimiter semicolon|Decimalpoint dot|Precision 3

;SN: 2100448037;SN: 2100448037
;SB 3000TL-20;SB 3000TL-20
;2100448037;2100448037
;Total yield;Power
;Counter;Analog
dd/MM/yyyy hh:mm tt;kWh;kW
15/09/2011 12:00 AM;568.473;0.000
15/09/2011 12:05 AM;568.473;0.000
15/09/2011 12:10 AM;568.473;0.000
15/09/2011 12:15 AM;568.473;0.000
15/09/2011 12:20 AM;568.473;0.000
15/09/2011 12:25 AM;568.473;0.000
15/09/2011 12:30 AM;568.473;0.000
15/09/2011 12:35 AM;568.473;0.000
15/09/2011 12:40 AM;568.473;0.000
15/09/2011 12:45 AM;568.473;0.000
15/09/2011 12:50 AM;568.473;0.000
15/09/2011 12:55 AM;568.473;0.000
15/09/2011 01:00 AM;568.473;0.000
15/09/2011 01:05 AM;568.473;0.000
15/09/2011 01:10 AM;568.473;0.000
15/09/2011 01:15 AM;568.473;0.000
15/09/2011 01:20 AM;568.473;0.000
15/09/2011 01:25 AM;568.473;0.000
15/09/2011 01:30 AM;568.473;0.000
15/09/2011 01:35 AM;568.473;0.000
15/09/2011 01:40 AM;568.473;0.000
15/09/2011 01:45 AM;568.473;0.000
15/09/2011 01:50 AM;568.473;0.000
15/09/2011 01:55 AM;568.473;0.000
15/09/2011 02:00 AM;568.473;0.000
15/09/2011 02:05 AM;568.473;0.000
15/09/2011 02:10 AM;568.473;0.000
15/09/2011 02:15 AM;568.473;0.000
15/09/2011 02:20 AM;568.473;0.000
15/09/2011 02:25 AM;568.473;0.000
15/09/2011 02:30 AM;568.473;0.000
15/09/2011 02:35 AM;568.473;0.000
15/09/2011 02:40 AM;568.473;0.000
15/09/2011 02:45 AM;568.473;0.000
15/09/2011 02:50 AM;568.473;0.000
15/09/2011 02:55 AM;568.473;0.000
15/09/2011 03:00 AM;568.473;0.000
15/09/2011 03:05 AM;568.473;0.000
15/09/2011 03:10 AM;568.473;0.000
15/09/2011 03:15 AM;568.473;0.000
15/09/2011 03:20 AM;568.473;0.000
15/09/2011 03:25 AM;568.473;0.000
15/09/2011 03:30 AM;568.473;0.000
15/09/2011 03:35 AM;568.473;0.000
15/09/2011 03:40 AM;568.473;0.000
15/09/2011 03:45 AM;568.473;0.000
15/09/2011 03:50 AM;568.473;0.000
15/09/2011 03:55 AM;568.473;0.000
15/09/2011 04:00 AM;568.473;0.000
15/09/2011 04:05 AM;568.473;0.000
15/09/2011 04:10 AM;568.473;0.000
15/09/2011 04:15 AM;568.473;0.000
15/09/2011 04:20 AM;568.473;0.000
15/09/2011 04:25 AM;568.473;0.000
15/09/2011 04:30 AM;568.473;0.000
15/09/2011 04:35 AM;568.473;0.000
15/09/2011 04:40 AM;568.473;0.000
15/09/2011 04:45 AM;568.473;0.000
15/09/2011 04:50 AM;568.473;0.000
15/09/2011 04:55 AM;568.473;0.000
15/09/2011 05:00 AM;568.473;0.000
15/09/2011 05:05 AM;568.473;0.000
15/09/2011 05:10 AM;568.473;0.000
15/09/2011 05:15 AM;568.473;0.000
15/09/2011 05:20 AM;568.473;0.000
15/09/2011 05:25 AM;568.473;0.000
15/09/2011 05:30 AM;568.473;0.000
15/09/2011 05:35 AM;568.473;0.000
15/09/2011 05:40 AM;568.473;0.000
15/09/2011 05:45 AM;568.473;0.000
15/09/2011 05:50 AM;568.473;0.000
15/09/2011 05:55 AM;568.473;0.000
15/09/2011 06:00 AM;568.473;0.000
15/09/2011 06:05 AM;568.473;0.000
15/09/2011 06:10 AM;568.473;0.000
15/09/2011 06:15 AM;568.473;0.000
15/09/2011 06:20 AM;568.473;0.000
15/09/2011 06:25 AM;568.473;0.000
15/09/2011 06:30 AM;568.473;0.000
15/09/2011 06:35 AM;568.473;0.000
15/09/2011 06:40 AM;568.473;0.000
15/09/2011 06:45 AM;568.474;0.012
15/09/2011 06:50 AM;568.476;0.024
15/09/2011 06:55 AM;568.477;0.012
15/09/2011 07:00 AM;568.479;0.024
15/09/2011 07:05 AM;568.483;0.048
15/09/2011 07:10 AM;568.488;0.060
15/09/2011 07:15 AM;568.491;0.036
15/09/2011 07:20 AM;568.495;0.048
15/09/2011 07:25 AM;568.500;0.060
15/09/2011 07:30 AM;568.508;0.096
15/09/2011 07:35 AM;568.518;0.120
15/09/2011 07:40 AM;568.525;0.084
15/09/2011 07:45 AM;568.536;0.132
15/09/2011 07:50 AM;568.549;0.156
15/09/2011 07:55 AM;568.565;0.192
15/09/2011 08:00 AM;568.582;0.204
15/09/2011 08:05 AM;568.600;0.216
15/09/2011 08:10 AM;568.624;0.288
15/09/2011 08:15 AM;568.648;0.288
15/09/2011 08:20 AM;568.668;0.240
15/09/2011 08:25 AM;568.696;0.336
15/09/2011 08:30 AM;568.732;0.432
15/09/2011 08:35 AM;568.757;0.300
15/09/2011 08:40 AM;568.786;0.348
15/09/2011 08:45 AM;568.823;0.444
15/09/2011 08:50 AM;568.864;0.492
15/09/2011 08:55 AM;568.905;0.492
15/09/2011 09:00 AM;568.942;0.444
15/09/2011 09:05 AM;568.973;0.372
15/09/2011 09:10 AM;569.010;0.444
15/09/2011 09:15 AM;569.052;0.504
15/09/2011 09:20 AM;569.079;0.324
15/09/2011 09:25 AM;569.116;0.444
15/09/2011 09:30 AM;569.151;0.420
15/09/2011 09:35 AM;569.191;0.480
15/09/2011 09:40 AM;569.225;0.408
15/09/2011 09:45 AM;569.261;0.432
15/09/2011 09:50 AM;569.294;0.396
15/09/2011 09:55 AM;569.340;0.552
15/09/2011 10:00 AM;569.399;0.708
15/09/2011 10:05 AM;569.449;0.600
15/09/2011 10:10 AM;569.488;0.468
15/09/2011 10:15 AM;569.528;0.480
15/09/2011 10:20 AM;569.572;0.528
15/09/2011 10:25 AM;569.619;0.564
15/09/2011 10:30 AM;569.674;0.660
15/09/2011 10:35 AM;569.728;0.648
15/09/2011 10:40 AM;569.779;0.612
15/09/2011 10:45 AM;569.841;0.744
15/09/2011 10:50 AM;569.894;0.636
15/09/2011 10:55 AM;569.956;0.744
15/09/2011 11:00 AM;570.015;0.708
15/09/2011 11:05 AM;570.071;0.672
15/09/2011 11:10 AM;570.128;0.684
15/09/2011 11:15 AM;570.167;0.468
15/09/2011 11:20 AM;570.206;0.468
15/09/2011 11:25 AM;570.246;0.480
15/09/2011 11:30 AM;570.288;0.504
15/09/2011 11:35 AM;570.314;0.312
15/09/2011 11:40 AM;570.348;0.408
15/09/2011 11:45 AM;570.391;0.516
15/09/2011 11:50 AM;570.444;0.636
15/09/2011 11:55 AM;570.518;0.888
15/09/2011 12:00 PM;570.583;0.780
15/09/2011 12:05 PM;570.650;0.804
15/09/2011 12:10 PM;570.702;0.624
15/09/2011 12:15 PM;570.756;0.648
15/09/2011 12:20 PM;570.806;0.600
15/09/2011 12:25 PM;570.846;0.480
15/09/2011 12:30 PM;570.896;0.600
15/09/2011 12:35 PM;570.955;0.708
15/09/2011 12:40 PM;571.007;0.624
15/09/2011 12:45 PM;571.044;0.444
15/09/2011 12:50 PM;571.069;0.300
15/09/2011 12:55 PM;571.095;0.312
15/09/2011 01:00 PM;571.126;0.372
15/09/2011 01:05 PM;571.156;0.360
15/09/2011 01:10 PM;571.200;0.528
15/09/2011 01:15 PM;571.252;0.624
15/09/2011 01:20 PM;571.316;0.768
15/09/2011 01:25 PM;571.372;0.672
15/09/2011 01:30 PM;571.411;0.468
15/09/2011 01:35 PM;571.436;0.300
15/09/2011 01:40 PM;571.464;0.336
15/09/2011 01:45 PM;571.490;0.312
15/09/2011 01:50 PM;571.515;0.300
15/09/2011 01:55 PM;571.548;0.396
15/09/2011 02:00 PM;571.576;0.336
15/09/2011 02:05 PM;571.601;0.300
15/09/2011 02:10 PM;571.625;0.288
15/09/2011 02:15 PM;571.651;0.312
15/09/2011 02:20 PM;571.678;0.324
15/09/2011 02:25 PM;571.708;0.360
15/09/2011 02:30 PM;571.738;0.360
15/09/2011 02:35 PM;571.781;0.516
15/09/2011 02:40 PM;571.823;0.504
15/09/2011 02:45 PM;571.856;0.396
15/09/2011 02:50 PM;571.889;0.396
15/09/2011 02:55 PM;571.916;0.324
15/09/2011 03:00 PM;571.938;0.264
15/09/2011 03:05 PM;571.971;0.396
15/09/2011 03:10 PM;572.002;0.372
15/09/2011 03:15 PM;572.030;0.336
15/09/2011 03:20 PM;572.067;0.444
15/09/2011 03:25 PM;572.119;0.624
15/09/2011 03:30 PM;572.175;0.672
15/09/2011 03:35 PM;572.212;0.444
15/09/2011 03:40 PM;572.238;0.312
15/09/2011 03:45 PM;572.265;0.324
15/09/2011 03:50 PM;572.296;0.372
15/09/2011 03:55 PM;572.333;0.444
15/09/2011 04:00 PM;572.360;0.324
15/09/2011 04:05 PM;572.376;0.192
15/09/2011 04:10 PM;572.389;0.156
15/09/2011 04:15 PM;572.398;0.108
15/09/2011 04:20 PM;572.409;0.132
15/09/2011 04:25 PM;572.426;0.204
15/09/2011 04:30 PM;572.437;0.132
15/09/2011 04:35 PM;572.444;0.084
15/09/2011 04:40 PM;572.451;0.084
15/09/2011 04:45 PM;572.457;0.072
15/09/2011 04:50 PM;572.465;0.096
15/09/2011 04:55 PM;572.481;0.192
15/09/2011 05:00 PM;572.494;0.156
15/09/2011 05:05 PM;572.501;0.084
15/09/2011 05:10 PM;572.513;0.144
15/09/2011 05:15 PM;572.533;0.240
15/09/2011 05:20 PM;572.546;0.156
15/09/2011 05:25 PM;572.583;0.444
15/09/2011 05:30 PM;572.619;0.432
15/09/2011 05:35 PM;572.642;0.276
15/09/2011 05:40 PM;572.658;0.192
15/09/2011 05:45 PM;572.670;0.144
15/09/2011 05:50 PM;572.677;0.084
15/09/2011 05:55 PM;572.680;0.036
15/09/2011 06:00 PM;572.680;0.000
15/09/2011 06:05 PM;572.680;0.000
15/09/2011 06:10 PM;572.680;0.000
15/09/2011 06:15 PM;572.680;0.000
15/09/2011 06:20 PM;572.680;0.000
15/09/2011 06:25 PM;572.680;0.000
15/09/2011 06:30 PM;572.680;0.000
15/09/2011 06:35 PM;572.680;0.000
15/09/2011 06:40 PM;572.680;0.000
15/09/2011 06:45 PM;572.680;0.000
15/09/2011 06:50 PM;572.680;0.000
15/09/2011 06:55 PM;572.680;0.000
15/09/2011 07:00 PM;572.680;0.000
15/09/2011 07:05 PM;572.680;0.000
15/09/2011 07:10 PM;572.680;0.000
15/09/2011 07:15 PM;572.680;0.000
15/09/2011 07:20 PM;572.680;0.000
15/09/2011 07:25 PM;572.680;0.000
15/09/2011 07:30 PM;572.680;0.000
15/09/2011 07:35 PM;572.680;0.000
15/09/2011 07:40 PM;572.680;0.000
15/09/2011 07:45 PM;572.680;0.000
15/09/2011 07:50 PM;572.680;0.000
15/09/2011 07:55 PM;572.680;0.000
15/09/2011 08:00 PM;572.680;0.000
15/09/2011 08:05 PM;572.680;0.000
15/09/2011 08:10 PM;572.680;0.000
15/09/2011 08:15 PM;572.680;0.000
15/09/2011 08:20 PM;572.680;0.000
15/09/2011 08:25 PM;572.680;0.000
15/09/2011 08:30 PM;572.680;0.000
15/09/2011 08:35 PM;572.680;0.000
15/09/2011 08:40 PM;572.680;0.000
15/09/2011 08:45 PM;572.680;0.000
15/09/2011 08:50 PM;572.680;0.000
15/09/2011 08:55 PM;572.680;0.000
15/09/2011 09:00 PM;572.680;0.000
15/09/2011 09:05 PM;572.680;0.000
15/09/2011 09:10 PM;572.680;0.000
15/09/2011 09:15 PM;572.680;0.000
15/09/2011 09:20 PM;572.680;0.000
15/09/2011 09:25 PM;572.680;0.000
15/09/2011 09:30 PM;572.680;0.000
15/09/2011 09:35 PM;572.680;0.000
15/09/2011 09:40 PM;572.680;0.000
15/09/2011 09:45 PM;572.680;0.000
15/09/2011 09:50 PM;572.680;0.000
15/09/2011 09:55 PM;572.680;0.000
15/09/2011 10:00 PM;572.680;0.000
15/09/2011 10:05 PM;572.680;0.000
15/09/2011 10:10 PM;572.680;0.000
15/09/2011 10:15 PM;572.680;0.000
15/09/2011 10:20 PM;572.680;0.000
15/09/2011 10:25 PM;572.680;0.000
15/09/2011 10:30 PM;572.680;0.000
15/09/2011 10:35 PM;572.680;0.000
15/09/2011 10:40 PM;572.680;0.000
15/09/2011 10:45 PM;572.680;0.000
15/09/2011 10:50 PM;572.680;0.000
15/09/2011 10:55 PM;572.680;0.000
15/09/2011 11:00 PM;572.680;0.000
15/09/2011 11:05 PM;572.680;0.000
15/09/2011 11:10 PM;572.680;0.000
15/09/2011 11:15 PM;572.680;0.000
15/09/2011 11:20 PM;572.680;0.000
15/09/2011 11:25 PM;572.680;0.000
15/09/2011 11:30 PM;572.680;0.000
15/09/2011 11:35 PM;572.680;0.000
15/09/2011 11:40 PM;572.680;0.000
15/09/2011 11:45 PM;572.680;0.000
15/09/2011 11:50 PM;572.680;0.000
15/09/2011 11:55 PM;572.680;0.000
