sep=;
Version CSV1|Tool SE|Linebreaks CR/LF|Delimiter semicolon|Decimalpoint dot|Precision 3

;SN: 2100448037;SN: 2100448037
;SB 3000TL-20;SB 3000TL-20
;2100448037;2100448037
;Total yield;Power
;Counter;Analog
dd/MM/yyyy hh:mm tt;kWh;kW
15/08/2011 12:00 AM;148.423;0.000
15/08/2011 12:05 AM;148.423;0.000
15/08/2011 12:10 AM;148.423;0.000
15/08/2011 12:15 AM;148.423;0.000
15/08/2011 12:20 AM;148.423;0.000
15/08/2011 12:25 AM;148.423;0.000
15/08/2011 12:30 AM;148.423;0.000
15/08/2011 12:35 AM;148.423;0.000
15/08/2011 12:40 AM;148.423;0.000
15/08/2011 12:45 AM;148.423;0.000
15/08/2011 12:50 AM;148.423;0.000
15/08/2011 12:55 AM;148.423;0.000
15/08/2011 01:00 AM;148.423;0.000
15/08/2011 01:05 AM;148.423;0.000
15/08/2011 01:10 AM;148.423;0.000
15/08/2011 01:15 AM;148.423;0.000
15/08/2011 01:20 AM;148.423;0.000
15/08/2011 01:25 AM;148.423;0.000
15/08/2011 01:30 AM;148.423;0.000
15/08/2011 01:35 AM;148.423;0.000
15/08/2011 01:40 AM;148.423;0.000
15/08/2011 01:45 AM;148.423;0.000
15/08/2011 01:50 AM;148.423;0.000
15/08/2011 01:55 AM;148.423;0.000
15/08/2011 02:00 AM;148.423;0.000
15/08/2011 02:05 AM;148.423;0.000
15/08/2011 02:10 AM;148.423;0.000
15/08/2011 02:15 AM;148.423;0.000
15/08/2011 02:20 AM;148.423;0.000
15/08/2011 02:25 AM;148.423;0.000
15/08/2011 02:30 AM;148.423;0.000
15/08/2011 02:35 AM;148.423;0.000
15/08/2011 02:40 AM;148.423;0.000
15/08/2011 02:45 AM;148.423;0.000
15/08/2011 02:50 AM;148.423;0.000
15/08/2011 02:55 AM;148.423;0.000
15/08/2011 03:00 AM;148.423;0.000
15/08/2011 03:05 AM;148.423;0.000
15/08/2011 03:10 AM;148.423;0.000
15/08/2011 03:15 AM;148.423;0.000
15/08/2011 03:20 AM;148.423;0.000
15/08/2011 03:25 AM;148.423;0.000
15/08/2011 03:30 AM;148.423;0.000
15/08/2011 03:35 AM;148.423;0.000
15/08/2011 03:40 AM;148.423;0.000
15/08/2011 03:45 AM;148.423;0.000
15/08/2011 03:50 AM;148.423;0.000
15/08/2011 03:55 AM;148.423;0.000
15/08/2011 04:00 AM;148.423;0.000
15/08/2011 04:05 AM;148.423;0.000
15/08/2011 04:10 AM;148.423;0.000
15/08/2011 04:15 AM;148.423;0.000
15/08/2011 04:20 AM;148.423;0.000
15/08/2011 04:25 AM;148.423;0.000
15/08/2011 04:30 AM;148.423;0.000
15/08/2011 04:35 AM;148.423;0.000
15/08/2011 04:40 AM;148.423;0.000
15/08/2011 04:45 AM;148.423;0.000
15/08/2011 04:50 AM;148.423;0.000
15/08/2011 04:55 AM;148.423;0.000
15/08/2011 05:00 AM;148.423;0.000
15/08/2011 05:05 AM;148.423;0.000
15/08/2011 05:10 AM;148.423;0.000
15/08/2011 05:15 AM;148.423;0.000
15/08/2011 05:20 AM;148.423;0.000
15/08/2011 05:25 AM;148.423;0.000
15/08/2011 05:30 AM;148.423;0.000
15/08/2011 05:35 AM;148.423;0.000
15/08/2011 05:40 AM;148.423;0.000
15/08/2011 05:45 AM;148.423;0.000
15/08/2011 05:50 AM;148.423;0.000
15/08/2011 05:55 AM;148.423;0.000
15/08/2011 06:00 AM;148.423;0.000
15/08/2011 06:05 AM;148.423;0.000
15/08/2011 06:10 AM;148.423;0.000
15/08/2011 06:15 AM;148.423;0.000
15/08/2011 06:20 AM;148.423;0.000
15/08/2011 06:25 AM;148.423;0.000
15/08/2011 06:30 AM;148.423;0.000
15/08/2011 06:35 AM;148.423;0.000
15/08/2011 06:40 AM;148.423;0.000
15/08/2011 06:45 AM;148.423;0.000
15/08/2011 06:50 AM;148.423;0.000
15/08/2011 06:55 AM;148.423;0.000
15/08/2011 07:00 AM;148.423;0.000
15/08/2011 07:05 AM;148.423;0.000
15/08/2011 07:10 AM;148.423;0.000
15/08/2011 07:15 AM;148.423;0.000
15/08/2011 07:20 AM;148.423;0.000
15/08/2011 07:25 AM;148.424;0.012
15/08/2011 07:30 AM;148.430;0.072
15/08/2011 07:35 AM;148.441;0.132
15/08/2011 07:40 AM;148.455;0.168
15/08/2011 07:45 AM;148.468;0.156
15/08/2011 07:50 AM;148.472;0.048
15/08/2011 07:55 AM;148.476;0.048
15/08/2011 08:00 AM;148.490;0.168
15/08/2011 08:05 AM;148.518;0.336
15/08/2011 08:10 AM;148.563;0.540
15/08/2011 08:15 AM;148.597;0.408
15/08/2011 08:20 AM;148.619;0.264
15/08/2011 08:25 AM;148.646;0.324
15/08/2011 08:30 AM;148.660;0.168
15/08/2011 08:35 AM;148.725;0.780
15/08/2011 08:40 AM;148.800;0.900
15/08/2011 08:45 AM;148.880;0.960
15/08/2011 08:50 AM;148.954;0.888
15/08/2011 08:55 AM;149.038;1.008
15/08/2011 09:00 AM;149.133;1.140
15/08/2011 09:05 AM;149.230;1.164
15/08/2011 09:10 AM;149.330;1.200
15/08/2011 09:15 AM;149.435;1.260
15/08/2011 09:20 AM;149.546;1.332
15/08/2011 09:25 AM;149.661;1.380
15/08/2011 09:30 AM;149.779;1.416
15/08/2011 09:35 AM;149.902;1.476
15/08/2011 09:40 AM;150.029;1.524
15/08/2011 09:45 AM;150.156;1.524
15/08/2011 09:50 AM;150.289;1.596
15/08/2011 09:55 AM;150.428;1.668
15/08/2011 10:00 AM;150.563;1.620
15/08/2011 10:05 AM;150.703;1.680
15/08/2011 10:10 AM;150.850;1.764
15/08/2011 10:15 AM;150.999;1.788
15/08/2011 10:20 AM;151.154;1.860
15/08/2011 10:25 AM;151.328;2.088
15/08/2011 10:30 AM;151.436;1.296
15/08/2011 10:35 AM;151.599;1.956
15/08/2011 10:40 AM;151.763;1.968
15/08/2011 10:45 AM;151.931;2.016
15/08/2011 10:50 AM;152.104;2.076
15/08/2011 10:55 AM;152.220;1.392
15/08/2011 11:00 AM;152.350;1.560
15/08/2011 11:05 AM;152.518;2.016
15/08/2011 11:10 AM;152.667;1.788
15/08/2011 11:15 AM;152.820;1.836
15/08/2011 11:20 AM;153.006;2.232
15/08/2011 11:25 AM;153.209;2.436
15/08/2011 11:30 AM;153.370;1.932
15/08/2011 11:35 AM;153.453;0.996
15/08/2011 11:40 AM;153.543;1.080
15/08/2011 11:45 AM;153.720;2.124
15/08/2011 11:50 AM;153.906;2.232
15/08/2011 11:55 AM;154.060;1.848
15/08/2011 12:00 PM;154.166;1.272
15/08/2011 12:05 PM;154.248;0.984
15/08/2011 12:10 PM;154.289;0.492
15/08/2011 12:15 PM;154.343;0.648
15/08/2011 12:20 PM;154.496;1.836
15/08/2011 12:25 PM;154.561;0.780
15/08/2011 12:30 PM;154.589;0.336
15/08/2011 12:35 PM;154.643;0.648
15/08/2011 12:40 PM;154.745;1.224
15/08/2011 12:45 PM;154.871;1.512
15/08/2011 12:50 PM;154.966;1.140
15/08/2011 12:55 PM;155.090;1.488
15/08/2011 01:00 PM;155.248;1.896
15/08/2011 01:05 PM;155.441;2.316
15/08/2011 01:10 PM;155.625;2.208
15/08/2011 01:15 PM;155.761;1.632
15/08/2011 01:20 PM;155.859;1.176
15/08/2011 01:25 PM;155.906;0.564
15/08/2011 01:30 PM;155.979;0.876
15/08/2011 01:35 PM;156.100;1.452
15/08/2011 01:40 PM;156.240;1.680
15/08/2011 01:45 PM;156.424;2.208
15/08/2011 01:50 PM;156.605;2.172
15/08/2011 01:55 PM;156.781;2.112
15/08/2011 02:00 PM;156.946;1.980
15/08/2011 02:05 PM;157.139;2.316
15/08/2011 02:10 PM;157.211;0.864
15/08/2011 02:15 PM;157.291;0.960
15/08/2011 02:20 PM;157.353;0.744
15/08/2011 02:25 PM;157.396;0.516
15/08/2011 02:30 PM;157.425;0.348
15/08/2011 02:35 PM;157.450;0.300
15/08/2011 02:40 PM;157.475;0.300
15/08/2011 02:45 PM;157.541;0.792
15/08/2011 02:50 PM;157.617;0.912
15/08/2011 02:55 PM;157.706;1.068
15/08/2011 03:00 PM;157.753;0.564
15/08/2011 03:05 PM;157.763;0.120
15/08/2011 03:10 PM;157.763;0.000
15/08/2011 03:15 PM;157.764;0.012
15/08/2011 03:20 PM;157.766;0.024
15/08/2011 03:25 PM;157.770;0.048
15/08/2011 03:30 PM;157.778;0.096
15/08/2011 03:35 PM;157.802;0.288
15/08/2011 03:40 PM;157.836;0.408
15/08/2011 03:45 PM;157.860;0.288
15/08/2011 03:50 PM;157.876;0.192
15/08/2011 03:55 PM;157.888;0.144
15/08/2011 04:00 PM;157.898;0.120
15/08/2011 04:05 PM;157.908;0.120
15/08/2011 04:10 PM;157.913;0.060
15/08/2011 04:15 PM;157.917;0.048
15/08/2011 04:20 PM;157.923;0.072
15/08/2011 04:25 PM;157.931;0.096
15/08/2011 04:30 PM;157.937;0.072
15/08/2011 04:35 PM;157.946;0.108
15/08/2011 04:40 PM;157.956;0.120
15/08/2011 04:45 PM;157.963;0.084
15/08/2011 04:50 PM;157.967;0.048
15/08/2011 04:55 PM;157.969;0.024
15/08/2011 05:00 PM;157.972;0.036
15/08/2011 05:05 PM;157.973;0.012
15/08/2011 05:10 PM;157.974;0.012
15/08/2011 05:15 PM;157.974;0.000
15/08/2011 05:20 PM;157.974;0.000
15/08/2011 05:25 PM;157.974;0.000
15/08/2011 05:30 PM;157.974;0.000
15/08/2011 05:35 PM;157.974;0.000
15/08/2011 05:40 PM;157.974;0.000
15/08/2011 05:45 PM;157.974;0.000
15/08/2011 05:50 PM;157.974;0.000
15/08/2011 05:55 PM;157.974;0.000
15/08/2011 06:00 PM;157.974;0.000
15/08/2011 06:05 PM;157.974;0.000
15/08/2011 06:10 PM;157.974;0.000
15/08/2011 06:15 PM;157.974;0.000
15/08/2011 06:20 PM;157.974;0.000
15/08/2011 06:25 PM;157.974;0.000
15/08/2011 06:30 PM;157.974;0.000
15/08/2011 06:35 PM;157.974;0.000
15/08/2011 06:40 PM;157.974;0.000
15/08/2011 06:45 PM;157.974;0.000
15/08/2011 06:50 PM;157.974;0.000
15/08/2011 06:55 PM;157.974;0.000
15/08/2011 07:00 PM;157.974;0.000
15/08/2011 07:05 PM;157.974;0.000
15/08/2011 07:10 PM;157.974;0.000
15/08/2011 07:15 PM;157.974;0.000
15/08/2011 07:20 PM;157.974;0.000
15/08/2011 07:25 PM;157.974;0.000
15/08/2011 07:30 PM;157.974;0.000
15/08/2011 07:35 PM;157.974;0.000
15/08/2011 07:40 PM;157.974;0.000
15/08/2011 07:45 PM;157.974;0.000
15/08/2011 07:50 PM;157.974;0.000
15/08/2011 07:55 PM;157.974;0.000
15/08/2011 08:00 PM;157.974;0.000
15/08/2011 08:05 PM;157.974;0.000
15/08/2011 08:10 PM;157.974;0.000
15/08/2011 08:15 PM;157.974;0.000
15/08/2011 08:20 PM;157.974;0.000
15/08/2011 08:25 PM;157.974;0.000
15/08/2011 08:30 PM;157.974;0.000
15/08/2011 08:35 PM;157.974;0.000
15/08/2011 08:40 PM;157.974;0.000
15/08/2011 08:45 PM;157.974;0.000
15/08/2011 08:50 PM;157.974;0.000
15/08/2011 08:55 PM;157.974;0.000
15/08/2011 09:00 PM;157.974;0.000
15/08/2011 09:05 PM;157.974;0.000
15/08/2011 09:10 PM;157.974;0.000
15/08/2011 09:15 PM;157.974;0.000
15/08/2011 09:20 PM;157.974;0.000
15/08/2011 09:25 PM;157.974;0.000
15/08/2011 09:30 PM;157.974;0.000
15/08/2011 09:35 PM;157.974;0.000
15/08/2011 09:40 PM;157.974;0.000
15/08/2011 09:45 PM;157.974;0.000
15/08/2011 09:50 PM;157.974;0.000
15/08/2011 09:55 PM;157.974;0.000
15/08/2011 10:00 PM;157.974;0.000
15/08/2011 10:05 PM;157.974;0.000
15/08/2011 10:10 PM;157.974;0.000
15/08/2011 10:15 PM;157.974;0.000
15/08/2011 10:20 PM;157.974;0.000
15/08/2011 10:25 PM;157.974;0.000
15/08/2011 10:30 PM;157.974;0.000
15/08/2011 10:35 PM;157.974;0.000
15/08/2011 10:40 PM;157.974;0.000
15/08/2011 10:45 PM;157.974;0.000
15/08/2011 10:50 PM;157.974;0.000
15/08/2011 10:55 PM;157.974;0.000
15/08/2011 11:00 PM;157.974;0.000
15/08/2011 11:05 PM;157.974;0.000
15/08/2011 11:10 PM;157.974;0.000
15/08/2011 11:15 PM;157.974;0.000
15/08/2011 11:20 PM;157.974;0.000
15/08/2011 11:25 PM;157.974;0.000
15/08/2011 11:30 PM;157.974;0.000
15/08/2011 11:35 PM;157.974;0.000
15/08/2011 11:40 PM;157.974;0.000
15/08/2011 11:45 PM;157.974;0.000
15/08/2011 11:50 PM;157.974;0.000
15/08/2011 11:55 PM;157.974;0.000
