sep=;
Version CSV1|Tool SE|Linebreaks CR/LF|Delimiter semicolon|Decimalpoint dot|Precision 3

;SN: 2100448037;SN: 2100448037
;SB 3000TL-20;SB 3000TL-20
;2100448037;2100448037
;Total yield;Power
;Counter;Analog
dd/MM/yyyy hh:mm tt;kWh;kW
13/08/2011 12:00 AM;125.520;0.000
13/08/2011 12:05 AM;125.520;0.000
13/08/2011 12:10 AM;125.520;0.000
13/08/2011 12:15 AM;125.520;0.000
13/08/2011 12:20 AM;125.520;0.000
13/08/2011 12:25 AM;125.520;0.000
13/08/2011 12:30 AM;125.520;0.000
13/08/2011 12:35 AM;125.520;0.000
13/08/2011 12:40 AM;125.520;0.000
13/08/2011 12:45 AM;125.520;0.000
13/08/2011 12:50 AM;125.520;0.000
13/08/2011 12:55 AM;125.520;0.000
13/08/2011 01:00 AM;125.520;0.000
13/08/2011 01:05 AM;125.520;0.000
13/08/2011 01:10 AM;125.520;0.000
13/08/2011 01:15 AM;125.520;0.000
13/08/2011 01:20 AM;125.520;0.000
13/08/2011 01:25 AM;125.520;0.000
13/08/2011 01:30 AM;125.520;0.000
13/08/2011 01:35 AM;125.520;0.000
13/08/2011 01:40 AM;125.520;0.000
13/08/2011 01:45 AM;125.520;0.000
13/08/2011 01:50 AM;125.520;0.000
13/08/2011 01:55 AM;125.520;0.000
13/08/2011 02:00 AM;125.520;0.000
13/08/2011 02:05 AM;125.520;0.000
13/08/2011 02:10 AM;125.520;0.000
13/08/2011 02:15 AM;125.520;0.000
13/08/2011 02:20 AM;125.520;0.000
13/08/2011 02:25 AM;125.520;0.000
13/08/2011 02:30 AM;125.520;0.000
13/08/2011 02:35 AM;125.520;0.000
13/08/2011 02:40 AM;125.520;0.000
13/08/2011 02:45 AM;125.520;0.000
13/08/2011 02:50 AM;125.520;0.000
13/08/2011 02:55 AM;125.520;0.000
13/08/2011 03:00 AM;125.520;0.000
13/08/2011 03:05 AM;125.520;0.000
13/08/2011 03:10 AM;125.520;0.000
13/08/2011 03:15 AM;125.520;0.000
13/08/2011 03:20 AM;125.520;0.000
13/08/2011 03:25 AM;125.520;0.000
13/08/2011 03:30 AM;125.520;0.000
13/08/2011 03:35 AM;125.520;0.000
13/08/2011 03:40 AM;125.520;0.000
13/08/2011 03:45 AM;125.520;0.000
13/08/2011 03:50 AM;125.520;0.000
13/08/2011 03:55 AM;125.520;0.000
13/08/2011 04:00 AM;125.520;0.000
13/08/2011 04:05 AM;125.520;0.000
13/08/2011 04:10 AM;125.520;0.000
13/08/2011 04:15 AM;125.520;0.000
13/08/2011 04:20 AM;125.520;0.000
13/08/2011 04:25 AM;125.520;0.000
13/08/2011 04:30 AM;125.520;0.000
13/08/2011 04:35 AM;125.520;0.000
13/08/2011 04:40 AM;125.520;0.000
13/08/2011 04:45 AM;125.520;0.000
13/08/2011 04:50 AM;125.520;0.000
13/08/2011 04:55 AM;125.520;0.000
13/08/2011 05:00 AM;125.520;0.000
13/08/2011 05:05 AM;125.520;0.000
13/08/2011 05:10 AM;125.520;0.000
13/08/2011 05:15 AM;125.520;0.000
13/08/2011 05:20 AM;125.520;0.000
13/08/2011 05:25 AM;125.520;0.000
13/08/2011 05:30 AM;125.520;0.000
13/08/2011 05:35 AM;125.520;0.000
13/08/2011 05:40 AM;125.520;0.000
13/08/2011 05:45 AM;125.520;0.000
13/08/2011 05:50 AM;125.520;0.000
13/08/2011 05:55 AM;125.520;0.000
13/08/2011 06:00 AM;125.520;0.000
13/08/2011 06:05 AM;125.520;0.000
13/08/2011 06:10 AM;125.520;0.000
13/08/2011 06:15 AM;125.520;0.000
13/08/2011 06:20 AM;125.520;0.000
13/08/2011 06:25 AM;125.520;0.000
13/08/2011 06:30 AM;125.520;0.000
13/08/2011 06:35 AM;125.520;0.000
13/08/2011 06:40 AM;125.520;0.000
13/08/2011 06:45 AM;125.520;0.000
13/08/2011 06:50 AM;125.520;0.000
13/08/2011 06:55 AM;125.520;0.000
13/08/2011 07:00 AM;125.520;0.000
13/08/2011 07:05 AM;125.520;0.000
13/08/2011 07:10 AM;125.520;0.000
13/08/2011 07:15 AM;125.520;0.000
13/08/2011 07:20 AM;125.521;0.012
13/08/2011 07:25 AM;125.524;0.036
13/08/2011 07:30 AM;125.530;0.072
13/08/2011 07:35 AM;125.542;0.144
13/08/2011 07:40 AM;125.562;0.240
13/08/2011 07:45 AM;125.590;0.336
13/08/2011 07:50 AM;125.621;0.372
13/08/2011 07:55 AM;125.658;0.444
13/08/2011 08:00 AM;125.699;0.492
13/08/2011 08:05 AM;125.744;0.540
13/08/2011 08:10 AM;125.794;0.600
13/08/2011 08:15 AM;125.845;0.612
13/08/2011 08:20 AM;125.902;0.684
13/08/2011 08:25 AM;125.964;0.744
13/08/2011 08:30 AM;126.031;0.804
13/08/2011 08:35 AM;126.102;0.852
13/08/2011 08:40 AM;126.177;0.900
13/08/2011 08:45 AM;126.257;0.960
13/08/2011 08:50 AM;126.340;0.996
13/08/2011 08:55 AM;126.427;1.044
13/08/2011 09:00 AM;126.518;1.092
13/08/2011 09:05 AM;126.612;1.128
13/08/2011 09:10 AM;126.712;1.200
13/08/2011 09:15 AM;126.815;1.236
13/08/2011 09:20 AM;126.923;1.296
13/08/2011 09:25 AM;127.034;1.332
13/08/2011 09:30 AM;127.150;1.392
13/08/2011 09:35 AM;127.269;1.428
13/08/2011 09:40 AM;127.392;1.476
13/08/2011 09:45 AM;127.518;1.512
13/08/2011 09:50 AM;127.647;1.548
13/08/2011 09:55 AM;127.780;1.596
13/08/2011 10:00 AM;127.915;1.620
13/08/2011 10:05 AM;128.054;1.668
13/08/2011 10:10 AM;128.196;1.704
13/08/2011 10:15 AM;128.339;1.716
13/08/2011 10:20 AM;128.476;1.644
13/08/2011 10:25 AM;128.623;1.764
13/08/2011 10:30 AM;128.778;1.860
13/08/2011 10:35 AM;128.933;1.860
13/08/2011 10:40 AM;129.090;1.884
13/08/2011 10:45 AM;129.245;1.860
13/08/2011 10:50 AM;129.407;1.944
13/08/2011 10:55 AM;129.571;1.968
13/08/2011 11:00 AM;129.735;1.968
13/08/2011 11:05 AM;129.900;1.980
13/08/2011 11:10 AM;130.068;2.016
13/08/2011 11:15 AM;130.236;2.016
13/08/2011 11:20 AM;130.405;2.028
13/08/2011 11:25 AM;130.575;2.040
13/08/2011 11:30 AM;130.746;2.052
13/08/2011 11:35 AM;130.919;2.076
13/08/2011 11:40 AM;131.093;2.088
13/08/2011 11:45 AM;131.267;2.088
13/08/2011 11:50 AM;131.443;2.112
13/08/2011 11:55 AM;131.619;2.112
13/08/2011 12:00 PM;131.797;2.136
13/08/2011 12:05 PM;131.977;2.160
13/08/2011 12:10 PM;132.157;2.160
13/08/2011 12:15 PM;132.338;2.172
13/08/2011 12:20 PM;132.519;2.172
13/08/2011 12:25 PM;132.702;2.196
13/08/2011 12:30 PM;132.885;2.196
13/08/2011 12:35 PM;133.069;2.208
13/08/2011 12:40 PM;133.252;2.196
13/08/2011 12:45 PM;133.436;2.208
13/08/2011 12:50 PM;133.618;2.184
13/08/2011 12:55 PM;133.744;1.512
13/08/2011 01:00 PM;133.871;1.524
13/08/2011 01:05 PM;134.012;1.692
13/08/2011 01:10 PM;134.103;1.092
13/08/2011 01:15 PM;134.204;1.212
13/08/2011 01:20 PM;134.327;1.476
13/08/2011 01:25 PM;134.438;1.332
13/08/2011 01:30 PM;134.558;1.440
13/08/2011 01:35 PM;134.645;1.044
13/08/2011 01:40 PM;134.743;1.176
13/08/2011 01:45 PM;134.872;1.548
13/08/2011 01:50 PM;135.005;1.596
13/08/2011 01:55 PM;135.150;1.740
13/08/2011 02:00 PM;135.304;1.848
13/08/2011 02:05 PM;135.413;1.308
13/08/2011 02:10 PM;135.558;1.740
13/08/2011 02:15 PM;135.672;1.368
13/08/2011 02:20 PM;135.817;1.740
13/08/2011 02:25 PM;135.977;1.920
13/08/2011 02:30 PM;136.099;1.464
13/08/2011 02:35 PM;136.185;1.032
13/08/2011 02:40 PM;136.269;1.008
13/08/2011 02:45 PM;136.348;0.948
13/08/2011 02:50 PM;136.401;0.636
13/08/2011 02:55 PM;136.443;0.504
13/08/2011 03:00 PM;136.482;0.468
13/08/2011 03:05 PM;136.522;0.480
13/08/2011 03:10 PM;136.559;0.444
13/08/2011 03:15 PM;136.600;0.492
13/08/2011 03:20 PM;136.648;0.576
13/08/2011 03:25 PM;136.698;0.600
13/08/2011 03:30 PM;136.729;0.372
13/08/2011 03:35 PM;136.758;0.348
13/08/2011 03:40 PM;136.787;0.348
13/08/2011 03:45 PM;136.812;0.300
13/08/2011 03:50 PM;136.836;0.288
13/08/2011 03:55 PM;136.853;0.204
13/08/2011 04:00 PM;136.867;0.168
13/08/2011 04:05 PM;136.881;0.168
13/08/2011 04:10 PM;136.894;0.156
13/08/2011 04:15 PM;136.906;0.144
13/08/2011 04:20 PM;136.914;0.096
13/08/2011 04:25 PM;136.920;0.072
13/08/2011 04:30 PM;136.923;0.036
13/08/2011 04:35 PM;136.926;0.036
13/08/2011 04:40 PM;136.931;0.060
13/08/2011 04:45 PM;136.937;0.072
13/08/2011 04:50 PM;136.941;0.048
13/08/2011 04:55 PM;136.946;0.060
13/08/2011 05:00 PM;136.949;0.036
13/08/2011 05:05 PM;136.950;0.012
13/08/2011 05:10 PM;136.950;0.000
13/08/2011 05:15 PM;136.950;0.000
13/08/2011 05:20 PM;136.950;0.000
13/08/2011 05:25 PM;136.950;0.000
13/08/2011 05:30 PM;136.950;0.000
13/08/2011 05:35 PM;136.950;0.000
13/08/2011 05:40 PM;136.950;0.000
13/08/2011 05:45 PM;136.950;0.000
13/08/2011 05:50 PM;136.950;0.000
13/08/2011 05:55 PM;136.950;0.000
13/08/2011 06:00 PM;136.950;0.000
13/08/2011 06:05 PM;136.950;0.000
13/08/2011 06:10 PM;136.950;0.000
13/08/2011 06:15 PM;136.950;0.000
13/08/2011 06:20 PM;136.950;0.000
13/08/2011 06:25 PM;136.950;0.000
13/08/2011 06:30 PM;136.950;0.000
13/08/2011 06:35 PM;136.950;0.000
13/08/2011 06:40 PM;136.950;0.000
13/08/2011 06:45 PM;136.950;0.000
13/08/2011 06:50 PM;136.950;0.000
13/08/2011 06:55 PM;136.950;0.000
13/08/2011 07:00 PM;136.950;0.000
13/08/2011 07:05 PM;136.950;0.000
13/08/2011 07:10 PM;136.950;0.000
13/08/2011 07:15 PM;136.950;0.000
13/08/2011 07:20 PM;136.950;0.000
13/08/2011 07:25 PM;136.950;0.000
13/08/2011 07:30 PM;136.950;0.000
13/08/2011 07:35 PM;136.950;0.000
13/08/2011 07:40 PM;136.950;0.000
13/08/2011 07:45 PM;136.950;0.000
13/08/2011 07:50 PM;136.950;0.000
13/08/2011 07:55 PM;136.950;0.000
13/08/2011 08:00 PM;136.950;0.000
13/08/2011 08:05 PM;136.950;0.000
13/08/2011 08:10 PM;136.950;0.000
13/08/2011 08:15 PM;136.950;0.000
13/08/2011 08:20 PM;136.950;0.000
13/08/2011 08:25 PM;136.950;0.000
13/08/2011 08:30 PM;136.950;0.000
13/08/2011 08:35 PM;136.950;0.000
13/08/2011 08:40 PM;136.950;0.000
13/08/2011 08:45 PM;136.950;0.000
13/08/2011 08:50 PM;136.950;0.000
13/08/2011 08:55 PM;136.950;0.000
13/08/2011 09:00 PM;136.950;0.000
13/08/2011 09:05 PM;136.950;0.000
13/08/2011 09:10 PM;136.950;0.000
13/08/2011 09:15 PM;136.950;0.000
13/08/2011 09:20 PM;136.950;0.000
13/08/2011 09:25 PM;136.950;0.000
13/08/2011 09:30 PM;136.950;0.000
13/08/2011 09:35 PM;136.950;0.000
13/08/2011 09:40 PM;136.950;0.000
13/08/2011 09:45 PM;136.950;0.000
13/08/2011 09:50 PM;136.950;0.000
13/08/2011 09:55 PM;136.950;0.000
13/08/2011 10:00 PM;136.950;0.000
13/08/2011 10:05 PM;136.950;0.000
13/08/2011 10:10 PM;136.950;0.000
13/08/2011 10:15 PM;136.950;0.000
13/08/2011 10:20 PM;136.950;0.000
13/08/2011 10:25 PM;136.950;0.000
13/08/2011 10:30 PM;136.950;0.000
13/08/2011 10:35 PM;136.950;0.000
13/08/2011 10:40 PM;136.950;0.000
13/08/2011 10:45 PM;136.950;0.000
13/08/2011 10:50 PM;136.950;0.000
13/08/2011 10:55 PM;136.950;0.000
13/08/2011 11:00 PM;136.950;0.000
13/08/2011 11:05 PM;136.950;0.000
13/08/2011 11:10 PM;136.950;0.000
13/08/2011 11:15 PM;136.950;0.000
13/08/2011 11:20 PM;136.950;0.000
13/08/2011 11:25 PM;136.950;0.000
13/08/2011 11:30 PM;136.950;0.000
13/08/2011 11:35 PM;136.950;0.000
13/08/2011 11:40 PM;136.950;0.000
13/08/2011 11:45 PM;136.950;0.000
13/08/2011 11:50 PM;136.950;0.000
13/08/2011 11:55 PM;136.950;0.000
