sep=;
Version CSV1|Tool SE|Linebreaks CR/LF|Delimiter semicolon|Decimalpoint dot|Precision 3

;SN: 2100448037;SN: 2100448037
;SB 3000TL-20;SB 3000TL-20
;2100448037;2100448037
;Total yield;Power
;Counter;Analog
dd/MM/yyyy hh:mm tt;kWh;kW
08/08/2011 12:00 AM;71.923;0.000
08/08/2011 12:05 AM;71.923;0.000
08/08/2011 12:10 AM;71.923;0.000
08/08/2011 12:15 AM;71.923;0.000
08/08/2011 12:20 AM;71.923;0.000
08/08/2011 12:25 AM;71.923;0.000
08/08/2011 12:30 AM;71.923;0.000
08/08/2011 12:35 AM;71.923;0.000
08/08/2011 12:40 AM;71.923;0.000
08/08/2011 12:45 AM;71.923;0.000
08/08/2011 12:50 AM;71.923;0.000
08/08/2011 12:55 AM;71.923;0.000
08/08/2011 01:00 AM;71.923;0.000
08/08/2011 01:05 AM;71.923;0.000
08/08/2011 01:10 AM;71.923;0.000
08/08/2011 01:15 AM;71.923;0.000
08/08/2011 01:20 AM;71.923;0.000
08/08/2011 01:25 AM;71.923;0.000
08/08/2011 01:30 AM;71.923;0.000
08/08/2011 01:35 AM;71.923;0.000
08/08/2011 01:40 AM;71.923;0.000
08/08/2011 01:45 AM;71.923;0.000
08/08/2011 01:50 AM;71.923;0.000
08/08/2011 01:55 AM;71.923;0.000
08/08/2011 02:00 AM;71.923;0.000
08/08/2011 02:05 AM;71.923;0.000
08/08/2011 02:10 AM;71.923;0.000
08/08/2011 02:15 AM;71.923;0.000
08/08/2011 02:20 AM;71.923;0.000
08/08/2011 02:25 AM;71.923;0.000
08/08/2011 02:30 AM;71.923;0.000
08/08/2011 02:35 AM;71.923;0.000
08/08/2011 02:40 AM;71.923;0.000
08/08/2011 02:45 AM;71.923;0.000
08/08/2011 02:50 AM;71.923;0.000
08/08/2011 02:55 AM;71.923;0.000
08/08/2011 03:00 AM;71.923;0.000
08/08/2011 03:05 AM;71.923;0.000
08/08/2011 03:10 AM;71.923;0.000
08/08/2011 03:15 AM;71.923;0.000
08/08/2011 03:20 AM;71.923;0.000
08/08/2011 03:25 AM;71.923;0.000
08/08/2011 03:30 AM;71.923;0.000
08/08/2011 03:35 AM;71.923;0.000
08/08/2011 03:40 AM;71.923;0.000
08/08/2011 03:45 AM;71.923;0.000
08/08/2011 03:50 AM;71.923;0.000
08/08/2011 03:55 AM;71.923;0.000
08/08/2011 04:00 AM;71.923;0.000
08/08/2011 04:05 AM;71.923;0.000
08/08/2011 04:10 AM;71.923;0.000
08/08/2011 04:15 AM;71.923;0.000
08/08/2011 04:20 AM;71.923;0.000
08/08/2011 04:25 AM;71.923;0.000
08/08/2011 04:30 AM;71.923;0.000
08/08/2011 04:35 AM;71.923;0.000
08/08/2011 04:40 AM;71.923;0.000
08/08/2011 04:45 AM;71.923;0.000
08/08/2011 04:50 AM;71.923;0.000
08/08/2011 04:55 AM;71.923;0.000
08/08/2011 05:00 AM;71.923;0.000
08/08/2011 05:05 AM;71.923;0.000
08/08/2011 05:10 AM;71.923;0.000
08/08/2011 05:15 AM;71.923;0.000
08/08/2011 05:20 AM;71.923;0.000
08/08/2011 05:25 AM;71.923;0.000
08/08/2011 05:30 AM;71.923;0.000
08/08/2011 05:35 AM;71.923;0.000
08/08/2011 05:40 AM;71.923;0.000
08/08/2011 05:45 AM;71.923;0.000
08/08/2011 05:50 AM;71.923;0.000
08/08/2011 05:55 AM;71.923;0.000
08/08/2011 06:00 AM;71.923;0.000
08/08/2011 06:05 AM;71.923;0.000
08/08/2011 06:10 AM;71.923;0.000
08/08/2011 06:15 AM;71.923;0.000
08/08/2011 06:20 AM;71.923;0.000
08/08/2011 06:25 AM;71.923;0.000
08/08/2011 06:30 AM;71.923;0.000
08/08/2011 06:35 AM;71.923;0.000
08/08/2011 06:40 AM;71.923;0.000
08/08/2011 06:45 AM;71.923;0.000
08/08/2011 06:50 AM;71.923;0.000
08/08/2011 06:55 AM;71.923;0.000
08/08/2011 07:00 AM;71.923;0.000
08/08/2011 07:05 AM;71.923;0.000
08/08/2011 07:10 AM;71.923;0.000
08/08/2011 07:15 AM;71.923;0.000
08/08/2011 07:20 AM;71.923;0.000
08/08/2011 07:25 AM;71.923;0.000
08/08/2011 07:30 AM;71.923;0.000
08/08/2011 07:35 AM;71.925;0.024
08/08/2011 07:40 AM;71.928;0.036
08/08/2011 07:45 AM;71.931;0.036
08/08/2011 07:50 AM;71.945;0.168
08/08/2011 07:55 AM;71.974;0.348
08/08/2011 08:00 AM;72.003;0.348
08/08/2011 08:05 AM;72.021;0.216
08/08/2011 08:10 AM;72.033;0.144
08/08/2011 08:15 AM;72.047;0.168
08/08/2011 08:20 AM;72.058;0.132
08/08/2011 08:25 AM;72.062;0.048
08/08/2011 08:30 AM;72.069;0.084
08/08/2011 08:35 AM;72.078;0.108
08/08/2011 08:40 AM;72.089;0.132
08/08/2011 08:45 AM;72.098;0.108
08/08/2011 08:50 AM;72.107;0.108
08/08/2011 08:55 AM;72.120;0.156
08/08/2011 09:00 AM;72.138;0.216
08/08/2011 09:05 AM;72.161;0.276
08/08/2011 09:10 AM;72.190;0.348
08/08/2011 09:15 AM;72.224;0.408
08/08/2011 09:20 AM;72.249;0.300
08/08/2011 09:25 AM;72.283;0.408
08/08/2011 09:30 AM;72.350;0.804
08/08/2011 09:35 AM;72.425;0.900
08/08/2011 09:40 AM;72.482;0.684
08/08/2011 09:45 AM;72.529;0.564
08/08/2011 09:50 AM;72.566;0.444
08/08/2011 09:55 AM;72.589;0.276
08/08/2011 10:00 AM;72.610;0.252
08/08/2011 10:05 AM;72.641;0.372
08/08/2011 10:10 AM;72.692;0.612
08/08/2011 10:15 AM;72.759;0.804
08/08/2011 10:20 AM;72.816;0.684
08/08/2011 10:25 AM;72.840;0.288
08/08/2011 10:30 AM;72.862;0.264
08/08/2011 10:35 AM;72.903;0.492
08/08/2011 10:40 AM;72.939;0.432
08/08/2011 10:45 AM;72.974;0.420
08/08/2011 10:50 AM;72.996;0.264
08/08/2011 10:55 AM;73.027;0.372
08/08/2011 11:00 AM;73.060;0.396
08/08/2011 11:05 AM;73.083;0.276
08/08/2011 11:10 AM;73.111;0.336
08/08/2011 11:15 AM;73.178;0.804
08/08/2011 11:20 AM;73.273;1.140
08/08/2011 11:25 AM;73.448;2.100
08/08/2011 11:30 AM;73.632;2.208
08/08/2011 11:35 AM;73.726;1.128
08/08/2011 11:40 AM;73.841;1.380
08/08/2011 11:45 AM;73.902;0.732
08/08/2011 11:50 AM;73.936;0.408
08/08/2011 11:55 AM;74.062;1.512
08/08/2011 12:00 PM;74.124;0.744
08/08/2011 12:05 PM;74.172;0.576
08/08/2011 12:10 PM;74.212;0.480
08/08/2011 12:15 PM;74.255;0.516
08/08/2011 12:20 PM;74.296;0.492
08/08/2011 12:25 PM;74.392;1.152
08/08/2011 12:30 PM;74.523;1.572
08/08/2011 12:35 PM;74.610;1.044
08/08/2011 12:40 PM;74.697;1.044
08/08/2011 12:45 PM;74.779;0.984
08/08/2011 12:50 PM;74.867;1.056
08/08/2011 12:55 PM;74.948;0.972
08/08/2011 01:00 PM;75.037;1.068
08/08/2011 01:05 PM;75.140;1.236
08/08/2011 01:10 PM;75.326;2.232
08/08/2011 01:15 PM;75.499;2.076
08/08/2011 01:20 PM;75.630;1.572
08/08/2011 01:25 PM;75.759;1.548
08/08/2011 01:30 PM;75.921;1.944
08/08/2011 01:35 PM;76.101;2.160
08/08/2011 01:40 PM;76.189;1.056
08/08/2011 01:45 PM;76.303;1.368
08/08/2011 01:50 PM;76.455;1.824
08/08/2011 01:55 PM;76.551;1.152
08/08/2011 02:00 PM;76.624;0.876
08/08/2011 02:05 PM;76.776;1.824
08/08/2011 02:10 PM;76.951;2.100
08/08/2011 02:15 PM;77.077;1.512
08/08/2011 02:20 PM;77.218;1.692
08/08/2011 02:25 PM;77.379;1.932
08/08/2011 02:30 PM;77.459;0.960
08/08/2011 02:35 PM;77.486;0.324
08/08/2011 02:40 PM;77.539;0.636
08/08/2011 02:45 PM;77.632;1.116
08/08/2011 02:50 PM;77.747;1.380
08/08/2011 02:55 PM;77.848;1.212
08/08/2011 03:00 PM;77.983;1.620
08/08/2011 03:05 PM;78.120;1.644
08/08/2011 03:10 PM;78.249;1.548
08/08/2011 03:15 PM;78.386;1.644
08/08/2011 03:20 PM;78.514;1.536
08/08/2011 03:25 PM;78.605;1.092
08/08/2011 03:30 PM;78.728;1.476
08/08/2011 03:35 PM;78.843;1.380
08/08/2011 03:40 PM;78.861;0.216
08/08/2011 03:45 PM;78.885;0.288
08/08/2011 03:50 PM;78.972;1.044
08/08/2011 03:55 PM;79.075;1.236
08/08/2011 04:00 PM;79.185;1.320
08/08/2011 04:05 PM;79.279;1.128
08/08/2011 04:10 PM;79.367;1.056
08/08/2011 04:15 PM;79.449;0.984
08/08/2011 04:20 PM;79.526;0.924
08/08/2011 04:25 PM;79.598;0.864
08/08/2011 04:30 PM;79.665;0.804
08/08/2011 04:35 PM;79.726;0.732
08/08/2011 04:40 PM;79.746;0.240
08/08/2011 04:45 PM;79.752;0.072
08/08/2011 04:50 PM;79.758;0.072
08/08/2011 04:55 PM;79.765;0.084
08/08/2011 05:00 PM;79.770;0.060
08/08/2011 05:05 PM;79.777;0.084
08/08/2011 05:10 PM;79.784;0.084
08/08/2011 05:15 PM;79.787;0.036
08/08/2011 05:20 PM;79.788;0.012
08/08/2011 05:25 PM;79.789;0.012
08/08/2011 05:30 PM;79.790;0.012
08/08/2011 05:35 PM;79.790;0.000
08/08/2011 05:40 PM;79.790;0.000
08/08/2011 05:45 PM;79.790;0.000
08/08/2011 05:50 PM;79.790;0.000
08/08/2011 05:55 PM;79.790;0.000
08/08/2011 06:00 PM;79.790;0.000
08/08/2011 06:05 PM;79.790;0.000
08/08/2011 06:10 PM;79.790;0.000
08/08/2011 06:15 PM;79.790;0.000
08/08/2011 06:20 PM;79.790;0.000
08/08/2011 06:25 PM;79.790;0.000
08/08/2011 06:30 PM;79.790;0.000
08/08/2011 06:35 PM;79.790;0.000
08/08/2011 06:40 PM;79.790;0.000
08/08/2011 06:45 PM;79.790;0.000
08/08/2011 06:50 PM;79.790;0.000
08/08/2011 06:55 PM;79.790;0.000
08/08/2011 07:00 PM;79.790;0.000
08/08/2011 07:05 PM;79.790;0.000
08/08/2011 07:10 PM;79.790;0.000
08/08/2011 07:15 PM;79.790;0.000
08/08/2011 07:20 PM;79.790;0.000
08/08/2011 07:25 PM;79.790;0.000
08/08/2011 07:30 PM;79.790;0.000
08/08/2011 07:35 PM;79.790;0.000
08/08/2011 07:40 PM;79.790;0.000
08/08/2011 07:45 PM;79.790;0.000
08/08/2011 07:50 PM;79.790;0.000
08/08/2011 07:55 PM;79.790;0.000
08/08/2011 08:00 PM;79.790;0.000
08/08/2011 08:05 PM;79.790;0.000
08/08/2011 08:10 PM;79.790;0.000
08/08/2011 08:15 PM;79.790;0.000
08/08/2011 08:20 PM;79.790;0.000
08/08/2011 08:25 PM;79.790;0.000
08/08/2011 08:30 PM;79.790;0.000
08/08/2011 08:35 PM;79.790;0.000
08/08/2011 08:40 PM;79.790;0.000
08/08/2011 08:45 PM;79.790;0.000
08/08/2011 08:50 PM;79.790;0.000
08/08/2011 08:55 PM;79.790;0.000
08/08/2011 09:00 PM;79.790;0.000
08/08/2011 09:05 PM;79.790;0.000
08/08/2011 09:10 PM;79.790;0.000
08/08/2011 09:15 PM;79.790;0.000
08/08/2011 09:20 PM;79.790;0.000
08/08/2011 09:25 PM;79.790;0.000
08/08/2011 09:30 PM;79.790;0.000
08/08/2011 09:35 PM;79.790;0.000
08/08/2011 09:40 PM;79.790;0.000
08/08/2011 09:45 PM;79.790;0.000
08/08/2011 09:50 PM;79.790;0.000
08/08/2011 09:55 PM;79.790;0.000
08/08/2011 10:00 PM;79.790;0.000
08/08/2011 10:05 PM;79.790;0.000
08/08/2011 10:10 PM;79.790;0.000
08/08/2011 10:15 PM;79.790;0.000
08/08/2011 10:20 PM;79.790;0.000
08/08/2011 10:25 PM;79.790;0.000
08/08/2011 10:30 PM;79.790;0.000
08/08/2011 10:35 PM;79.790;0.000
08/08/2011 10:40 PM;79.790;0.000
08/08/2011 10:45 PM;79.790;0.000
08/08/2011 10:50 PM;79.790;0.000
08/08/2011 10:55 PM;79.790;0.000
08/08/2011 11:00 PM;79.790;0.000
08/08/2011 11:05 PM;79.790;0.000
08/08/2011 11:10 PM;79.790;0.000
08/08/2011 11:15 PM;79.790;0.000
08/08/2011 11:20 PM;79.790;0.000
08/08/2011 11:25 PM;79.790;0.000
08/08/2011 11:30 PM;79.790;0.000
08/08/2011 11:35 PM;79.790;0.000
08/08/2011 11:40 PM;79.790;0.000
08/08/2011 11:45 PM;79.790;0.000
08/08/2011 11:50 PM;79.790;0.000
08/08/2011 11:55 PM;79.790;0.000
