sep=;
Version CSV1|Tool SE|Linebreaks CR/LF|Delimiter semicolon|Decimalpoint dot|Precision 3

;SN: 2100448037;SN: 2100448037
;SB 3000TL-20;SB 3000TL-20
;2100448037;2100448037
;Total yield;Power
;Counter;Analog
dd/MM/yyyy hh:mm tt;kWh;kW
18/09/2011 12:00 AM;597.856;0.000
18/09/2011 12:05 AM;597.856;0.000
18/09/2011 12:10 AM;597.856;0.000
18/09/2011 12:15 AM;597.856;0.000
18/09/2011 12:20 AM;597.856;0.000
18/09/2011 12:25 AM;597.856;0.000
18/09/2011 12:30 AM;597.856;0.000
18/09/2011 12:35 AM;597.856;0.000
18/09/2011 12:40 AM;597.856;0.000
18/09/2011 12:45 AM;597.856;0.000
18/09/2011 12:50 AM;597.856;0.000
18/09/2011 12:55 AM;597.856;0.000
18/09/2011 01:00 AM;597.856;0.000
18/09/2011 01:05 AM;597.856;0.000
18/09/2011 01:10 AM;597.856;0.000
18/09/2011 01:15 AM;597.856;0.000
18/09/2011 01:20 AM;597.856;0.000
18/09/2011 01:25 AM;597.856;0.000
18/09/2011 01:30 AM;597.856;0.000
18/09/2011 01:35 AM;597.856;0.000
18/09/2011 01:40 AM;597.856;0.000
18/09/2011 01:45 AM;597.856;0.000
18/09/2011 01:50 AM;597.856;0.000
18/09/2011 01:55 AM;597.856;0.000
18/09/2011 02:00 AM;597.856;0.000
18/09/2011 02:05 AM;597.856;0.000
18/09/2011 02:10 AM;597.856;0.000
18/09/2011 02:15 AM;597.856;0.000
18/09/2011 02:20 AM;597.856;0.000
18/09/2011 02:25 AM;597.856;0.000
18/09/2011 02:30 AM;597.856;0.000
18/09/2011 02:35 AM;597.856;0.000
18/09/2011 02:40 AM;597.856;0.000
18/09/2011 02:45 AM;597.856;0.000
18/09/2011 02:50 AM;597.856;0.000
18/09/2011 02:55 AM;597.856;0.000
18/09/2011 03:00 AM;597.856;0.000
18/09/2011 03:05 AM;597.856;0.000
18/09/2011 03:10 AM;597.856;0.000
18/09/2011 03:15 AM;597.856;0.000
18/09/2011 03:20 AM;597.856;0.000
18/09/2011 03:25 AM;597.856;0.000
18/09/2011 03:30 AM;597.856;0.000
18/09/2011 03:35 AM;597.856;0.000
18/09/2011 03:40 AM;597.856;0.000
18/09/2011 03:45 AM;597.856;0.000
18/09/2011 03:50 AM;597.856;0.000
18/09/2011 03:55 AM;597.856;0.000
18/09/2011 04:00 AM;597.856;0.000
18/09/2011 04:05 AM;597.856;0.000
18/09/2011 04:10 AM;597.856;0.000
18/09/2011 04:15 AM;597.856;0.000
18/09/2011 04:20 AM;597.856;0.000
18/09/2011 04:25 AM;597.856;0.000
18/09/2011 04:30 AM;597.856;0.000
18/09/2011 04:35 AM;597.856;0.000
18/09/2011 04:40 AM;597.856;0.000
18/09/2011 04:45 AM;597.856;0.000
18/09/2011 04:50 AM;597.856;0.000
18/09/2011 04:55 AM;597.856;0.000
18/09/2011 05:00 AM;597.856;0.000
18/09/2011 05:05 AM;597.856;0.000
18/09/2011 05:10 AM;597.856;0.000
18/09/2011 05:15 AM;597.856;0.000
18/09/2011 05:20 AM;597.856;0.000
18/09/2011 05:25 AM;597.856;0.000
18/09/2011 05:30 AM;597.856;0.000
18/09/2011 05:35 AM;597.856;0.000
18/09/2011 05:40 AM;597.856;0.000
18/09/2011 05:45 AM;597.856;0.000
18/09/2011 05:50 AM;597.856;0.000
18/09/2011 05:55 AM;597.856;0.000
18/09/2011 06:00 AM;597.856;0.000
18/09/2011 06:05 AM;597.856;0.000
18/09/2011 06:10 AM;597.856;0.000
18/09/2011 06:15 AM;597.856;0.000
18/09/2011 06:20 AM;597.856;0.000
18/09/2011 06:25 AM;597.856;0.000
18/09/2011 06:30 AM;597.856;0.000
18/09/2011 06:35 AM;597.856;0.000
18/09/2011 06:40 AM;597.859;0.036
18/09/2011 06:45 AM;597.869;0.120
18/09/2011 06:50 AM;597.876;0.084
18/09/2011 06:55 AM;597.882;0.072
18/09/2011 07:00 AM;597.885;0.036
18/09/2011 07:05 AM;597.885;0.000
18/09/2011 07:10 AM;597.885;0.000
18/09/2011 07:15 AM;597.885;0.000
18/09/2011 07:20 AM;597.885;0.000
18/09/2011 07:25 AM;597.885;0.000
18/09/2011 07:30 AM;597.885;0.000
18/09/2011 07:35 AM;597.885;0.000
18/09/2011 07:40 AM;597.885;0.000
18/09/2011 07:45 AM;597.885;0.000
18/09/2011 07:50 AM;597.887;0.024
18/09/2011 07:55 AM;597.890;0.036
18/09/2011 08:00 AM;597.894;0.048
18/09/2011 08:05 AM;597.908;0.168
18/09/2011 08:10 AM;597.926;0.216
18/09/2011 08:15 AM;597.943;0.204
18/09/2011 08:20 AM;597.963;0.240
18/09/2011 08:25 AM;597.983;0.240
18/09/2011 08:30 AM;598.001;0.216
18/09/2011 08:35 AM;598.021;0.240
18/09/2011 08:40 AM;598.042;0.252
18/09/2011 08:45 AM;598.061;0.228
18/09/2011 08:50 AM;598.085;0.288
18/09/2011 08:55 AM;598.111;0.312
18/09/2011 09:00 AM;598.130;0.228
18/09/2011 09:05 AM;598.140;0.120
18/09/2011 09:10 AM;598.159;0.228
18/09/2011 09:15 AM;598.174;0.180
18/09/2011 09:20 AM;598.186;0.144
18/09/2011 09:25 AM;598.202;0.192
18/09/2011 09:30 AM;598.218;0.192
18/09/2011 09:35 AM;598.237;0.228
18/09/2011 09:40 AM;598.266;0.348
18/09/2011 09:45 AM;598.298;0.384
18/09/2011 09:50 AM;598.331;0.396
18/09/2011 09:55 AM;598.348;0.204
18/09/2011 10:00 AM;598.397;0.588
18/09/2011 10:05 AM;598.465;0.816
18/09/2011 10:10 AM;598.558;1.116
18/09/2011 10:15 AM;598.623;0.780
18/09/2011 10:20 AM;598.693;0.840
18/09/2011 10:25 AM;598.765;0.864
18/09/2011 10:30 AM;598.900;1.620
18/09/2011 10:35 AM;599.118;2.616
18/09/2011 10:40 AM;599.307;2.268
18/09/2011 10:45 AM;599.501;2.328
18/09/2011 10:50 AM;599.700;2.388
18/09/2011 10:55 AM;599.843;1.716
18/09/2011 11:00 AM;600.004;1.932
18/09/2011 11:05 AM;600.131;1.524
18/09/2011 11:10 AM;600.348;2.604
18/09/2011 11:15 AM;600.559;2.532
18/09/2011 11:20 AM;600.736;2.124
18/09/2011 11:25 AM;600.956;2.640
18/09/2011 11:30 AM;601.059;1.236
18/09/2011 11:35 AM;601.129;0.840
18/09/2011 11:40 AM;601.334;2.460
18/09/2011 11:45 AM;601.384;0.600
18/09/2011 11:50 AM;601.496;1.344
18/09/2011 11:55 AM;601.593;1.164
18/09/2011 12:00 PM;601.805;2.544
18/09/2011 12:05 PM;601.973;2.016
18/09/2011 12:10 PM;602.200;2.724
18/09/2011 12:15 PM;602.423;2.676
18/09/2011 12:20 PM;602.465;0.504
18/09/2011 12:25 PM;602.600;1.620
18/09/2011 12:30 PM;602.797;2.364
18/09/2011 12:35 PM;602.958;1.932
18/09/2011 12:40 PM;603.186;2.736
18/09/2011 12:45 PM;603.308;1.464
18/09/2011 12:50 PM;603.406;1.176
18/09/2011 12:55 PM;603.467;0.732
18/09/2011 01:00 PM;603.678;2.532
18/09/2011 01:05 PM;603.897;2.628
18/09/2011 01:10 PM;604.110;2.556
18/09/2011 01:15 PM;604.306;2.352
18/09/2011 01:20 PM;604.473;2.004
18/09/2011 01:25 PM;604.533;0.720
18/09/2011 01:30 PM;604.655;1.464
18/09/2011 01:35 PM;604.861;2.472
18/09/2011 01:40 PM;605.035;2.088
18/09/2011 01:45 PM;605.138;1.236
18/09/2011 01:50 PM;605.352;2.568
18/09/2011 01:55 PM;605.554;2.424
18/09/2011 02:00 PM;605.752;2.376
18/09/2011 02:05 PM;605.947;2.340
18/09/2011 02:10 PM;606.142;2.340
18/09/2011 02:15 PM;606.334;2.304
18/09/2011 02:20 PM;606.526;2.304
18/09/2011 02:25 PM;606.716;2.280
18/09/2011 02:30 PM;606.916;2.400
18/09/2011 02:35 PM;607.068;1.824
18/09/2011 02:40 PM;607.216;1.776
18/09/2011 02:45 PM;607.266;0.600
18/09/2011 02:50 PM;607.316;0.600
18/09/2011 02:55 PM;607.487;2.052
18/09/2011 03:00 PM;607.679;2.304
18/09/2011 03:05 PM;607.801;1.464
18/09/2011 03:10 PM;607.870;0.828
18/09/2011 03:15 PM;607.905;0.420
18/09/2011 03:20 PM;607.991;1.032
18/09/2011 03:25 PM;608.154;1.956
18/09/2011 03:30 PM;608.302;1.776
18/09/2011 03:35 PM;608.446;1.728
18/09/2011 03:40 PM;608.515;0.828
18/09/2011 03:45 PM;608.633;1.416
18/09/2011 03:50 PM;608.767;1.608
18/09/2011 03:55 PM;608.839;0.864
18/09/2011 04:00 PM;608.897;0.696
18/09/2011 04:05 PM;609.019;1.464
18/09/2011 04:10 PM;609.133;1.368
18/09/2011 04:15 PM;609.200;0.804
18/09/2011 04:20 PM;609.304;1.248
18/09/2011 04:25 PM;609.403;1.188
18/09/2011 04:30 PM;609.496;1.116
18/09/2011 04:35 PM;609.580;1.008
18/09/2011 04:40 PM;609.660;0.960
18/09/2011 04:45 PM;609.735;0.900
18/09/2011 04:50 PM;609.774;0.468
18/09/2011 04:55 PM;609.780;0.072
18/09/2011 05:00 PM;609.786;0.072
18/09/2011 05:05 PM;609.789;0.036
18/09/2011 05:10 PM;609.790;0.012
18/09/2011 05:15 PM;609.798;0.096
18/09/2011 05:20 PM;609.838;0.480
18/09/2011 05:25 PM;609.866;0.336
18/09/2011 05:30 PM;609.871;0.060
18/09/2011 05:35 PM;609.872;0.012
18/09/2011 05:40 PM;609.873;0.012
18/09/2011 05:45 PM;609.873;0.000
18/09/2011 05:50 PM;609.873;0.000
18/09/2011 05:55 PM;609.875;0.024
18/09/2011 06:00 PM;609.884;0.108
18/09/2011 06:05 PM;609.885;0.012
18/09/2011 06:10 PM;609.885;0.000
18/09/2011 06:15 PM;609.885;0.000
18/09/2011 06:20 PM;609.885;0.000
18/09/2011 06:25 PM;609.885;0.000
18/09/2011 06:30 PM;609.885;0.000
18/09/2011 06:35 PM;609.885;0.000
18/09/2011 06:40 PM;609.885;0.000
18/09/2011 06:45 PM;609.885;0.000
18/09/2011 06:50 PM;609.885;0.000
18/09/2011 06:55 PM;609.885;0.000
18/09/2011 07:00 PM;609.885;0.000
18/09/2011 07:05 PM;609.885;0.000
18/09/2011 07:10 PM;609.885;0.000
18/09/2011 07:15 PM;609.885;0.000
18/09/2011 07:20 PM;609.885;0.000
18/09/2011 07:25 PM;609.885;0.000
18/09/2011 07:30 PM;609.885;0.000
18/09/2011 07:35 PM;609.885;0.000
18/09/2011 07:40 PM;609.885;0.000
18/09/2011 07:45 PM;609.885;0.000
18/09/2011 07:50 PM;609.885;0.000
18/09/2011 07:55 PM;609.885;0.000
18/09/2011 08:00 PM;609.885;0.000
18/09/2011 08:05 PM;609.885;0.000
18/09/2011 08:10 PM;609.885;0.000
18/09/2011 08:15 PM;609.885;0.000
18/09/2011 08:20 PM;609.885;0.000
18/09/2011 08:25 PM;609.885;0.000
18/09/2011 08:30 PM;609.885;0.000
18/09/2011 08:35 PM;609.885;0.000
18/09/2011 08:40 PM;609.885;0.000
18/09/2011 08:45 PM;609.885;0.000
18/09/2011 08:50 PM;609.885;0.000
18/09/2011 08:55 PM;609.885;0.000
18/09/2011 09:00 PM;609.885;0.000
18/09/2011 09:05 PM;609.885;0.000
18/09/2011 09:10 PM;609.885;0.000
18/09/2011 09:15 PM;609.885;0.000
18/09/2011 09:20 PM;609.885;0.000
18/09/2011 09:25 PM;609.885;0.000
18/09/2011 09:30 PM;609.885;0.000
18/09/2011 09:35 PM;609.885;0.000
18/09/2011 09:40 PM;609.885;0.000
18/09/2011 09:45 PM;609.885;0.000
18/09/2011 09:50 PM;609.885;0.000
18/09/2011 09:55 PM;609.885;0.000
18/09/2011 10:00 PM;609.885;0.000
18/09/2011 10:05 PM;609.885;0.000
18/09/2011 10:10 PM;609.885;0.000
18/09/2011 10:15 PM;609.885;0.000
18/09/2011 10:20 PM;609.885;0.000
18/09/2011 10:25 PM;609.885;0.000
18/09/2011 10:30 PM;609.885;0.000
18/09/2011 10:35 PM;609.885;0.000
18/09/2011 10:40 PM;609.885;0.000
18/09/2011 10:45 PM;609.885;0.000
18/09/2011 10:50 PM;609.885;0.000
18/09/2011 10:55 PM;609.885;0.000
18/09/2011 11:00 PM;609.885;0.000
18/09/2011 11:05 PM;609.885;0.000
18/09/2011 11:10 PM;609.885;0.000
18/09/2011 11:15 PM;609.885;0.000
18/09/2011 11:20 PM;609.885;0.000
18/09/2011 11:25 PM;609.885;0.000
18/09/2011 11:30 PM;609.885;0.000
18/09/2011 11:35 PM;609.885;0.000
18/09/2011 11:40 PM;609.885;0.000
18/09/2011 11:45 PM;609.885;0.000
18/09/2011 11:50 PM;609.885;0.000
18/09/2011 11:55 PM;609.885;0.000
