sep=;
Version CSV1|Tool SE|Linebreaks CR/LF|Delimiter semicolon|Decimalpoint dot|Precision 3

;SN: 2100448037;SN: 2100448037
;SB 3000TL-20;SB 3000TL-20
;2100448037;2100448037
;Total yield;Power
;Counter;Analog
dd/MM/yyyy hh:mm tt;kWh;kW
30/09/2011 12:00 AM;753.015;0.000
30/09/2011 12:05 AM;753.015;0.000
30/09/2011 12:10 AM;753.015;0.000
30/09/2011 12:15 AM;753.015;0.000
30/09/2011 12:20 AM;753.015;0.000
30/09/2011 12:25 AM;753.015;0.000
30/09/2011 12:30 AM;753.015;0.000
30/09/2011 12:35 AM;753.015;0.000
30/09/2011 12:40 AM;753.015;0.000
30/09/2011 12:45 AM;753.015;0.000
30/09/2011 12:50 AM;753.015;0.000
30/09/2011 12:55 AM;753.015;0.000
30/09/2011 01:00 AM;753.015;0.000
30/09/2011 01:05 AM;753.015;0.000
30/09/2011 01:10 AM;753.015;0.000
30/09/2011 01:15 AM;753.015;0.000
30/09/2011 01:20 AM;753.015;0.000
30/09/2011 01:25 AM;753.015;0.000
30/09/2011 01:30 AM;753.015;0.000
30/09/2011 01:35 AM;753.015;0.000
30/09/2011 01:40 AM;753.015;0.000
30/09/2011 01:45 AM;753.015;0.000
30/09/2011 01:50 AM;753.015;0.000
30/09/2011 01:55 AM;753.015;0.000
30/09/2011 02:00 AM;753.015;0.000
30/09/2011 02:05 AM;753.015;0.000
30/09/2011 02:10 AM;753.015;0.000
30/09/2011 02:15 AM;753.015;0.000
30/09/2011 02:20 AM;753.015;0.000
30/09/2011 02:25 AM;753.015;0.000
30/09/2011 02:30 AM;753.015;0.000
30/09/2011 02:35 AM;753.015;0.000
30/09/2011 02:40 AM;753.015;0.000
30/09/2011 02:45 AM;753.015;0.000
30/09/2011 02:50 AM;753.015;0.000
30/09/2011 02:55 AM;753.015;0.000
30/09/2011 03:00 AM;753.015;0.000
30/09/2011 03:05 AM;753.015;0.000
30/09/2011 03:10 AM;753.015;0.000
30/09/2011 03:15 AM;753.015;0.000
30/09/2011 03:20 AM;753.015;0.000
30/09/2011 03:25 AM;753.015;0.000
30/09/2011 03:30 AM;753.015;0.000
30/09/2011 03:35 AM;753.015;0.000
30/09/2011 03:40 AM;753.015;0.000
30/09/2011 03:45 AM;753.015;0.000
30/09/2011 03:50 AM;753.015;0.000
30/09/2011 03:55 AM;753.015;0.000
30/09/2011 04:00 AM;753.015;0.000
30/09/2011 04:05 AM;753.015;0.000
30/09/2011 04:10 AM;753.015;0.000
30/09/2011 04:15 AM;753.015;0.000
30/09/2011 04:20 AM;753.015;0.000
30/09/2011 04:25 AM;753.015;0.000
30/09/2011 04:30 AM;753.015;0.000
30/09/2011 04:35 AM;753.015;0.000
30/09/2011 04:40 AM;753.015;0.000
30/09/2011 04:45 AM;753.015;0.000
30/09/2011 04:50 AM;753.015;0.000
30/09/2011 04:55 AM;753.015;0.000
30/09/2011 05:00 AM;753.015;0.000
30/09/2011 05:05 AM;753.015;0.000
30/09/2011 05:10 AM;753.015;0.000
30/09/2011 05:15 AM;753.015;0.000
30/09/2011 05:20 AM;753.015;0.000
30/09/2011 05:25 AM;753.015;0.000
30/09/2011 05:30 AM;753.015;0.000
30/09/2011 05:35 AM;753.015;0.000
30/09/2011 05:40 AM;753.015;0.000
30/09/2011 05:45 AM;753.015;0.000
30/09/2011 05:50 AM;753.015;0.000
30/09/2011 05:55 AM;753.015;0.000
30/09/2011 06:00 AM;753.015;0.000
30/09/2011 06:05 AM;753.015;0.000
30/09/2011 06:10 AM;753.015;0.000
30/09/2011 06:15 AM;753.015;0.000
30/09/2011 06:20 AM;753.016;0.012
30/09/2011 06:25 AM;753.017;0.012
30/09/2011 06:30 AM;753.020;0.036
30/09/2011 06:35 AM;753.023;0.036
30/09/2011 06:40 AM;753.028;0.060
30/09/2011 06:45 AM;753.035;0.084
30/09/2011 06:50 AM;753.045;0.120
30/09/2011 06:55 AM;753.058;0.156
30/09/2011 07:00 AM;753.077;0.228
30/09/2011 07:05 AM;753.101;0.288
30/09/2011 07:10 AM;753.129;0.336
30/09/2011 07:15 AM;753.164;0.420
30/09/2011 07:20 AM;753.204;0.480
30/09/2011 07:25 AM;753.251;0.564
30/09/2011 07:30 AM;753.305;0.648
30/09/2011 07:35 AM;753.367;0.744
30/09/2011 07:40 AM;753.434;0.804
30/09/2011 07:45 AM;753.503;0.828
30/09/2011 07:50 AM;753.590;1.044
30/09/2011 07:55 AM;753.648;0.696
30/09/2011 08:00 AM;753.726;0.936
30/09/2011 08:05 AM;753.825;1.188
30/09/2011 08:10 AM;753.923;1.176
30/09/2011 08:15 AM;754.032;1.308
30/09/2011 08:20 AM;754.142;1.320
30/09/2011 08:25 AM;754.254;1.344
30/09/2011 08:30 AM;754.372;1.416
30/09/2011 08:35 AM;754.497;1.500
30/09/2011 08:40 AM;754.631;1.608
30/09/2011 08:45 AM;754.769;1.656
30/09/2011 08:50 AM;754.911;1.704
30/09/2011 08:55 AM;755.059;1.776
30/09/2011 09:00 AM;755.210;1.812
30/09/2011 09:05 AM;755.366;1.872
30/09/2011 09:10 AM;755.498;1.584
30/09/2011 09:15 AM;755.645;1.764
30/09/2011 09:20 AM;755.792;1.764
30/09/2011 09:25 AM;755.921;1.548
30/09/2011 09:30 AM;756.055;1.608
30/09/2011 09:35 AM;756.195;1.680
30/09/2011 09:40 AM;756.338;1.716
30/09/2011 09:45 AM;756.466;1.536
30/09/2011 09:50 AM;756.591;1.500
30/09/2011 09:55 AM;756.723;1.584
30/09/2011 10:00 AM;756.861;1.656
30/09/2011 10:05 AM;757.013;1.824
30/09/2011 10:10 AM;757.155;1.704
30/09/2011 10:15 AM;757.307;1.824
30/09/2011 10:20 AM;757.442;1.620
30/09/2011 10:25 AM;757.578;1.632
30/09/2011 10:30 AM;757.722;1.728
30/09/2011 10:35 AM;757.873;1.812
30/09/2011 10:40 AM;758.023;1.800
30/09/2011 10:45 AM;758.173;1.800
30/09/2011 10:50 AM;758.324;1.812
30/09/2011 10:55 AM;758.477;1.836
30/09/2011 11:00 AM;758.655;2.136
30/09/2011 11:05 AM;758.824;2.028
30/09/2011 11:10 AM;759.006;2.184
30/09/2011 11:15 AM;759.167;1.932
30/09/2011 11:20 AM;759.335;2.016
30/09/2011 11:25 AM;759.510;2.100
30/09/2011 11:30 AM;759.684;2.088
30/09/2011 11:35 AM;759.844;1.920
30/09/2011 11:40 AM;760.001;1.884
30/09/2011 11:45 AM;760.145;1.728
30/09/2011 11:50 AM;760.291;1.752
30/09/2011 11:55 AM;760.437;1.752
30/09/2011 12:00 PM;760.576;1.668
30/09/2011 12:05 PM;760.707;1.572
30/09/2011 12:10 PM;760.837;1.560
30/09/2011 12:15 PM;760.960;1.476
30/09/2011 12:20 PM;761.104;1.728
30/09/2011 12:25 PM;761.255;1.812
30/09/2011 12:30 PM;761.401;1.752
30/09/2011 12:35 PM;761.535;1.608
30/09/2011 12:40 PM;761.664;1.548
30/09/2011 12:45 PM;761.796;1.584
30/09/2011 12:50 PM;761.922;1.512
30/09/2011 12:55 PM;762.043;1.452
30/09/2011 01:00 PM;762.153;1.320
30/09/2011 01:05 PM;762.261;1.296
30/09/2011 01:10 PM;762.370;1.308
30/09/2011 01:15 PM;762.500;1.560
30/09/2011 01:20 PM;762.654;1.848
30/09/2011 01:25 PM;762.824;2.040
30/09/2011 01:30 PM;763.001;2.124
30/09/2011 01:35 PM;763.186;2.220
30/09/2011 01:40 PM;763.372;2.232
30/09/2011 01:45 PM;763.569;2.364
30/09/2011 01:50 PM;763.758;2.268
30/09/2011 01:55 PM;763.930;2.064
30/09/2011 02:00 PM;764.059;1.548
30/09/2011 02:05 PM;764.186;1.524
30/09/2011 02:10 PM;764.281;1.140
30/09/2011 02:15 PM;764.371;1.080
30/09/2011 02:20 PM;764.479;1.296
30/09/2011 02:25 PM;764.578;1.188
30/09/2011 02:30 PM;764.664;1.032
30/09/2011 02:35 PM;764.744;0.960
30/09/2011 02:40 PM;764.822;0.936
30/09/2011 02:45 PM;764.901;0.948
30/09/2011 02:50 PM;764.978;0.924
30/09/2011 02:55 PM;765.064;1.032
30/09/2011 03:00 PM;765.191;1.524
30/09/2011 03:05 PM;765.339;1.776
30/09/2011 03:10 PM;765.452;1.356
30/09/2011 03:15 PM;765.553;1.212
30/09/2011 03:20 PM;765.638;1.020
30/09/2011 03:25 PM;765.717;0.948
30/09/2011 03:30 PM;765.797;0.960
30/09/2011 03:35 PM;765.869;0.864
30/09/2011 03:40 PM;765.930;0.732
30/09/2011 03:45 PM;765.988;0.696
30/09/2011 03:50 PM;766.043;0.660
30/09/2011 03:55 PM;766.098;0.660
30/09/2011 04:00 PM;766.160;0.744
30/09/2011 04:05 PM;766.220;0.720
30/09/2011 04:10 PM;766.280;0.720
30/09/2011 04:15 PM;766.348;0.816
30/09/2011 04:20 PM;766.418;0.840
30/09/2011 04:25 PM;766.492;0.888
30/09/2011 04:30 PM;766.564;0.864
30/09/2011 04:35 PM;766.656;1.104
30/09/2011 04:40 PM;766.740;1.008
30/09/2011 04:45 PM;766.808;0.816
30/09/2011 04:50 PM;766.860;0.624
30/09/2011 04:55 PM;766.904;0.528
30/09/2011 05:00 PM;766.940;0.432
30/09/2011 05:05 PM;766.976;0.432
30/09/2011 05:10 PM;767.011;0.420
30/09/2011 05:15 PM;767.044;0.396
30/09/2011 05:20 PM;767.073;0.348
30/09/2011 05:25 PM;767.100;0.324
30/09/2011 05:30 PM;767.122;0.264
30/09/2011 05:35 PM;767.137;0.180
30/09/2011 05:40 PM;767.148;0.132
30/09/2011 05:45 PM;767.156;0.096
30/09/2011 05:50 PM;767.162;0.072
30/09/2011 05:55 PM;767.166;0.048
30/09/2011 06:00 PM;767.167;0.012
30/09/2011 06:05 PM;767.168;0.012
30/09/2011 06:10 PM;767.168;0.000
30/09/2011 06:15 PM;767.168;0.000
30/09/2011 06:20 PM;767.168;0.000
30/09/2011 06:25 PM;767.168;0.000
30/09/2011 06:30 PM;767.168;0.000
30/09/2011 06:35 PM;767.168;0.000
30/09/2011 06:40 PM;767.168;0.000
30/09/2011 06:45 PM;767.168;0.000
30/09/2011 06:50 PM;767.168;0.000
30/09/2011 06:55 PM;767.168;0.000
30/09/2011 07:00 PM;767.168;0.000
30/09/2011 07:05 PM;767.168;0.000
30/09/2011 07:10 PM;767.168;0.000
30/09/2011 07:15 PM;767.168;0.000
30/09/2011 07:20 PM;767.168;0.000
30/09/2011 07:25 PM;767.168;0.000
30/09/2011 07:30 PM;767.168;0.000
30/09/2011 07:35 PM;767.168;0.000
30/09/2011 07:40 PM;767.168;0.000
30/09/2011 07:45 PM;767.168;0.000
30/09/2011 07:50 PM;767.168;0.000
30/09/2011 07:55 PM;767.168;0.000
30/09/2011 08:00 PM;767.168;0.000
30/09/2011 08:05 PM;767.168;0.000
30/09/2011 08:10 PM;767.168;0.000
30/09/2011 08:15 PM;767.168;0.000
30/09/2011 08:20 PM;767.168;0.000
30/09/2011 08:25 PM;767.168;0.000
30/09/2011 08:30 PM;767.168;0.000
30/09/2011 08:35 PM;767.168;0.000
30/09/2011 08:40 PM;767.168;0.000
30/09/2011 08:45 PM;767.168;0.000
30/09/2011 08:50 PM;767.168;0.000
30/09/2011 08:55 PM;767.168;0.000
30/09/2011 09:00 PM;767.168;0.000
30/09/2011 09:05 PM;767.168;0.000
30/09/2011 09:10 PM;767.168;0.000
30/09/2011 09:15 PM;767.168;0.000
30/09/2011 09:20 PM;767.168;0.000
30/09/2011 09:25 PM;767.168;0.000
30/09/2011 09:30 PM;767.168;0.000
30/09/2011 09:35 PM;767.168;0.000
30/09/2011 09:40 PM;767.168;0.000
30/09/2011 09:45 PM;767.168;0.000
30/09/2011 09:50 PM;767.168;0.000
30/09/2011 09:55 PM;767.168;0.000
30/09/2011 10:00 PM;767.168;0.000
30/09/2011 10:05 PM;767.168;0.000
30/09/2011 10:10 PM;767.168;0.000
30/09/2011 10:15 PM;767.168;0.000
30/09/2011 10:20 PM;767.168;0.000
30/09/2011 10:25 PM;767.168;0.000
30/09/2011 10:30 PM;767.168;0.000
30/09/2011 10:35 PM;767.168;0.000
30/09/2011 10:40 PM;767.168;0.000
30/09/2011 10:45 PM;767.168;0.000
30/09/2011 10:50 PM;767.168;0.000
30/09/2011 10:55 PM;767.168;0.000
30/09/2011 11:00 PM;767.168;0.000
30/09/2011 11:05 PM;767.168;0.000
30/09/2011 11:10 PM;767.168;0.000
30/09/2011 11:15 PM;767.168;0.000
30/09/2011 11:20 PM;767.168;0.000
30/09/2011 11:25 PM;767.168;0.000
30/09/2011 11:30 PM;767.168;0.000
30/09/2011 11:35 PM;767.168;0.000
30/09/2011 11:40 PM;767.168;0.000
30/09/2011 11:45 PM;767.168;0.000
30/09/2011 11:50 PM;767.168;0.000
30/09/2011 11:55 PM;767.168;0.000
