sep=;
Version CSV1|Tool SE|Linebreaks CR/LF|Delimiter semicolon|Decimalpoint dot|Precision 3

;SN: 2100448037;SN: 2100448037
;SB 3000TL-20;SB 3000TL-20
;2100448037;2100448037
;Total yield;Power
;Counter;Analog
dd/MM/yyyy hh:mm tt;kWh;kW
04/08/2011 12:00 AM;16.591;0.000
04/08/2011 12:05 AM;16.591;0.000
04/08/2011 12:10 AM;16.591;0.000
04/08/2011 12:15 AM;16.591;0.000
04/08/2011 12:20 AM;16.591;0.000
04/08/2011 12:25 AM;16.591;0.000
04/08/2011 12:30 AM;16.591;0.000
04/08/2011 12:35 AM;16.591;0.000
04/08/2011 12:40 AM;16.591;0.000
04/08/2011 12:45 AM;16.591;0.000
04/08/2011 12:50 AM;16.591;0.000
04/08/2011 12:55 AM;16.591;0.000
04/08/2011 01:00 AM;16.591;0.000
04/08/2011 01:05 AM;16.591;0.000
04/08/2011 01:10 AM;16.591;0.000
04/08/2011 01:15 AM;16.591;0.000
04/08/2011 01:20 AM;16.591;0.000
04/08/2011 01:25 AM;16.591;0.000
04/08/2011 01:30 AM;16.591;0.000
04/08/2011 01:35 AM;16.591;0.000
04/08/2011 01:40 AM;16.591;0.000
04/08/2011 01:45 AM;16.591;0.000
04/08/2011 01:50 AM;16.591;0.000
04/08/2011 01:55 AM;16.591;0.000
04/08/2011 02:00 AM;16.591;0.000
04/08/2011 02:05 AM;16.591;0.000
04/08/2011 02:10 AM;16.591;0.000
04/08/2011 02:15 AM;16.591;0.000
04/08/2011 02:20 AM;16.591;0.000
04/08/2011 02:25 AM;16.591;0.000
04/08/2011 02:30 AM;16.591;0.000
04/08/2011 02:35 AM;16.591;0.000
04/08/2011 02:40 AM;16.591;0.000
04/08/2011 02:45 AM;16.591;0.000
04/08/2011 02:50 AM;16.591;0.000
04/08/2011 02:55 AM;16.591;0.000
04/08/2011 03:00 AM;16.591;0.000
04/08/2011 03:05 AM;16.591;0.000
04/08/2011 03:10 AM;16.591;0.000
04/08/2011 03:15 AM;16.591;0.000
04/08/2011 03:20 AM;16.591;0.000
04/08/2011 03:25 AM;16.591;0.000
04/08/2011 03:30 AM;16.591;0.000
04/08/2011 03:35 AM;16.591;0.000
04/08/2011 03:40 AM;16.591;0.000
04/08/2011 03:45 AM;16.591;0.000
04/08/2011 03:50 AM;16.591;0.000
04/08/2011 03:55 AM;16.591;0.000
04/08/2011 04:00 AM;16.591;0.000
04/08/2011 04:05 AM;16.591;0.000
04/08/2011 04:10 AM;16.591;0.000
04/08/2011 04:15 AM;16.591;0.000
04/08/2011 04:20 AM;16.591;0.000
04/08/2011 04:25 AM;16.591;0.000
04/08/2011 04:30 AM;16.591;0.000
04/08/2011 04:35 AM;16.591;0.000
04/08/2011 04:40 AM;16.591;0.000
04/08/2011 04:45 AM;16.591;0.000
04/08/2011 04:50 AM;16.591;0.000
04/08/2011 04:55 AM;16.591;0.000
04/08/2011 05:00 AM;16.591;0.000
04/08/2011 05:05 AM;16.591;0.000
04/08/2011 05:10 AM;16.591;0.000
04/08/2011 05:15 AM;16.591;0.000
04/08/2011 05:20 AM;16.591;0.000
04/08/2011 05:25 AM;16.591;0.000
04/08/2011 05:30 AM;16.591;0.000
04/08/2011 05:35 AM;16.591;0.000
04/08/2011 05:40 AM;16.591;0.000
04/08/2011 05:45 AM;16.591;0.000
04/08/2011 05:50 AM;16.591;0.000
04/08/2011 05:55 AM;16.591;0.000
04/08/2011 06:00 AM;16.591;0.000
04/08/2011 06:05 AM;16.591;0.000
04/08/2011 06:10 AM;16.591;0.000
04/08/2011 06:15 AM;16.591;0.000
04/08/2011 06:20 AM;16.591;0.000
04/08/2011 06:25 AM;16.591;0.000
04/08/2011 06:30 AM;16.591;0.000
04/08/2011 06:35 AM;16.591;0.000
04/08/2011 06:40 AM;16.591;0.000
04/08/2011 06:45 AM;16.591;0.000
04/08/2011 06:50 AM;16.591;0.000
04/08/2011 06:55 AM;16.591;0.000
04/08/2011 07:00 AM;16.591;0.000
04/08/2011 07:05 AM;16.591;0.000
04/08/2011 07:10 AM;16.591;0.000
04/08/2011 07:15 AM;16.591;0.000
04/08/2011 07:20 AM;16.591;0.000
04/08/2011 07:25 AM;16.593;0.024
04/08/2011 07:30 AM;16.596;0.036
04/08/2011 07:35 AM;16.603;0.084
04/08/2011 07:40 AM;16.614;0.132
04/08/2011 07:45 AM;16.634;0.240
04/08/2011 07:50 AM;16.661;0.324
04/08/2011 07:55 AM;16.692;0.372
04/08/2011 08:00 AM;16.728;0.432
04/08/2011 08:05 AM;16.770;0.504
04/08/2011 08:10 AM;16.816;0.552
04/08/2011 08:15 AM;16.867;0.612
04/08/2011 08:20 AM;16.923;0.672
04/08/2011 08:25 AM;16.983;0.720
04/08/2011 08:30 AM;17.048;0.780
04/08/2011 08:35 AM;17.117;0.828
04/08/2011 08:40 AM;17.191;0.888
04/08/2011 08:45 AM;17.269;0.936
04/08/2011 08:50 AM;17.352;0.996
04/08/2011 08:55 AM;17.439;1.044
04/08/2011 09:00 AM;17.531;1.104
04/08/2011 09:05 AM;17.626;1.140
04/08/2011 09:10 AM;17.726;1.200
04/08/2011 09:15 AM;17.829;1.236
04/08/2011 09:20 AM;17.937;1.296
04/08/2011 09:25 AM;18.048;1.332
04/08/2011 09:30 AM;18.164;1.392
04/08/2011 09:35 AM;18.282;1.416
04/08/2011 09:40 AM;18.404;1.464
04/08/2011 09:45 AM;18.530;1.512
04/08/2011 09:50 AM;18.658;1.536
04/08/2011 09:55 AM;18.790;1.584
04/08/2011 10:00 AM;18.924;1.608
04/08/2011 10:05 AM;19.061;1.644
04/08/2011 10:10 AM;19.201;1.680
04/08/2011 10:15 AM;19.343;1.704
04/08/2011 10:20 AM;19.487;1.728
04/08/2011 10:25 AM;19.634;1.764
04/08/2011 10:30 AM;19.784;1.800
04/08/2011 10:35 AM;19.935;1.812
04/08/2011 10:40 AM;20.088;1.836
04/08/2011 10:45 AM;20.244;1.872
04/08/2011 10:50 AM;20.401;1.884
04/08/2011 10:55 AM;20.560;1.908
04/08/2011 11:00 AM;20.721;1.932
04/08/2011 11:05 AM;20.884;1.956
04/08/2011 11:10 AM;21.049;1.980
04/08/2011 11:15 AM;21.215;1.992
04/08/2011 11:20 AM;21.384;2.028
04/08/2011 11:25 AM;21.554;2.040
04/08/2011 11:30 AM;21.726;2.064
04/08/2011 11:35 AM;21.898;2.064
04/08/2011 11:40 AM;22.070;2.064
04/08/2011 11:45 AM;22.244;2.088
04/08/2011 11:50 AM;22.420;2.112
04/08/2011 11:55 AM;22.598;2.136
04/08/2011 12:00 PM;22.776;2.136
04/08/2011 12:05 PM;22.955;2.148
04/08/2011 12:10 PM;23.134;2.148
04/08/2011 12:15 PM;23.314;2.160
04/08/2011 12:20 PM;23.496;2.184
04/08/2011 12:25 PM;23.677;2.172
04/08/2011 12:30 PM;23.857;2.160
04/08/2011 12:35 PM;24.038;2.172
04/08/2011 12:40 PM;24.219;2.172
04/08/2011 12:45 PM;24.353;1.608
04/08/2011 12:50 PM;24.539;2.232
04/08/2011 12:55 PM;24.721;2.184
04/08/2011 01:00 PM;24.905;2.208
04/08/2011 01:05 PM;25.093;2.256
04/08/2011 01:10 PM;25.281;2.256
04/08/2011 01:15 PM;25.338;0.684
04/08/2011 01:20 PM;25.507;2.028
04/08/2011 01:25 PM;25.698;2.292
04/08/2011 01:30 PM;25.885;2.244
04/08/2011 01:35 PM;26.041;1.872
04/08/2011 01:40 PM;26.216;2.100
04/08/2011 01:45 PM;26.387;2.052
04/08/2011 01:50 PM;26.557;2.040
04/08/2011 01:55 PM;26.728;2.052
04/08/2011 02:00 PM;26.900;2.064
04/08/2011 02:05 PM;27.073;2.076
04/08/2011 02:10 PM;27.241;2.016
04/08/2011 02:15 PM;27.390;1.788
04/08/2011 02:20 PM;27.504;1.368
04/08/2011 02:25 PM;27.590;1.032
04/08/2011 02:30 PM;27.764;2.088
04/08/2011 02:35 PM;27.888;1.488
04/08/2011 02:40 PM;28.009;1.452
04/08/2011 02:45 PM;28.135;1.512
04/08/2011 02:50 PM;28.177;0.504
04/08/2011 02:55 PM;28.336;1.908
04/08/2011 03:00 PM;28.493;1.884
04/08/2011 03:05 PM;28.649;1.872
04/08/2011 03:10 PM;28.782;1.596
04/08/2011 03:15 PM;28.805;0.276
04/08/2011 03:20 PM;28.834;0.348
04/08/2011 03:25 PM;28.968;1.608
04/08/2011 03:30 PM;29.091;1.476
04/08/2011 03:35 PM;29.211;1.440
04/08/2011 03:40 PM;29.326;1.380
04/08/2011 03:45 PM;29.438;1.344
04/08/2011 03:50 PM;29.545;1.284
04/08/2011 03:55 PM;29.648;1.236
04/08/2011 04:00 PM;29.746;1.176
04/08/2011 04:05 PM;29.840;1.128
04/08/2011 04:10 PM;29.929;1.068
04/08/2011 04:15 PM;30.013;1.008
04/08/2011 04:20 PM;30.092;0.948
04/08/2011 04:25 PM;30.167;0.900
04/08/2011 04:30 PM;30.237;0.840
04/08/2011 04:35 PM;30.302;0.780
04/08/2011 04:40 PM;30.363;0.732
04/08/2011 04:45 PM;30.416;0.636
04/08/2011 04:50 PM;30.463;0.564
04/08/2011 04:55 PM;30.506;0.516
04/08/2011 05:00 PM;30.544;0.456
04/08/2011 05:05 PM;30.575;0.372
04/08/2011 05:10 PM;30.600;0.300
04/08/2011 05:15 PM;30.613;0.156
04/08/2011 05:20 PM;30.623;0.120
04/08/2011 05:25 PM;30.628;0.060
04/08/2011 05:30 PM;30.631;0.036
04/08/2011 05:35 PM;30.632;0.012
04/08/2011 05:40 PM;30.632;0.000
04/08/2011 05:45 PM;30.632;0.000
04/08/2011 05:50 PM;30.632;0.000
04/08/2011 05:55 PM;30.632;0.000
04/08/2011 06:00 PM;30.632;0.000
04/08/2011 06:05 PM;30.632;0.000
04/08/2011 06:10 PM;30.632;0.000
04/08/2011 06:15 PM;30.632;0.000
04/08/2011 06:20 PM;30.632;0.000
04/08/2011 06:25 PM;30.632;0.000
04/08/2011 06:30 PM;30.632;0.000
04/08/2011 06:35 PM;30.632;0.000
04/08/2011 06:40 PM;30.632;0.000
04/08/2011 06:45 PM;30.632;0.000
04/08/2011 06:50 PM;30.632;0.000
04/08/2011 06:55 PM;30.632;0.000
04/08/2011 07:00 PM;30.632;0.000
04/08/2011 07:05 PM;30.632;0.000
04/08/2011 07:10 PM;30.632;0.000
04/08/2011 07:15 PM;30.632;0.000
04/08/2011 07:20 PM;30.632;0.000
04/08/2011 07:25 PM;30.632;0.000
04/08/2011 07:30 PM;30.632;0.000
04/08/2011 07:35 PM;30.632;0.000
04/08/2011 07:40 PM;30.632;0.000
04/08/2011 07:45 PM;30.632;0.000
04/08/2011 07:50 PM;30.632;0.000
04/08/2011 07:55 PM;30.632;0.000
04/08/2011 08:00 PM;30.632;0.000
04/08/2011 08:05 PM;30.632;0.000
04/08/2011 08:10 PM;30.632;0.000
04/08/2011 08:15 PM;30.632;0.000
04/08/2011 08:20 PM;30.632;0.000
04/08/2011 08:25 PM;30.632;0.000
04/08/2011 08:30 PM;30.632;0.000
04/08/2011 08:35 PM;30.632;0.000
04/08/2011 08:40 PM;30.632;0.000
04/08/2011 08:45 PM;30.632;0.000
04/08/2011 08:50 PM;30.632;0.000
04/08/2011 08:55 PM;30.632;0.000
04/08/2011 09:00 PM;30.632;0.000
04/08/2011 09:05 PM;30.632;0.000
04/08/2011 09:10 PM;30.632;0.000
04/08/2011 09:15 PM;30.632;0.000
04/08/2011 09:20 PM;30.632;0.000
04/08/2011 09:25 PM;30.632;0.000
04/08/2011 09:30 PM;30.632;0.000
04/08/2011 09:35 PM;30.632;0.000
04/08/2011 09:40 PM;30.632;0.000
04/08/2011 09:45 PM;30.632;0.000
04/08/2011 09:50 PM;30.632;0.000
04/08/2011 09:55 PM;30.632;0.000
04/08/2011 10:00 PM;30.632;0.000
04/08/2011 10:05 PM;30.632;0.000
04/08/2011 10:10 PM;30.632;0.000
04/08/2011 10:15 PM;30.632;0.000
04/08/2011 10:20 PM;30.632;0.000
04/08/2011 10:25 PM;30.632;0.000
04/08/2011 10:30 PM;30.632;0.000
04/08/2011 10:35 PM;30.632;0.000
04/08/2011 10:40 PM;30.632;0.000
04/08/2011 10:45 PM;30.632;0.000
04/08/2011 10:50 PM;30.632;0.000
04/08/2011 10:55 PM;30.632;0.000
04/08/2011 11:00 PM;30.632;0.000
04/08/2011 11:05 PM;30.632;0.000
04/08/2011 11:10 PM;30.632;0.000
04/08/2011 11:15 PM;30.632;0.000
04/08/2011 11:20 PM;30.632;0.000
04/08/2011 11:25 PM;30.632;0.000
04/08/2011 11:30 PM;30.632;0.000
04/08/2011 11:35 PM;30.632;0.000
04/08/2011 11:40 PM;30.632;0.000
04/08/2011 11:45 PM;30.632;0.000
04/08/2011 11:50 PM;30.632;0.000
04/08/2011 11:55 PM;30.632;0.000
