sep=;
Version CSV1|Tool SE|Linebreaks CR/LF|Delimiter semicolon|Decimalpoint dot|Precision 3

;SN: 2100448037;SN: 2100448037
;SB 3000TL-20;SB 3000TL-20
;2100448037;2100448037
;Total yield;Power
;Counter;Analog
dd/MM/yyyy hh:mm tt;kWh;kW
03/08/2011 12:00 AM;8.279;0.000
03/08/2011 12:05 AM;8.279;0.000
03/08/2011 12:10 AM;8.279;0.000
03/08/2011 12:15 AM;8.279;0.000
03/08/2011 12:20 AM;8.279;0.000
03/08/2011 12:25 AM;8.279;0.000
03/08/2011 12:30 AM;8.279;0.000
03/08/2011 12:35 AM;8.279;0.000
03/08/2011 12:40 AM;8.279;0.000
03/08/2011 12:45 AM;8.279;0.000
03/08/2011 12:50 AM;8.279;0.000
03/08/2011 12:55 AM;8.279;0.000
03/08/2011 01:00 AM;8.279;0.000
03/08/2011 01:05 AM;8.279;0.000
03/08/2011 01:10 AM;8.279;0.000
03/08/2011 01:15 AM;8.279;0.000
03/08/2011 01:20 AM;8.279;0.000
03/08/2011 01:25 AM;8.279;0.000
03/08/2011 01:30 AM;8.279;0.000
03/08/2011 01:35 AM;8.279;0.000
03/08/2011 01:40 AM;8.279;0.000
03/08/2011 01:45 AM;8.279;0.000
03/08/2011 01:50 AM;8.279;0.000
03/08/2011 01:55 AM;8.279;0.000
03/08/2011 02:00 AM;8.279;0.000
03/08/2011 02:05 AM;8.279;0.000
03/08/2011 02:10 AM;8.279;0.000
03/08/2011 02:15 AM;8.279;0.000
03/08/2011 02:20 AM;8.279;0.000
03/08/2011 02:25 AM;8.279;0.000
03/08/2011 02:30 AM;8.279;0.000
03/08/2011 02:35 AM;8.279;0.000
03/08/2011 02:40 AM;8.279;0.000
03/08/2011 02:45 AM;8.279;0.000
03/08/2011 02:50 AM;8.279;0.000
03/08/2011 02:55 AM;8.279;0.000
03/08/2011 03:00 AM;8.279;0.000
03/08/2011 03:05 AM;8.279;0.000
03/08/2011 03:10 AM;8.279;0.000
03/08/2011 03:15 AM;8.279;0.000
03/08/2011 03:20 AM;8.279;0.000
03/08/2011 03:25 AM;8.279;0.000
03/08/2011 03:30 AM;8.279;0.000
03/08/2011 03:35 AM;8.279;0.000
03/08/2011 03:40 AM;8.279;0.000
03/08/2011 03:45 AM;8.279;0.000
03/08/2011 03:50 AM;8.279;0.000
03/08/2011 03:55 AM;8.279;0.000
03/08/2011 04:00 AM;8.279;0.000
03/08/2011 04:05 AM;8.279;0.000
03/08/2011 04:10 AM;8.279;0.000
03/08/2011 04:15 AM;8.279;0.000
03/08/2011 04:20 AM;8.279;0.000
03/08/2011 04:25 AM;8.279;0.000
03/08/2011 04:30 AM;8.279;0.000
03/08/2011 04:35 AM;8.279;0.000
03/08/2011 04:40 AM;8.279;0.000
03/08/2011 04:45 AM;8.279;0.000
03/08/2011 04:50 AM;8.279;0.000
03/08/2011 04:55 AM;8.279;0.000
03/08/2011 05:00 AM;8.279;0.000
03/08/2011 05:05 AM;8.279;0.000
03/08/2011 05:10 AM;8.279;0.000
03/08/2011 05:15 AM;8.279;0.000
03/08/2011 05:20 AM;8.279;0.000
03/08/2011 05:25 AM;8.279;0.000
03/08/2011 05:30 AM;8.279;0.000
03/08/2011 05:35 AM;8.279;0.000
03/08/2011 05:40 AM;8.279;0.000
03/08/2011 05:45 AM;8.279;0.000
03/08/2011 05:50 AM;8.279;0.000
03/08/2011 05:55 AM;8.279;0.000
03/08/2011 06:00 AM;8.279;0.000
03/08/2011 06:05 AM;8.279;0.000
03/08/2011 06:10 AM;8.279;0.000
03/08/2011 06:15 AM;8.279;0.000
03/08/2011 06:20 AM;8.279;0.000
03/08/2011 06:25 AM;8.279;0.000
03/08/2011 06:30 AM;8.279;0.000
03/08/2011 06:35 AM;8.279;0.000
03/08/2011 06:40 AM;8.279;0.000
03/08/2011 06:45 AM;8.279;0.000
03/08/2011 06:50 AM;8.279;0.000
03/08/2011 06:55 AM;8.279;0.000
03/08/2011 07:00 AM;8.279;0.000
03/08/2011 07:05 AM;8.279;0.000
03/08/2011 07:10 AM;8.279;0.000
03/08/2011 07:15 AM;8.279;0.000
03/08/2011 07:20 AM;8.279;0.000
03/08/2011 07:25 AM;8.279;0.000
03/08/2011 07:30 AM;8.282;0.036
03/08/2011 07:35 AM;8.288;0.072
03/08/2011 07:40 AM;8.297;0.108
03/08/2011 07:45 AM;8.312;0.180
03/08/2011 07:50 AM;8.334;0.264
03/08/2011 07:55 AM;8.370;0.432
03/08/2011 08:00 AM;8.405;0.420
03/08/2011 08:05 AM;8.425;0.240
03/08/2011 08:10 AM;8.443;0.216
03/08/2011 08:15 AM;8.481;0.456
03/08/2011 08:20 AM;8.524;0.516
03/08/2011 08:25 AM;8.575;0.612
03/08/2011 08:30 AM;8.631;0.672
03/08/2011 08:35 AM;8.692;0.732
03/08/2011 08:40 AM;8.763;0.852
03/08/2011 08:45 AM;8.805;0.504
03/08/2011 08:50 AM;8.873;0.816
03/08/2011 08:55 AM;8.944;0.852
03/08/2011 09:00 AM;9.026;0.984
03/08/2011 09:05 AM;9.111;1.020
03/08/2011 09:10 AM;9.207;1.152
03/08/2011 09:15 AM;9.309;1.224
03/08/2011 09:20 AM;9.361;0.624
03/08/2011 09:25 AM;9.391;0.360
03/08/2011 09:30 AM;9.434;0.516
03/08/2011 09:35 AM;9.485;0.612
03/08/2011 09:40 AM;9.527;0.504
03/08/2011 09:45 AM;9.579;0.624
03/08/2011 09:50 AM;9.626;0.564
03/08/2011 09:55 AM;9.688;0.744
03/08/2011 10:00 AM;9.803;1.380
03/08/2011 10:05 AM;9.935;1.584
03/08/2011 10:10 AM;10.078;1.716
03/08/2011 10:15 AM;10.220;1.704
03/08/2011 10:20 AM;10.366;1.752
03/08/2011 10:25 AM;10.514;1.776
03/08/2011 10:30 AM;10.669;1.860
03/08/2011 10:35 AM;10.785;1.392
03/08/2011 10:40 AM;10.876;1.092
03/08/2011 10:45 AM;10.989;1.356
03/08/2011 10:50 AM;11.071;0.984
03/08/2011 10:55 AM;11.174;1.236
03/08/2011 11:00 AM;11.348;2.088
03/08/2011 11:05 AM;11.418;0.840
03/08/2011 11:10 AM;11.506;1.056
03/08/2011 11:15 AM;11.668;1.944
03/08/2011 11:20 AM;11.726;0.696
03/08/2011 11:25 AM;11.804;0.936
03/08/2011 11:30 AM;11.928;1.488
03/08/2011 11:35 AM;12.106;2.136
03/08/2011 11:40 AM;12.273;2.004
03/08/2011 11:45 AM;12.420;1.764
03/08/2011 11:50 AM;12.519;1.188
03/08/2011 11:55 AM;12.587;0.816
03/08/2011 12:00 PM;12.652;0.780
03/08/2011 12:05 PM;12.778;1.512
03/08/2011 12:10 PM;12.967;2.268
03/08/2011 12:15 PM;13.011;0.528
03/08/2011 12:20 PM;13.050;0.468
03/08/2011 12:25 PM;13.115;0.780
03/08/2011 12:30 PM;13.252;1.644
03/08/2011 12:35 PM;13.369;1.404
03/08/2011 12:40 PM;13.546;2.124
03/08/2011 12:45 PM;13.733;2.244
03/08/2011 12:50 PM;13.928;2.340
03/08/2011 12:55 PM;14.019;1.092
03/08/2011 01:00 PM;14.078;0.708
03/08/2011 01:05 PM;14.095;0.204
03/08/2011 01:10 PM;14.113;0.216
03/08/2011 01:15 PM;14.167;0.648
03/08/2011 01:20 PM;14.240;0.876
03/08/2011 01:25 PM;14.367;1.524
03/08/2011 01:30 PM;14.409;0.504
03/08/2011 01:35 PM;14.602;2.316
03/08/2011 01:40 PM;14.735;1.596
03/08/2011 01:45 PM;14.832;1.164
03/08/2011 01:50 PM;14.905;0.876
03/08/2011 01:55 PM;14.938;0.396
03/08/2011 02:00 PM;14.971;0.396
03/08/2011 02:05 PM;14.985;0.168
03/08/2011 02:10 PM;15.006;0.252
03/08/2011 02:15 PM;15.060;0.648
03/08/2011 02:20 PM;15.227;2.004
03/08/2011 02:25 PM;15.370;1.716
03/08/2011 02:30 PM;15.484;1.368
03/08/2011 02:35 PM;15.517;0.396
03/08/2011 02:40 PM;15.527;0.120
03/08/2011 02:45 PM;15.540;0.156
03/08/2011 02:50 PM;15.644;1.248
03/08/2011 02:55 PM;15.741;1.164
03/08/2011 03:00 PM;15.760;0.228
03/08/2011 03:05 PM;15.828;0.816
03/08/2011 03:10 PM;15.922;1.128
03/08/2011 03:15 PM;15.950;0.336
03/08/2011 03:20 PM;15.990;0.480
03/08/2011 03:25 PM;16.016;0.312
03/08/2011 03:30 PM;16.049;0.396
03/08/2011 03:35 PM;16.081;0.384
03/08/2011 03:40 PM;16.095;0.168
03/08/2011 03:45 PM;16.143;0.576
03/08/2011 03:50 PM;16.187;0.528
03/08/2011 03:55 PM;16.220;0.396
03/08/2011 04:00 PM;16.251;0.372
03/08/2011 04:05 PM;16.286;0.420
03/08/2011 04:10 PM;16.320;0.408
03/08/2011 04:15 PM;16.345;0.300
03/08/2011 04:20 PM;16.368;0.276
03/08/2011 04:25 PM;16.398;0.360
03/08/2011 04:30 PM;16.455;0.684
03/08/2011 04:35 PM;16.494;0.468
03/08/2011 04:40 PM;16.515;0.252
03/08/2011 04:45 PM;16.531;0.192
03/08/2011 04:50 PM;16.544;0.156
03/08/2011 04:55 PM;16.560;0.192
03/08/2011 05:00 PM;16.579;0.228
03/08/2011 05:05 PM;16.583;0.048
03/08/2011 05:10 PM;16.586;0.036
03/08/2011 05:15 PM;16.588;0.024
03/08/2011 05:20 PM;16.590;0.024
03/08/2011 05:25 PM;16.591;0.012
03/08/2011 05:30 PM;16.591;0.000
03/08/2011 05:35 PM;16.591;0.000
03/08/2011 05:40 PM;16.591;0.000
03/08/2011 05:45 PM;16.591;0.000
03/08/2011 05:50 PM;16.591;0.000
03/08/2011 05:55 PM;16.591;0.000
03/08/2011 06:00 PM;16.591;0.000
03/08/2011 06:05 PM;16.591;0.000
03/08/2011 06:10 PM;16.591;0.000
03/08/2011 06:15 PM;16.591;0.000
03/08/2011 06:20 PM;16.591;0.000
03/08/2011 06:25 PM;16.591;0.000
03/08/2011 06:30 PM;16.591;0.000
03/08/2011 06:35 PM;16.591;0.000
03/08/2011 06:40 PM;16.591;0.000
03/08/2011 06:45 PM;16.591;0.000
03/08/2011 06:50 PM;16.591;0.000
03/08/2011 06:55 PM;16.591;0.000
03/08/2011 07:00 PM;16.591;0.000
03/08/2011 07:05 PM;16.591;0.000
03/08/2011 07:10 PM;16.591;0.000
03/08/2011 07:15 PM;16.591;0.000
03/08/2011 07:20 PM;16.591;0.000
03/08/2011 07:25 PM;16.591;0.000
03/08/2011 07:30 PM;16.591;0.000
03/08/2011 07:35 PM;16.591;0.000
03/08/2011 07:40 PM;16.591;0.000
03/08/2011 07:45 PM;16.591;0.000
03/08/2011 07:50 PM;16.591;0.000
03/08/2011 07:55 PM;16.591;0.000
03/08/2011 08:00 PM;16.591;0.000
03/08/2011 08:05 PM;16.591;0.000
03/08/2011 08:10 PM;16.591;0.000
03/08/2011 08:15 PM;16.591;0.000
03/08/2011 08:20 PM;16.591;0.000
03/08/2011 08:25 PM;16.591;0.000
03/08/2011 08:30 PM;16.591;0.000
03/08/2011 08:35 PM;16.591;0.000
03/08/2011 08:40 PM;16.591;0.000
03/08/2011 08:45 PM;16.591;0.000
03/08/2011 08:50 PM;16.591;0.000
03/08/2011 08:55 PM;16.591;0.000
03/08/2011 09:00 PM;16.591;0.000
03/08/2011 09:05 PM;16.591;0.000
03/08/2011 09:10 PM;16.591;0.000
03/08/2011 09:15 PM;16.591;0.000
03/08/2011 09:20 PM;16.591;0.000
03/08/2011 09:25 PM;16.591;0.000
03/08/2011 09:30 PM;16.591;0.000
03/08/2011 09:35 PM;16.591;0.000
03/08/2011 09:40 PM;16.591;0.000
03/08/2011 09:45 PM;16.591;0.000
03/08/2011 09:50 PM;16.591;0.000
03/08/2011 09:55 PM;16.591;0.000
03/08/2011 10:00 PM;16.591;0.000
03/08/2011 10:05 PM;16.591;0.000
03/08/2011 10:10 PM;16.591;0.000
03/08/2011 10:15 PM;16.591;0.000
03/08/2011 10:20 PM;16.591;0.000
03/08/2011 10:25 PM;16.591;0.000
03/08/2011 10:30 PM;16.591;0.000
03/08/2011 10:35 PM;16.591;0.000
03/08/2011 10:40 PM;16.591;0.000
03/08/2011 10:45 PM;16.591;0.000
03/08/2011 10:50 PM;16.591;0.000
03/08/2011 10:55 PM;16.591;0.000
03/08/2011 11:00 PM;16.591;0.000
03/08/2011 11:05 PM;16.591;0.000
03/08/2011 11:10 PM;16.591;0.000
03/08/2011 11:15 PM;16.591;0.000
03/08/2011 11:20 PM;16.591;0.000
03/08/2011 11:25 PM;16.591;0.000
03/08/2011 11:30 PM;16.591;0.000
03/08/2011 11:35 PM;16.591;0.000
03/08/2011 11:40 PM;16.591;0.000
03/08/2011 11:45 PM;16.591;0.000
03/08/2011 11:50 PM;16.591;0.000
03/08/2011 11:55 PM;16.591;0.000
