sep=;
Version CSV1|Tool SE|Linebreaks CR/LF|Delimiter semicolon|Decimalpoint dot|Precision 3

;SN: 2100448037;SN: 2100448037
;SB 3000TL-20;SB 3000TL-20
;2100448037;2100448037
;Total yield;Power
;Counter;Analog
dd/MM/yyyy hh:mm tt;kWh;kW
16/08/2011 12:00 AM;157.974;0.000
16/08/2011 12:05 AM;157.974;0.000
16/08/2011 12:10 AM;157.974;0.000
16/08/2011 12:15 AM;157.974;0.000
16/08/2011 12:20 AM;157.974;0.000
16/08/2011 12:25 AM;157.974;0.000
16/08/2011 12:30 AM;157.974;0.000
16/08/2011 12:35 AM;157.974;0.000
16/08/2011 12:40 AM;157.974;0.000
16/08/2011 12:45 AM;157.974;0.000
16/08/2011 12:50 AM;157.974;0.000
16/08/2011 12:55 AM;157.974;0.000
16/08/2011 01:00 AM;157.974;0.000
16/08/2011 01:05 AM;157.974;0.000
16/08/2011 01:10 AM;157.974;0.000
16/08/2011 01:15 AM;157.974;0.000
16/08/2011 01:20 AM;157.974;0.000
16/08/2011 01:25 AM;157.974;0.000
16/08/2011 01:30 AM;157.974;0.000
16/08/2011 01:35 AM;157.974;0.000
16/08/2011 01:40 AM;157.974;0.000
16/08/2011 01:45 AM;157.974;0.000
16/08/2011 01:50 AM;157.974;0.000
16/08/2011 01:55 AM;157.974;0.000
16/08/2011 02:00 AM;157.974;0.000
16/08/2011 02:05 AM;157.974;0.000
16/08/2011 02:10 AM;157.974;0.000
16/08/2011 02:15 AM;157.974;0.000
16/08/2011 02:20 AM;157.974;0.000
16/08/2011 02:25 AM;157.974;0.000
16/08/2011 02:30 AM;157.974;0.000
16/08/2011 02:35 AM;157.974;0.000
16/08/2011 02:40 AM;157.974;0.000
16/08/2011 02:45 AM;157.974;0.000
16/08/2011 02:50 AM;157.974;0.000
16/08/2011 02:55 AM;157.974;0.000
16/08/2011 03:00 AM;157.974;0.000
16/08/2011 03:05 AM;157.974;0.000
16/08/2011 03:10 AM;157.974;0.000
16/08/2011 03:15 AM;157.974;0.000
16/08/2011 03:20 AM;157.974;0.000
16/08/2011 03:25 AM;157.974;0.000
16/08/2011 03:30 AM;157.974;0.000
16/08/2011 03:35 AM;157.974;0.000
16/08/2011 03:40 AM;157.974;0.000
16/08/2011 03:45 AM;157.974;0.000
16/08/2011 03:50 AM;157.974;0.000
16/08/2011 03:55 AM;157.974;0.000
16/08/2011 04:00 AM;157.974;0.000
16/08/2011 04:05 AM;157.974;0.000
16/08/2011 04:10 AM;157.974;0.000
16/08/2011 04:15 AM;157.974;0.000
16/08/2011 04:20 AM;157.974;0.000
16/08/2011 04:25 AM;157.974;0.000
16/08/2011 04:30 AM;157.974;0.000
16/08/2011 04:35 AM;157.974;0.000
16/08/2011 04:40 AM;157.974;0.000
16/08/2011 04:45 AM;157.974;0.000
16/08/2011 04:50 AM;157.974;0.000
16/08/2011 04:55 AM;157.974;0.000
16/08/2011 05:00 AM;157.974;0.000
16/08/2011 05:05 AM;157.974;0.000
16/08/2011 05:10 AM;157.974;0.000
16/08/2011 05:15 AM;157.974;0.000
16/08/2011 05:20 AM;157.974;0.000
16/08/2011 05:25 AM;157.974;0.000
16/08/2011 05:30 AM;157.974;0.000
16/08/2011 05:35 AM;157.974;0.000
16/08/2011 05:40 AM;157.974;0.000
16/08/2011 05:45 AM;157.974;0.000
16/08/2011 05:50 AM;157.974;0.000
16/08/2011 05:55 AM;157.974;0.000
16/08/2011 06:00 AM;157.974;0.000
16/08/2011 06:05 AM;157.974;0.000
16/08/2011 06:10 AM;157.974;0.000
16/08/2011 06:15 AM;157.974;0.000
16/08/2011 06:20 AM;157.974;0.000
16/08/2011 06:25 AM;157.974;0.000
16/08/2011 06:30 AM;157.974;0.000
16/08/2011 06:35 AM;157.974;0.000
16/08/2011 06:40 AM;157.974;0.000
16/08/2011 06:45 AM;157.974;0.000
16/08/2011 06:50 AM;157.974;0.000
16/08/2011 06:55 AM;157.974;0.000
16/08/2011 07:00 AM;157.974;0.000
16/08/2011 07:05 AM;157.974;0.000
16/08/2011 07:10 AM;157.974;0.000
16/08/2011 07:15 AM;157.976;0.024
16/08/2011 07:20 AM;157.978;0.024
16/08/2011 07:25 AM;157.981;0.036
16/08/2011 07:30 AM;157.991;0.120
16/08/2011 07:35 AM;158.009;0.216
16/08/2011 07:40 AM;158.031;0.264
16/08/2011 07:45 AM;158.042;0.132
16/08/2011 07:50 AM;158.049;0.084
16/08/2011 07:55 AM;158.058;0.108
16/08/2011 08:00 AM;158.097;0.468
16/08/2011 08:05 AM;158.142;0.540
16/08/2011 08:10 AM;158.185;0.516
16/08/2011 08:15 AM;158.199;0.168
16/08/2011 08:20 AM;158.225;0.312
16/08/2011 08:25 AM;158.259;0.408
16/08/2011 08:30 AM;158.301;0.504
16/08/2011 08:35 AM;158.385;1.008
16/08/2011 08:40 AM;158.417;0.384
16/08/2011 08:45 AM;158.447;0.360
16/08/2011 08:50 AM;158.501;0.648
16/08/2011 08:55 AM;158.599;1.176
16/08/2011 09:00 AM;158.698;1.188
16/08/2011 09:05 AM;158.786;1.056
16/08/2011 09:10 AM;158.896;1.320
16/08/2011 09:15 AM;159.002;1.272
16/08/2011 09:20 AM;159.068;0.792
16/08/2011 09:25 AM;159.132;0.768
16/08/2011 09:30 AM;159.226;1.128
16/08/2011 09:35 AM;159.355;1.548
16/08/2011 09:40 AM;159.503;1.776
16/08/2011 09:45 AM;159.542;0.468
16/08/2011 09:50 AM;159.601;0.708
16/08/2011 09:55 AM;159.676;0.900
16/08/2011 10:00 AM;159.826;1.800
16/08/2011 10:05 AM;159.947;1.452
16/08/2011 10:10 AM;159.985;0.456
16/08/2011 10:15 AM;160.048;0.756
16/08/2011 10:20 AM;160.097;0.588
16/08/2011 10:25 AM;160.208;1.332
16/08/2011 10:30 AM;160.377;2.028
16/08/2011 10:35 AM;160.543;1.992
16/08/2011 10:40 AM;160.709;1.992
16/08/2011 10:45 AM;160.824;1.380
16/08/2011 10:50 AM;160.983;1.908
16/08/2011 10:55 AM;161.156;2.076
16/08/2011 11:00 AM;161.334;2.136
16/08/2011 11:05 AM;161.512;2.136
16/08/2011 11:10 AM;161.665;1.836
16/08/2011 11:15 AM;161.829;1.968
16/08/2011 11:20 AM;162.012;2.196
16/08/2011 11:25 AM;162.196;2.208
16/08/2011 11:30 AM;162.374;2.136
16/08/2011 11:35 AM;162.564;2.280
16/08/2011 11:40 AM;162.742;2.136
16/08/2011 11:45 AM;162.797;0.660
16/08/2011 11:50 AM;162.899;1.224
16/08/2011 11:55 AM;163.052;1.836
16/08/2011 12:00 PM;163.157;1.260
16/08/2011 12:05 PM;163.330;2.076
16/08/2011 12:10 PM;163.509;2.148
16/08/2011 12:15 PM;163.647;1.656
16/08/2011 12:20 PM;163.725;0.936
16/08/2011 12:25 PM;163.776;0.612
16/08/2011 12:30 PM;163.949;2.076
16/08/2011 12:35 PM;164.165;2.592
16/08/2011 12:40 PM;164.344;2.148
16/08/2011 12:45 PM;164.513;2.028
16/08/2011 12:50 PM;164.692;2.148
16/08/2011 12:55 PM;164.843;1.812
16/08/2011 01:00 PM;164.990;1.764
16/08/2011 01:05 PM;165.193;2.436
16/08/2011 01:10 PM;165.294;1.212
16/08/2011 01:15 PM;165.399;1.260
16/08/2011 01:20 PM;165.542;1.716
16/08/2011 01:25 PM;165.728;2.232
16/08/2011 01:30 PM;165.927;2.388
16/08/2011 01:35 PM;165.989;0.744
16/08/2011 01:40 PM;166.078;1.068
16/08/2011 01:45 PM;166.164;1.032
16/08/2011 01:50 PM;166.356;2.304
16/08/2011 01:55 PM;166.428;0.864
16/08/2011 02:00 PM;166.601;2.076
16/08/2011 02:05 PM;166.786;2.220
16/08/2011 02:10 PM;166.940;1.848
16/08/2011 02:15 PM;167.051;1.332
16/08/2011 02:20 PM;167.154;1.236
16/08/2011 02:25 PM;167.344;2.280
16/08/2011 02:30 PM;167.435;1.092
16/08/2011 02:35 PM;167.525;1.080
16/08/2011 02:40 PM;167.595;0.840
16/08/2011 02:45 PM;167.788;2.316
16/08/2011 02:50 PM;167.870;0.984
16/08/2011 02:55 PM;167.894;0.288
16/08/2011 03:00 PM;167.919;0.300
16/08/2011 03:05 PM;167.950;0.372
16/08/2011 03:10 PM;167.984;0.408
16/08/2011 03:15 PM;168.021;0.444
16/08/2011 03:20 PM;168.055;0.408
16/08/2011 03:25 PM;168.086;0.372
16/08/2011 03:30 PM;168.110;0.288
16/08/2011 03:35 PM;168.139;0.348
16/08/2011 03:40 PM;168.166;0.324
16/08/2011 03:45 PM;168.229;0.756
16/08/2011 03:50 PM;168.336;1.284
16/08/2011 03:55 PM;168.418;0.984
16/08/2011 04:00 PM;168.476;0.696
16/08/2011 04:05 PM;168.513;0.444
16/08/2011 04:10 PM;168.531;0.216
16/08/2011 04:15 PM;168.549;0.216
16/08/2011 04:20 PM;168.571;0.264
16/08/2011 04:25 PM;168.590;0.228
16/08/2011 04:30 PM;168.610;0.240
16/08/2011 04:35 PM;168.656;0.552
16/08/2011 04:40 PM;168.724;0.816
16/08/2011 04:45 PM;168.811;1.044
16/08/2011 04:50 PM;168.874;0.756
16/08/2011 04:55 PM;168.910;0.432
16/08/2011 05:00 PM;168.920;0.120
16/08/2011 05:05 PM;168.922;0.024
16/08/2011 05:10 PM;168.922;0.000
16/08/2011 05:15 PM;168.926;0.048
16/08/2011 05:20 PM;168.935;0.108
16/08/2011 05:25 PM;168.942;0.084
16/08/2011 05:30 PM;168.948;0.072
16/08/2011 05:35 PM;168.950;0.024
16/08/2011 05:40 PM;168.950;0.000
16/08/2011 05:45 PM;168.950;0.000
16/08/2011 05:50 PM;168.950;0.000
16/08/2011 05:55 PM;168.950;0.000
16/08/2011 06:00 PM;168.950;0.000
16/08/2011 06:05 PM;168.950;0.000
16/08/2011 06:10 PM;168.950;0.000
16/08/2011 06:15 PM;168.950;0.000
16/08/2011 06:20 PM;168.950;0.000
16/08/2011 06:25 PM;168.950;0.000
16/08/2011 06:30 PM;168.950;0.000
16/08/2011 06:35 PM;168.950;0.000
16/08/2011 06:40 PM;168.950;0.000
16/08/2011 06:45 PM;168.950;0.000
16/08/2011 06:50 PM;168.950;0.000
16/08/2011 06:55 PM;168.950;0.000
16/08/2011 07:00 PM;168.950;0.000
16/08/2011 07:05 PM;168.950;0.000
16/08/2011 07:10 PM;168.950;0.000
16/08/2011 07:15 PM;168.950;0.000
16/08/2011 07:20 PM;168.950;0.000
16/08/2011 07:25 PM;168.950;0.000
16/08/2011 07:30 PM;168.950;0.000
16/08/2011 07:35 PM;168.950;0.000
16/08/2011 07:40 PM;168.950;0.000
16/08/2011 07:45 PM;168.950;0.000
16/08/2011 07:50 PM;168.950;0.000
16/08/2011 07:55 PM;168.950;0.000
16/08/2011 08:00 PM;168.950;0.000
16/08/2011 08:05 PM;168.950;0.000
16/08/2011 08:10 PM;168.950;0.000
16/08/2011 08:15 PM;168.950;0.000
16/08/2011 08:20 PM;168.950;0.000
16/08/2011 08:25 PM;168.950;0.000
16/08/2011 08:30 PM;168.950;0.000
16/08/2011 08:35 PM;168.950;0.000
16/08/2011 08:40 PM;168.950;0.000
16/08/2011 08:45 PM;168.950;0.000
16/08/2011 08:50 PM;168.950;0.000
16/08/2011 08:55 PM;168.950;0.000
16/08/2011 09:00 PM;168.950;0.000
16/08/2011 09:05 PM;168.950;0.000
16/08/2011 09:10 PM;168.950;0.000
16/08/2011 09:15 PM;168.950;0.000
16/08/2011 09:20 PM;168.950;0.000
16/08/2011 09:25 PM;168.950;0.000
16/08/2011 09:30 PM;168.950;0.000
16/08/2011 09:35 PM;168.950;0.000
16/08/2011 09:40 PM;168.950;0.000
16/08/2011 09:45 PM;168.950;0.000
16/08/2011 09:50 PM;168.950;0.000
16/08/2011 09:55 PM;168.950;0.000
16/08/2011 10:00 PM;168.950;0.000
16/08/2011 10:05 PM;168.950;0.000
16/08/2011 10:10 PM;168.950;0.000
16/08/2011 10:15 PM;168.950;0.000
16/08/2011 10:20 PM;168.950;0.000
16/08/2011 10:25 PM;168.950;0.000
16/08/2011 10:30 PM;168.950;0.000
16/08/2011 10:35 PM;168.950;0.000
16/08/2011 10:40 PM;168.950;0.000
16/08/2011 10:45 PM;168.950;0.000
16/08/2011 10:50 PM;168.950;0.000
16/08/2011 10:55 PM;168.950;0.000
16/08/2011 11:00 PM;168.950;0.000
16/08/2011 11:05 PM;168.950;0.000
16/08/2011 11:10 PM;168.950;0.000
16/08/2011 11:15 PM;168.950;0.000
16/08/2011 11:20 PM;168.950;0.000
16/08/2011 11:25 PM;168.950;0.000
16/08/2011 11:30 PM;168.950;0.000
16/08/2011 11:35 PM;168.950;0.000
16/08/2011 11:40 PM;168.950;0.000
16/08/2011 11:45 PM;168.950;0.000
16/08/2011 11:50 PM;168.950;0.000
16/08/2011 11:55 PM;168.950;0.000
