sep=;
Version CSV1|Tool SE|Linebreaks CR/LF|Delimiter semicolon|Decimalpoint dot|Precision 3

;SN: 2100448037;SN: 2100448037
;SB 3000TL-20;SB 3000TL-20
;2100448037;2100448037
;Total yield;Power
;Counter;Analog
dd/MM/yyyy hh:mm tt;kWh;kW
25/09/2011 12:00 AM;680.646;0.000
25/09/2011 12:05 AM;680.646;0.000
25/09/2011 12:10 AM;680.646;0.000
25/09/2011 12:15 AM;680.646;0.000
25/09/2011 12:20 AM;680.646;0.000
25/09/2011 12:25 AM;680.646;0.000
25/09/2011 12:30 AM;680.646;0.000
25/09/2011 12:35 AM;680.646;0.000
25/09/2011 12:40 AM;680.646;0.000
25/09/2011 12:45 AM;680.646;0.000
25/09/2011 12:50 AM;680.646;0.000
25/09/2011 12:55 AM;680.646;0.000
25/09/2011 01:00 AM;680.646;0.000
25/09/2011 01:05 AM;680.646;0.000
25/09/2011 01:10 AM;680.646;0.000
25/09/2011 01:15 AM;680.646;0.000
25/09/2011 01:20 AM;680.646;0.000
25/09/2011 01:25 AM;680.646;0.000
25/09/2011 01:30 AM;680.646;0.000
25/09/2011 01:35 AM;680.646;0.000
25/09/2011 01:40 AM;680.646;0.000
25/09/2011 01:45 AM;680.646;0.000
25/09/2011 01:50 AM;680.646;0.000
25/09/2011 01:55 AM;680.646;0.000
25/09/2011 02:00 AM;680.646;0.000
25/09/2011 02:05 AM;680.646;0.000
25/09/2011 02:10 AM;680.646;0.000
25/09/2011 02:15 AM;680.646;0.000
25/09/2011 02:20 AM;680.646;0.000
25/09/2011 02:25 AM;680.646;0.000
25/09/2011 02:30 AM;680.646;0.000
25/09/2011 02:35 AM;680.646;0.000
25/09/2011 02:40 AM;680.646;0.000
25/09/2011 02:45 AM;680.646;0.000
25/09/2011 02:50 AM;680.646;0.000
25/09/2011 02:55 AM;680.646;0.000
25/09/2011 03:00 AM;680.646;0.000
25/09/2011 03:05 AM;680.646;0.000
25/09/2011 03:10 AM;680.646;0.000
25/09/2011 03:15 AM;680.646;0.000
25/09/2011 03:20 AM;680.646;0.000
25/09/2011 03:25 AM;680.646;0.000
25/09/2011 03:30 AM;680.646;0.000
25/09/2011 03:35 AM;680.646;0.000
25/09/2011 03:40 AM;680.646;0.000
25/09/2011 03:45 AM;680.646;0.000
25/09/2011 03:50 AM;680.646;0.000
25/09/2011 03:55 AM;680.646;0.000
25/09/2011 04:00 AM;680.646;0.000
25/09/2011 04:05 AM;680.646;0.000
25/09/2011 04:10 AM;680.646;0.000
25/09/2011 04:15 AM;680.646;0.000
25/09/2011 04:20 AM;680.646;0.000
25/09/2011 04:25 AM;680.646;0.000
25/09/2011 04:30 AM;680.646;0.000
25/09/2011 04:35 AM;680.646;0.000
25/09/2011 04:40 AM;680.646;0.000
25/09/2011 04:45 AM;680.646;0.000
25/09/2011 04:50 AM;680.646;0.000
25/09/2011 04:55 AM;680.646;0.000
25/09/2011 05:00 AM;680.646;0.000
25/09/2011 05:05 AM;680.646;0.000
25/09/2011 05:10 AM;680.646;0.000
25/09/2011 05:15 AM;680.646;0.000
25/09/2011 05:20 AM;680.646;0.000
25/09/2011 05:25 AM;680.646;0.000
25/09/2011 05:30 AM;680.646;0.000
25/09/2011 05:35 AM;680.646;0.000
25/09/2011 05:40 AM;680.646;0.000
25/09/2011 05:45 AM;680.646;0.000
25/09/2011 05:50 AM;680.646;0.000
25/09/2011 05:55 AM;680.646;0.000
25/09/2011 06:00 AM;680.646;0.000
25/09/2011 06:05 AM;680.646;0.000
25/09/2011 06:10 AM;680.646;0.000
25/09/2011 06:15 AM;680.646;0.000
25/09/2011 06:20 AM;680.648;0.024
25/09/2011 06:25 AM;680.651;0.036
25/09/2011 06:30 AM;680.655;0.048
25/09/2011 06:35 AM;680.661;0.072
25/09/2011 06:40 AM;680.668;0.084
25/09/2011 06:45 AM;680.678;0.120
25/09/2011 06:50 AM;680.692;0.168
25/09/2011 06:55 AM;680.710;0.216
25/09/2011 07:00 AM;680.736;0.312
25/09/2011 07:05 AM;680.773;0.444
25/09/2011 07:10 AM;680.807;0.408
25/09/2011 07:15 AM;680.841;0.408
25/09/2011 07:20 AM;680.869;0.336
25/09/2011 07:25 AM;680.892;0.276
25/09/2011 07:30 AM;680.917;0.300
25/09/2011 07:35 AM;680.941;0.288
25/09/2011 07:40 AM;680.973;0.384
25/09/2011 07:45 AM;680.999;0.312
25/09/2011 07:50 AM;681.067;0.816
25/09/2011 07:55 AM;681.146;0.948
25/09/2011 08:00 AM;681.215;0.828
25/09/2011 08:05 AM;681.282;0.804
25/09/2011 08:10 AM;681.358;0.912
25/09/2011 08:15 AM;681.440;0.984
25/09/2011 08:20 AM;681.528;1.056
25/09/2011 08:25 AM;681.621;1.116
25/09/2011 08:30 AM;681.718;1.164
25/09/2011 08:35 AM;681.818;1.200
25/09/2011 08:40 AM;681.923;1.260
25/09/2011 08:45 AM;682.032;1.308
25/09/2011 08:50 AM;682.144;1.344
25/09/2011 08:55 AM;682.261;1.404
25/09/2011 09:00 AM;682.381;1.440
25/09/2011 09:05 AM;682.505;1.488
25/09/2011 09:10 AM;682.633;1.536
25/09/2011 09:15 AM;682.765;1.584
25/09/2011 09:20 AM;682.902;1.644
25/09/2011 09:25 AM;683.048;1.752
25/09/2011 09:30 AM;683.198;1.800
25/09/2011 09:35 AM;683.349;1.812
25/09/2011 09:40 AM;683.410;0.732
25/09/2011 09:45 AM;683.599;2.268
25/09/2011 09:50 AM;683.674;0.900
25/09/2011 09:55 AM;683.831;1.884
25/09/2011 10:00 AM;683.929;1.176
25/09/2011 10:05 AM;683.974;0.540
25/09/2011 10:10 AM;684.097;1.476
25/09/2011 10:15 AM;684.144;0.564
25/09/2011 10:20 AM;684.221;0.924
25/09/2011 10:25 AM;684.313;1.104
25/09/2011 10:30 AM;684.508;2.340
25/09/2011 10:35 AM;684.664;1.872
25/09/2011 10:40 AM;684.814;1.800
25/09/2011 10:45 AM;684.947;1.596
25/09/2011 10:50 AM;685.142;2.340
25/09/2011 10:55 AM;685.336;2.328
25/09/2011 11:00 AM;685.518;2.184
25/09/2011 11:05 AM;685.609;1.092
25/09/2011 11:10 AM;685.807;2.376
25/09/2011 11:15 AM;686.000;2.316
25/09/2011 11:20 AM;686.156;1.872
25/09/2011 11:25 AM;686.354;2.376
25/09/2011 11:30 AM;686.544;2.280
25/09/2011 11:35 AM;686.747;2.436
25/09/2011 11:40 AM;686.960;2.556
25/09/2011 11:45 AM;687.121;1.932
25/09/2011 11:50 AM;687.272;1.812
25/09/2011 11:55 AM;687.486;2.568
25/09/2011 12:00 PM;687.690;2.448
25/09/2011 12:05 PM;687.884;2.328
25/09/2011 12:10 PM;688.062;2.136
25/09/2011 12:15 PM;688.188;1.512
25/09/2011 12:20 PM;688.309;1.452
25/09/2011 12:25 PM;688.429;1.440
25/09/2011 12:30 PM;688.517;1.056
25/09/2011 12:35 PM;688.586;0.828
25/09/2011 12:40 PM;688.633;0.564
25/09/2011 12:45 PM;688.675;0.504
25/09/2011 12:50 PM;688.705;0.360
25/09/2011 12:55 PM;688.734;0.348
25/09/2011 01:00 PM;688.761;0.324
25/09/2011 01:05 PM;688.780;0.228
25/09/2011 01:10 PM;688.808;0.336
25/09/2011 01:15 PM;688.865;0.684
25/09/2011 01:20 PM;688.946;0.972
25/09/2011 01:25 PM;689.046;1.200
25/09/2011 01:30 PM;689.128;0.984
25/09/2011 01:35 PM;689.212;1.008
25/09/2011 01:40 PM;689.378;1.992
25/09/2011 01:45 PM;689.506;1.536
25/09/2011 01:50 PM;689.713;2.484
25/09/2011 01:55 PM;689.816;1.236
25/09/2011 02:00 PM;689.986;2.040
25/09/2011 02:05 PM;690.138;1.824
25/09/2011 02:10 PM;690.351;2.556
25/09/2011 02:15 PM;690.525;2.088
25/09/2011 02:20 PM;690.626;1.212
25/09/2011 02:25 PM;690.830;2.448
25/09/2011 02:30 PM;690.971;1.692
25/09/2011 02:35 PM;691.043;0.864
25/09/2011 02:40 PM;691.142;1.188
25/09/2011 02:45 PM;691.254;1.344
25/09/2011 02:50 PM;691.312;0.696
25/09/2011 02:55 PM;691.402;1.080
25/09/2011 03:00 PM;691.513;1.332
25/09/2011 03:05 PM;691.669;1.872
25/09/2011 03:10 PM;691.792;1.476
25/09/2011 03:15 PM;691.962;2.040
25/09/2011 03:20 PM;692.058;1.152
25/09/2011 03:25 PM;692.154;1.152
25/09/2011 03:30 PM;692.321;2.004
25/09/2011 03:35 PM;692.432;1.332
25/09/2011 03:40 PM;692.553;1.452
25/09/2011 03:45 PM;692.699;1.752
25/09/2011 03:50 PM;692.842;1.716
25/09/2011 03:55 PM;692.978;1.632
25/09/2011 04:00 PM;693.104;1.512
25/09/2011 04:05 PM;693.222;1.416
25/09/2011 04:10 PM;693.341;1.428
25/09/2011 04:15 PM;693.452;1.332
25/09/2011 04:20 PM;693.558;1.272
25/09/2011 04:25 PM;693.660;1.224
25/09/2011 04:30 PM;693.747;1.044
25/09/2011 04:35 PM;693.845;1.176
25/09/2011 04:40 PM;693.878;0.396
25/09/2011 04:45 PM;693.891;0.156
25/09/2011 04:50 PM;693.913;0.264
25/09/2011 04:55 PM;693.943;0.360
25/09/2011 05:00 PM;694.008;0.780
25/09/2011 05:05 PM;694.077;0.828
25/09/2011 05:10 PM;694.130;0.636
25/09/2011 05:15 PM;694.176;0.552
25/09/2011 05:20 PM;694.198;0.264
25/09/2011 05:25 PM;694.208;0.120
25/09/2011 05:30 PM;694.233;0.300
25/09/2011 05:35 PM;694.264;0.372
25/09/2011 05:40 PM;694.287;0.276
25/09/2011 05:45 PM;694.303;0.192
25/09/2011 05:50 PM;694.314;0.132
25/09/2011 05:55 PM;694.319;0.060
25/09/2011 06:00 PM;694.320;0.012
25/09/2011 06:05 PM;694.320;0.000
25/09/2011 06:10 PM;694.320;0.000
25/09/2011 06:15 PM;694.320;0.000
25/09/2011 06:20 PM;694.320;0.000
25/09/2011 06:25 PM;694.320;0.000
25/09/2011 06:30 PM;694.320;0.000
25/09/2011 06:35 PM;694.320;0.000
25/09/2011 06:40 PM;694.320;0.000
25/09/2011 06:45 PM;694.320;0.000
25/09/2011 06:50 PM;694.320;0.000
25/09/2011 06:55 PM;694.320;0.000
25/09/2011 07:00 PM;694.320;0.000
25/09/2011 07:05 PM;694.320;0.000
25/09/2011 07:10 PM;694.320;0.000
25/09/2011 07:15 PM;694.320;0.000
25/09/2011 07:20 PM;694.320;0.000
25/09/2011 07:25 PM;694.320;0.000
25/09/2011 07:30 PM;694.320;0.000
25/09/2011 07:35 PM;694.320;0.000
25/09/2011 07:40 PM;694.320;0.000
25/09/2011 07:45 PM;694.320;0.000
25/09/2011 07:50 PM;694.320;0.000
25/09/2011 07:55 PM;694.320;0.000
25/09/2011 08:00 PM;694.320;0.000
25/09/2011 08:05 PM;694.320;0.000
25/09/2011 08:10 PM;694.320;0.000
25/09/2011 08:15 PM;694.320;0.000
25/09/2011 08:20 PM;694.320;0.000
25/09/2011 08:25 PM;694.320;0.000
25/09/2011 08:30 PM;694.320;0.000
25/09/2011 08:35 PM;694.320;0.000
25/09/2011 08:40 PM;694.320;0.000
25/09/2011 08:45 PM;694.320;0.000
25/09/2011 08:50 PM;694.320;0.000
25/09/2011 08:55 PM;694.320;0.000
25/09/2011 09:00 PM;694.320;0.000
25/09/2011 09:05 PM;694.320;0.000
25/09/2011 09:10 PM;694.320;0.000
25/09/2011 09:15 PM;694.320;0.000
25/09/2011 09:20 PM;694.320;0.000
25/09/2011 09:25 PM;694.320;0.000
25/09/2011 09:30 PM;694.320;0.000
25/09/2011 09:35 PM;694.320;0.000
25/09/2011 09:40 PM;694.320;0.000
25/09/2011 09:45 PM;694.320;0.000
25/09/2011 09:50 PM;694.320;0.000
25/09/2011 09:55 PM;694.320;0.000
25/09/2011 10:00 PM;694.320;0.000
25/09/2011 10:05 PM;694.320;0.000
25/09/2011 10:10 PM;694.320;0.000
25/09/2011 10:15 PM;694.320;0.000
25/09/2011 10:20 PM;694.320;0.000
25/09/2011 10:25 PM;694.320;0.000
25/09/2011 10:30 PM;694.320;0.000
25/09/2011 10:35 PM;694.320;0.000
25/09/2011 10:40 PM;694.320;0.000
25/09/2011 10:45 PM;694.320;0.000
25/09/2011 10:50 PM;694.320;0.000
25/09/2011 10:55 PM;694.320;0.000
25/09/2011 11:00 PM;694.320;0.000
25/09/2011 11:05 PM;694.320;0.000
25/09/2011 11:10 PM;694.320;0.000
25/09/2011 11:15 PM;694.320;0.000
25/09/2011 11:20 PM;694.320;0.000
25/09/2011 11:25 PM;694.320;0.000
25/09/2011 11:30 PM;694.320;0.000
25/09/2011 11:35 PM;694.320;0.000
25/09/2011 11:40 PM;694.320;0.000
25/09/2011 11:45 PM;694.320;0.000
25/09/2011 11:50 PM;694.320;0.000
25/09/2011 11:55 PM;694.320;0.000
