sep=;
Version CSV1|Tool SE|Linebreaks CR/LF|Delimiter semicolon|Decimalpoint dot|Precision 3

;SN: 2100448037;SN: 2100448037
;SB 3000TL-20;SB 3000TL-20
;2100448037;2100448037
;Total yield;Power
;Counter;Analog
dd/MM/yyyy hh:mm tt;kWh;kW
01/09/2011 12:00 AM;366.596
01/09/2011 12:05 AM;366.596;0.000
01/09/2011 12:10 AM;366.596;0.000
01/09/2011 12:15 AM;366.596;0.000
01/09/2011 12:20 AM;366.596;0.000
01/09/2011 12:25 AM;366.596;0.000
01/09/2011 12:30 AM;366.596;0.000
01/09/2011 12:35 AM;366.596;0.000
01/09/2011 12:40 AM;366.596;0.000
01/09/2011 12:45 AM;366.596;0.000
01/09/2011 12:50 AM;366.596;0.000
01/09/2011 12:55 AM;366.596;0.000
01/09/2011 01:00 AM;366.596;0.000
01/09/2011 01:05 AM;366.596;0.000
01/09/2011 01:10 AM;366.596;0.000
01/09/2011 01:15 AM;366.596;0.000
01/09/2011 01:20 AM;366.596;0.000
01/09/2011 01:25 AM;366.596;0.000
01/09/2011 01:30 AM;366.596;0.000
01/09/2011 01:35 AM;366.596;0.000
01/09/2011 01:40 AM;366.596;0.000
01/09/2011 01:45 AM;366.596;0.000
01/09/2011 01:50 AM;366.596;0.000
01/09/2011 01:55 AM;366.596;0.000
01/09/2011 02:00 AM;366.596;0.000
01/09/2011 02:05 AM;366.596;0.000
01/09/2011 02:10 AM;366.596;0.000
01/09/2011 02:15 AM;366.596;0.000
01/09/2011 02:20 AM;366.596;0.000
01/09/2011 02:25 AM;366.596;0.000
01/09/2011 02:30 AM;366.596;0.000
01/09/2011 02:35 AM;366.596;0.000
01/09/2011 02:40 AM;366.596;0.000
01/09/2011 02:45 AM;366.596;0.000
01/09/2011 02:50 AM;366.596;0.000
01/09/2011 02:55 AM;366.596;0.000
01/09/2011 03:00 AM;366.596;0.000
01/09/2011 03:05 AM;366.596;0.000
01/09/2011 03:10 AM;366.596;0.000
01/09/2011 03:15 AM;366.596;0.000
01/09/2011 03:20 AM;366.596;0.000
01/09/2011 03:25 AM;366.596;0.000
01/09/2011 03:30 AM;366.596;0.000
01/09/2011 03:35 AM;366.596;0.000
01/09/2011 03:40 AM;366.596;0.000
01/09/2011 03:45 AM;366.596;0.000
01/09/2011 03:50 AM;366.596;0.000
01/09/2011 03:55 AM;366.596;0.000
01/09/2011 04:00 AM;366.596;0.000
01/09/2011 04:05 AM;366.596;0.000
01/09/2011 04:10 AM;366.596;0.000
01/09/2011 04:15 AM;366.596;0.000
01/09/2011 04:20 AM;366.596;0.000
01/09/2011 04:25 AM;366.596;0.000
01/09/2011 04:30 AM;366.596;0.000
01/09/2011 04:35 AM;366.596;0.000
01/09/2011 04:40 AM;366.596;0.000
01/09/2011 04:45 AM;366.596;0.000
01/09/2011 04:50 AM;366.596;0.000
01/09/2011 04:55 AM;366.596;0.000
01/09/2011 05:00 AM;366.596;0.000
01/09/2011 05:05 AM;366.596;0.000
01/09/2011 05:10 AM;366.596;0.000
01/09/2011 05:15 AM;366.596;0.000
01/09/2011 05:20 AM;366.596;0.000
01/09/2011 05:25 AM;366.596;0.000
01/09/2011 05:30 AM;366.596;0.000
01/09/2011 05:35 AM;366.596;0.000
01/09/2011 05:40 AM;366.596;0.000
01/09/2011 05:45 AM;366.596;0.000
01/09/2011 05:50 AM;366.596;0.000
01/09/2011 05:55 AM;366.596;0.000
01/09/2011 06:00 AM;366.596;0.000
01/09/2011 06:05 AM;366.596;0.000
01/09/2011 06:10 AM;366.596;0.000
01/09/2011 06:15 AM;366.596;0.000
01/09/2011 06:20 AM;366.596;0.000
01/09/2011 06:25 AM;366.596;0.000
01/09/2011 06:30 AM;366.596;0.000
01/09/2011 06:35 AM;366.596;0.000
01/09/2011 06:40 AM;366.596;0.000
01/09/2011 06:45 AM;366.596;0.000
01/09/2011 06:50 AM;366.596;0.000
01/09/2011 06:55 AM;366.597;0.012
01/09/2011 07:00 AM;366.600;0.036
01/09/2011 07:05 AM;366.604;0.048
01/09/2011 07:10 AM;366.609;0.060
01/09/2011 07:15 AM;366.617;0.096
01/09/2011 07:20 AM;366.629;0.144
01/09/2011 07:25 AM;366.646;0.204
01/09/2011 07:30 AM;366.672;0.312
01/09/2011 07:35 AM;366.702;0.360
01/09/2011 07:40 AM;366.737;0.420
01/09/2011 07:45 AM;366.776;0.468
01/09/2011 07:50 AM;366.820;0.528
01/09/2011 07:55 AM;366.868;0.576
01/09/2011 08:00 AM;366.921;0.636
01/09/2011 08:05 AM;366.979;0.696
01/09/2011 08:10 AM;367.042;0.756
01/09/2011 08:15 AM;367.109;0.804
01/09/2011 08:20 AM;367.182;0.876
01/09/2011 08:25 AM;367.259;0.924
01/09/2011 08:30 AM;367.341;0.984
01/09/2011 08:35 AM;367.427;1.032
01/09/2011 08:40 AM;367.517;1.080
01/09/2011 08:45 AM;367.611;1.128
01/09/2011 08:50 AM;367.709;1.176
01/09/2011 08:55 AM;367.810;1.212
01/09/2011 09:00 AM;367.915;1.260
01/09/2011 09:05 AM;368.023;1.296
01/09/2011 09:10 AM;368.135;1.344
01/09/2011 09:15 AM;368.249;1.368
01/09/2011 09:20 AM;368.367;1.416
01/09/2011 09:25 AM;368.489;1.464
01/09/2011 09:30 AM;368.615;1.512
01/09/2011 09:35 AM;368.744;1.548
01/09/2011 09:40 AM;368.876;1.584
01/09/2011 09:45 AM;369.011;1.620
01/09/2011 09:50 AM;369.151;1.680
01/09/2011 09:55 AM;369.295;1.728
01/09/2011 10:00 AM;369.441;1.752
01/09/2011 10:05 AM;369.590;1.788
01/09/2011 10:10 AM;369.740;1.800
01/09/2011 10:15 AM;369.892;1.824
01/09/2011 10:20 AM;370.043;1.812
01/09/2011 10:25 AM;370.201;1.896
01/09/2011 10:30 AM;370.362;1.932
01/09/2011 10:35 AM;370.531;2.028
01/09/2011 10:40 AM;370.663;1.584
01/09/2011 10:45 AM;370.764;1.212
01/09/2011 10:50 AM;370.942;2.136
01/09/2011 10:55 AM;371.128;2.232
01/09/2011 11:00 AM;371.281;1.836
01/09/2011 11:05 AM;371.435;1.848
01/09/2011 11:10 AM;371.611;2.112
01/09/2011 11:15 AM;371.777;1.992
01/09/2011 11:20 AM;371.930;1.836
01/09/2011 11:25 AM;372.070;1.680
01/09/2011 11:30 AM;372.252;2.184
01/09/2011 11:35 AM;372.390;1.656
01/09/2011 11:40 AM;372.594;2.448
01/09/2011 11:45 AM;372.787;2.316
01/09/2011 11:50 AM;372.976;2.268
01/09/2011 11:55 AM;373.166;2.280
01/09/2011 12:00 PM;373.357;2.292
01/09/2011 12:05 PM;373.549;2.304
01/09/2011 12:10 PM;373.742;2.316
01/09/2011 12:15 PM;373.937;2.340
01/09/2011 12:20 PM;374.131;2.328
01/09/2011 12:25 PM;374.324;2.316
01/09/2011 12:30 PM;374.519;2.340
01/09/2011 12:35 PM;374.713;2.328
01/09/2011 12:40 PM;374.906;2.316
01/09/2011 12:45 PM;375.100;2.328
01/09/2011 12:50 PM;375.293;2.316
01/09/2011 12:55 PM;375.486;2.316
01/09/2011 01:00 PM;375.678;2.304
01/09/2011 01:05 PM;375.869;2.292
01/09/2011 01:10 PM;376.060;2.292
01/09/2011 01:15 PM;376.250;2.280
01/09/2011 01:20 PM;376.440;2.280
01/09/2011 01:25 PM;376.630;2.280
01/09/2011 01:30 PM;376.820;2.280
01/09/2011 01:35 PM;377.009;2.268
01/09/2011 01:40 PM;377.181;2.064
01/09/2011 01:45 PM;377.311;1.560
01/09/2011 01:50 PM;377.504;2.316
01/09/2011 01:55 PM;377.693;2.268
01/09/2011 02:00 PM;377.874;2.172
01/09/2011 02:05 PM;378.052;2.136
01/09/2011 02:10 PM;378.229;2.124
01/09/2011 02:15 PM;378.405;2.112
01/09/2011 02:20 PM;378.582;2.124
01/09/2011 02:25 PM;378.752;2.040
01/09/2011 02:30 PM;378.922;2.040
01/09/2011 02:35 PM;379.058;1.632
01/09/2011 02:40 PM;379.216;1.896
01/09/2011 02:45 PM;379.368;1.824
01/09/2011 02:50 PM;379.486;1.416
01/09/2011 02:55 PM;379.535;0.588
01/09/2011 03:00 PM;379.646;1.332
01/09/2011 03:05 PM;379.736;1.080
01/09/2011 03:10 PM;379.799;0.756
01/09/2011 03:15 PM;379.848;0.588
01/09/2011 03:20 PM;379.891;0.516
01/09/2011 03:25 PM;379.922;0.372
01/09/2011 03:30 PM;379.961;0.468
01/09/2011 03:35 PM;380.025;0.768
01/09/2011 03:40 PM;380.115;1.080
01/09/2011 03:45 PM;380.162;0.564
01/09/2011 03:50 PM;380.197;0.420
01/09/2011 03:55 PM;380.239;0.504
01/09/2011 04:00 PM;380.272;0.396
01/09/2011 04:05 PM;380.303;0.372
01/09/2011 04:10 PM;380.336;0.396
01/09/2011 04:15 PM;380.356;0.240
01/09/2011 04:20 PM;380.374;0.216
01/09/2011 04:25 PM;380.388;0.168
01/09/2011 04:30 PM;380.401;0.156
01/09/2011 04:35 PM;380.416;0.180
01/09/2011 04:40 PM;380.436;0.240
01/09/2011 04:45 PM;380.444;0.096
01/09/2011 04:50 PM;380.451;0.084
01/09/2011 04:55 PM;380.453;0.024
01/09/2011 05:00 PM;380.454;0.012
01/09/2011 05:05 PM;380.463;0.108
01/09/2011 05:10 PM;380.468;0.060
01/09/2011 05:15 PM;380.471;0.036
01/09/2011 05:20 PM;380.471;0.000
01/09/2011 05:25 PM;380.471;0.000
01/09/2011 05:30 PM;380.472;0.012
01/09/2011 05:35 PM;380.474;0.024
01/09/2011 05:40 PM;380.474;0.000
01/09/2011 05:45 PM;380.474;0.000
01/09/2011 05:50 PM;380.474;0.000
01/09/2011 05:55 PM;380.474;0.000
01/09/2011 06:00 PM;380.474;0.000
01/09/2011 06:05 PM;380.474;0.000
01/09/2011 06:10 PM;380.474;0.000
01/09/2011 06:15 PM;380.474;0.000
01/09/2011 06:20 PM;380.474;0.000
01/09/2011 06:25 PM;380.474;0.000
01/09/2011 06:30 PM;380.474;0.000
01/09/2011 06:35 PM;380.474;0.000
01/09/2011 06:40 PM;380.474;0.000
01/09/2011 06:45 PM;380.474;0.000
01/09/2011 06:50 PM;380.474;0.000
01/09/2011 06:55 PM;380.474;0.000
01/09/2011 07:00 PM;380.474;0.000
01/09/2011 07:05 PM;380.474;0.000
01/09/2011 07:10 PM;380.474;0.000
01/09/2011 07:15 PM;380.474;0.000
01/09/2011 07:20 PM;380.474;0.000
01/09/2011 07:25 PM;380.474;0.000
01/09/2011 07:30 PM;380.474;0.000
01/09/2011 07:35 PM;380.474;0.000
01/09/2011 07:40 PM;380.474;0.000
01/09/2011 07:45 PM;380.474;0.000
01/09/2011 07:50 PM;380.474;0.000
01/09/2011 07:55 PM;380.474;0.000
01/09/2011 08:00 PM;380.474;0.000
01/09/2011 08:05 PM;380.474;0.000
01/09/2011 08:10 PM;380.474;0.000
01/09/2011 08:15 PM;380.474;0.000
01/09/2011 08:20 PM;380.474;0.000
01/09/2011 08:25 PM;380.474;0.000
01/09/2011 08:30 PM;380.474;0.000
01/09/2011 08:35 PM;380.474;0.000
01/09/2011 08:40 PM;380.474;0.000
01/09/2011 08:45 PM;380.474;0.000
01/09/2011 08:50 PM;380.474;0.000
01/09/2011 08:55 PM;380.474;0.000
01/09/2011 09:00 PM;380.474;0.000
01/09/2011 09:05 PM;380.474;0.000
01/09/2011 09:10 PM;380.474;0.000
01/09/2011 09:15 PM;380.474;0.000
01/09/2011 09:20 PM;380.474;0.000
01/09/2011 09:25 PM;380.474;0.000
01/09/2011 09:30 PM;380.474;0.000
01/09/2011 09:35 PM;380.474;0.000
01/09/2011 09:40 PM;380.474;0.000
01/09/2011 09:45 PM;380.474;0.000
01/09/2011 09:50 PM;380.474;0.000
01/09/2011 09:55 PM;380.474;0.000
01/09/2011 10:00 PM;380.474;0.000
01/09/2011 10:05 PM;380.474;0.000
01/09/2011 10:10 PM;380.474;0.000
01/09/2011 10:15 PM;380.474;0.000
01/09/2011 10:20 PM;380.474;0.000
01/09/2011 10:25 PM;380.474;0.000
01/09/2011 10:30 PM;380.474;0.000
01/09/2011 10:35 PM;380.474;0.000
01/09/2011 10:40 PM;380.474;0.000
01/09/2011 10:45 PM;380.474;0.000
01/09/2011 10:50 PM;380.474;0.000
01/09/2011 10:55 PM;380.474;0.000
01/09/2011 11:00 PM;380.474;0.000
01/09/2011 11:05 PM;380.474;0.000
01/09/2011 11:10 PM;380.474;0.000
01/09/2011 11:15 PM;380.474;0.000
01/09/2011 11:20 PM;380.474;0.000
01/09/2011 11:25 PM;380.474;0.000
01/09/2011 11:30 PM;380.474;0.000
01/09/2011 11:35 PM;380.474;0.000
01/09/2011 11:40 PM;380.474;0.000
01/09/2011 11:45 PM;380.474;0.000
01/09/2011 11:50 PM;380.474;0.000
01/09/2011 11:55 PM;380.474;0.000
