sep=;
Version CSV1|Tool SE|Linebreaks CR/LF|Delimiter semicolon|Decimalpoint dot|Precision 3

;SN: 2100448037;SN: 2100448037
;SB 3000TL-20;SB 3000TL-20
;2100448037;2100448037
;Total yield;Power
;Counter;Analog
dd/MM/yyyy hh:mm tt;kWh;kW
26/09/2011 12:00 AM;694.320;0.000
26/09/2011 12:05 AM;694.320;0.000
26/09/2011 12:10 AM;694.320;0.000
26/09/2011 12:15 AM;694.320;0.000
26/09/2011 12:20 AM;694.320;0.000
26/09/2011 12:25 AM;694.320;0.000
26/09/2011 12:30 AM;694.320;0.000
26/09/2011 12:35 AM;694.320;0.000
26/09/2011 12:40 AM;694.320;0.000
26/09/2011 12:45 AM;694.320;0.000
26/09/2011 12:50 AM;694.320;0.000
26/09/2011 12:55 AM;694.320;0.000
26/09/2011 01:00 AM;694.320;0.000
26/09/2011 01:05 AM;694.320;0.000
26/09/2011 01:10 AM;694.320;0.000
26/09/2011 01:15 AM;694.320;0.000
26/09/2011 01:20 AM;694.320;0.000
26/09/2011 01:25 AM;694.320;0.000
26/09/2011 01:30 AM;694.320;0.000
26/09/2011 01:35 AM;694.320;0.000
26/09/2011 01:40 AM;694.320;0.000
26/09/2011 01:45 AM;694.320;0.000
26/09/2011 01:50 AM;694.320;0.000
26/09/2011 01:55 AM;694.320;0.000
26/09/2011 02:00 AM;694.320;0.000
26/09/2011 02:05 AM;694.320;0.000
26/09/2011 02:10 AM;694.320;0.000
26/09/2011 02:15 AM;694.320;0.000
26/09/2011 02:20 AM;694.320;0.000
26/09/2011 02:25 AM;694.320;0.000
26/09/2011 02:30 AM;694.320;0.000
26/09/2011 02:35 AM;694.320;0.000
26/09/2011 02:40 AM;694.320;0.000
26/09/2011 02:45 AM;694.320;0.000
26/09/2011 02:50 AM;694.320;0.000
26/09/2011 02:55 AM;694.320;0.000
26/09/2011 03:00 AM;694.320;0.000
26/09/2011 03:05 AM;694.320;0.000
26/09/2011 03:10 AM;694.320;0.000
26/09/2011 03:15 AM;694.320;0.000
26/09/2011 03:20 AM;694.320;0.000
26/09/2011 03:25 AM;694.320;0.000
26/09/2011 03:30 AM;694.320;0.000
26/09/2011 03:35 AM;694.320;0.000
26/09/2011 03:40 AM;694.320;0.000
26/09/2011 03:45 AM;694.320;0.000
26/09/2011 03:50 AM;694.320;0.000
26/09/2011 03:55 AM;694.320;0.000
26/09/2011 04:00 AM;694.320;0.000
26/09/2011 04:05 AM;694.320;0.000
26/09/2011 04:10 AM;694.320;0.000
26/09/2011 04:15 AM;694.320;0.000
26/09/2011 04:20 AM;694.320;0.000
26/09/2011 04:25 AM;694.320;0.000
26/09/2011 04:30 AM;694.320;0.000
26/09/2011 04:35 AM;694.320;0.000
26/09/2011 04:40 AM;694.320;0.000
26/09/2011 04:45 AM;694.320;0.000
26/09/2011 04:50 AM;694.320;0.000
26/09/2011 04:55 AM;694.320;0.000
26/09/2011 05:00 AM;694.320;0.000
26/09/2011 05:05 AM;694.320;0.000
26/09/2011 05:10 AM;694.320;0.000
26/09/2011 05:15 AM;694.320;0.000
26/09/2011 05:20 AM;694.320;0.000
26/09/2011 05:25 AM;694.320;0.000
26/09/2011 05:30 AM;694.320;0.000
26/09/2011 05:35 AM;694.320;0.000
26/09/2011 05:40 AM;694.320;0.000
26/09/2011 05:45 AM;694.320;0.000
26/09/2011 05:50 AM;694.320;0.000
26/09/2011 05:55 AM;694.320;0.000
26/09/2011 06:00 AM;694.320;0.000
26/09/2011 06:05 AM;694.320;0.000
26/09/2011 06:10 AM;694.320;0.000
26/09/2011 06:15 AM;694.320;0.000
26/09/2011 06:20 AM;694.320;0.000
26/09/2011 06:25 AM;694.320;0.000
26/09/2011 06:30 AM;694.320;0.000
26/09/2011 06:35 AM;694.320;0.000
26/09/2011 06:40 AM;694.320;0.000
26/09/2011 06:45 AM;694.320;0.000
26/09/2011 06:50 AM;694.320;0.000
26/09/2011 06:55 AM;694.323;0.036
26/09/2011 07:00 AM;694.324;0.012
26/09/2011 07:05 AM;694.332;0.096
26/09/2011 07:10 AM;694.343;0.132
26/09/2011 07:15 AM;694.354;0.132
26/09/2011 07:20 AM;694.374;0.240
26/09/2011 07:25 AM;694.400;0.312
26/09/2011 07:30 AM;694.418;0.216
26/09/2011 07:35 AM;694.438;0.240
26/09/2011 07:40 AM;694.454;0.192
26/09/2011 07:45 AM;694.473;0.228
26/09/2011 07:50 AM;694.492;0.228
26/09/2011 07:55 AM;694.517;0.300
26/09/2011 08:00 AM;694.545;0.336
26/09/2011 08:05 AM;694.559;0.168
26/09/2011 08:10 AM;694.587;0.336
26/09/2011 08:15 AM;694.628;0.492
26/09/2011 08:20 AM;694.653;0.300
26/09/2011 08:25 AM;694.680;0.324
26/09/2011 08:30 AM;694.712;0.384
26/09/2011 08:35 AM;694.739;0.324
26/09/2011 08:40 AM;694.781;0.504
26/09/2011 08:45 AM;694.808;0.324
26/09/2011 08:50 AM;694.833;0.300
26/09/2011 08:55 AM;694.872;0.468
26/09/2011 09:00 AM;694.932;0.720
26/09/2011 09:05 AM;694.986;0.648
26/09/2011 09:10 AM;695.040;0.648
26/09/2011 09:15 AM;695.088;0.576
26/09/2011 09:20 AM;695.126;0.456
26/09/2011 09:25 AM;695.174;0.576
26/09/2011 09:30 AM;695.253;0.948
26/09/2011 09:35 AM;695.379;1.512
26/09/2011 09:40 AM;695.425;0.552
26/09/2011 09:45 AM;695.469;0.528
26/09/2011 09:50 AM;695.501;0.384
26/09/2011 09:55 AM;695.535;0.408
26/09/2011 10:00 AM;695.592;0.684
26/09/2011 10:05 AM;695.649;0.684
26/09/2011 10:10 AM;695.710;0.732
26/09/2011 10:15 AM;695.830;1.440
26/09/2011 10:20 AM;695.941;1.332
26/09/2011 10:25 AM;696.035;1.128
26/09/2011 10:30 AM;696.122;1.044
26/09/2011 10:35 AM;696.199;0.924
26/09/2011 10:40 AM;696.263;0.768
26/09/2011 10:45 AM;696.343;0.960
26/09/2011 10:50 AM;696.464;1.452
26/09/2011 10:55 AM;696.555;1.092
26/09/2011 11:00 AM;696.658;1.236
26/09/2011 11:05 AM;696.751;1.116
26/09/2011 11:10 AM;696.860;1.308
26/09/2011 11:15 AM;696.939;0.948
26/09/2011 11:20 AM;697.001;0.744
26/09/2011 11:25 AM;697.073;0.864
26/09/2011 11:30 AM;697.161;1.056
26/09/2011 11:35 AM;697.306;1.740
26/09/2011 11:40 AM;697.461;1.860
26/09/2011 11:45 AM;697.598;1.644
26/09/2011 11:50 AM;697.817;2.628
26/09/2011 11:55 AM;697.947;1.560
26/09/2011 12:00 PM;698.103;1.872
26/09/2011 12:05 PM;698.209;1.272
26/09/2011 12:10 PM;698.396;2.244
26/09/2011 12:15 PM;698.551;1.860
26/09/2011 12:20 PM;698.693;1.704
26/09/2011 12:25 PM;698.867;2.088
26/09/2011 12:30 PM;699.042;2.100
26/09/2011 12:35 PM;699.189;1.764
26/09/2011 12:40 PM;699.404;2.580
26/09/2011 12:45 PM;699.553;1.788
26/09/2011 12:50 PM;699.755;2.424
26/09/2011 12:55 PM;699.972;2.604
26/09/2011 01:00 PM;700.183;2.532
26/09/2011 01:05 PM;700.400;2.604
26/09/2011 01:10 PM;700.531;1.572
26/09/2011 01:15 PM;700.615;1.008
26/09/2011 01:20 PM;700.690;0.900
26/09/2011 01:25 PM;700.847;1.884
26/09/2011 01:30 PM;700.991;1.728
26/09/2011 01:35 PM;701.190;2.388
26/09/2011 01:40 PM;701.345;1.860
26/09/2011 01:45 PM;701.447;1.224
26/09/2011 01:50 PM;701.584;1.644
26/09/2011 01:55 PM;701.689;1.260
26/09/2011 02:00 PM;701.810;1.452
26/09/2011 02:05 PM;701.930;1.440
26/09/2011 02:10 PM;702.118;2.256
26/09/2011 02:15 PM;702.260;1.704
26/09/2011 02:20 PM;702.384;1.488
26/09/2011 02:25 PM;702.557;2.076
26/09/2011 02:30 PM;702.742;2.220
26/09/2011 02:35 PM;702.930;2.256
26/09/2011 02:40 PM;703.080;1.800
26/09/2011 02:45 PM;703.218;1.656
26/09/2011 02:50 PM;703.351;1.596
26/09/2011 02:55 PM;703.478;1.524
26/09/2011 03:00 PM;703.638;1.920
26/09/2011 03:05 PM;703.763;1.500
26/09/2011 03:10 PM;703.911;1.776
26/09/2011 03:15 PM;704.070;1.908
26/09/2011 03:20 PM;704.212;1.704
26/09/2011 03:25 PM;704.362;1.800
26/09/2011 03:30 PM;704.422;0.720
26/09/2011 03:35 PM;704.488;0.792
26/09/2011 03:40 PM;704.607;1.428
26/09/2011 03:45 PM;704.700;1.116
26/09/2011 03:50 PM;704.813;1.356
26/09/2011 03:55 PM;704.924;1.332
26/09/2011 04:00 PM;705.054;1.560
26/09/2011 04:05 PM;705.177;1.476
26/09/2011 04:10 PM;705.294;1.404
26/09/2011 04:15 PM;705.405;1.332
26/09/2011 04:20 PM;705.511;1.272
26/09/2011 04:25 PM;705.598;1.044
26/09/2011 04:30 PM;705.684;1.032
26/09/2011 04:35 PM;705.769;1.020
26/09/2011 04:40 PM;705.843;0.888
26/09/2011 04:45 PM;705.895;0.624
26/09/2011 04:50 PM;705.935;0.480
26/09/2011 04:55 PM;705.990;0.660
26/09/2011 05:00 PM;706.058;0.816
26/09/2011 05:05 PM;706.116;0.696
26/09/2011 05:10 PM;706.168;0.624
26/09/2011 05:15 PM;706.214;0.552
26/09/2011 05:20 PM;706.256;0.504
26/09/2011 05:25 PM;706.291;0.420
26/09/2011 05:30 PM;706.315;0.288
26/09/2011 05:35 PM;706.335;0.240
26/09/2011 05:40 PM;706.346;0.132
26/09/2011 05:45 PM;706.353;0.084
26/09/2011 05:50 PM;706.356;0.036
26/09/2011 05:55 PM;706.357;0.012
26/09/2011 06:00 PM;706.359;0.024
26/09/2011 06:05 PM;706.359;0.000
26/09/2011 06:10 PM;706.359;0.000
26/09/2011 06:15 PM;706.359;0.000
26/09/2011 06:20 PM;706.359;0.000
26/09/2011 06:25 PM;706.359;0.000
26/09/2011 06:30 PM;706.359;0.000
26/09/2011 06:35 PM;706.359;0.000
26/09/2011 06:40 PM;706.359;0.000
26/09/2011 06:45 PM;706.359;0.000
26/09/2011 06:50 PM;706.359;0.000
26/09/2011 06:55 PM;706.359;0.000
26/09/2011 07:00 PM;706.359;0.000
26/09/2011 07:05 PM;706.359;0.000
26/09/2011 07:10 PM;706.359;0.000
26/09/2011 07:15 PM;706.359;0.000
26/09/2011 07:20 PM;706.359;0.000
26/09/2011 07:25 PM;706.359;0.000
26/09/2011 07:30 PM;706.359;0.000
26/09/2011 07:35 PM;706.359;0.000
26/09/2011 07:40 PM;706.359;0.000
26/09/2011 07:45 PM;706.359;0.000
26/09/2011 07:50 PM;706.359;0.000
26/09/2011 07:55 PM;706.359;0.000
26/09/2011 08:00 PM;706.359;0.000
26/09/2011 08:05 PM;706.359;0.000
26/09/2011 08:10 PM;706.359;0.000
26/09/2011 08:15 PM;706.359;0.000
26/09/2011 08:20 PM;706.359;0.000
26/09/2011 08:25 PM;706.359;0.000
26/09/2011 08:30 PM;706.359;0.000
26/09/2011 08:35 PM;706.359;0.000
26/09/2011 08:40 PM;706.359;0.000
26/09/2011 08:45 PM;706.359;0.000
26/09/2011 08:50 PM;706.359;0.000
26/09/2011 08:55 PM;706.359;0.000
26/09/2011 09:00 PM;706.359;0.000
26/09/2011 09:05 PM;706.359;0.000
26/09/2011 09:10 PM;706.359;0.000
26/09/2011 09:15 PM;706.359;0.000
26/09/2011 09:20 PM;706.359;0.000
26/09/2011 09:25 PM;706.359;0.000
26/09/2011 09:30 PM;706.359;0.000
26/09/2011 09:35 PM;706.359;0.000
26/09/2011 09:40 PM;706.359;0.000
26/09/2011 09:45 PM;706.359;0.000
26/09/2011 09:50 PM;706.359;0.000
26/09/2011 09:55 PM;706.359;0.000
26/09/2011 10:00 PM;706.359;0.000
26/09/2011 10:05 PM;706.359;0.000
26/09/2011 10:10 PM;706.359;0.000
26/09/2011 10:15 PM;706.359;0.000
26/09/2011 10:20 PM;706.359;0.000
26/09/2011 10:25 PM;706.359;0.000
26/09/2011 10:30 PM;706.359;0.000
26/09/2011 10:35 PM;706.359;0.000
26/09/2011 10:40 PM;706.359;0.000
26/09/2011 10:45 PM;706.359;0.000
26/09/2011 10:50 PM;706.359;0.000
26/09/2011 10:55 PM;706.359;0.000
26/09/2011 11:00 PM;706.359;0.000
26/09/2011 11:05 PM;706.359;0.000
26/09/2011 11:10 PM;706.359;0.000
26/09/2011 11:15 PM;706.359;0.000
26/09/2011 11:20 PM;706.359;0.000
26/09/2011 11:25 PM;706.359;0.000
26/09/2011 11:30 PM;706.359;0.000
26/09/2011 11:35 PM;706.359;0.000
26/09/2011 11:40 PM;706.359;0.000
26/09/2011 11:45 PM;706.359;0.000
26/09/2011 11:50 PM;706.359;0.000
26/09/2011 11:55 PM;706.359;0.000
