sep=;
Version CSV1|Tool SE|Linebreaks CR/LF|Delimiter semicolon|Decimalpoint dot|Precision 3

;SN: 2100448037;SN: 2100448037
;SB 3000TL-20;SB 3000TL-20
;2100448037;2100448037
;Total yield;Power
;Counter;Analog
dd/MM/yyyy hh:mm tt;kWh;kW
02/08/2011 12:00 AM;0.929;0.000
02/08/2011 12:05 AM;0.929;0.000
02/08/2011 12:10 AM;0.929;0.000
02/08/2011 12:15 AM;0.929;0.000
02/08/2011 12:20 AM;0.929;0.000
02/08/2011 12:25 AM;0.929;0.000
02/08/2011 12:30 AM;0.929;0.000
02/08/2011 12:35 AM;0.929;0.000
02/08/2011 12:40 AM;0.929;0.000
02/08/2011 12:45 AM;0.929;0.000
02/08/2011 12:50 AM;0.929;0.000
02/08/2011 12:55 AM;0.929;0.000
02/08/2011 01:00 AM;0.929;0.000
02/08/2011 01:05 AM;0.929;0.000
02/08/2011 01:10 AM;0.929;0.000
02/08/2011 01:15 AM;0.929;0.000
02/08/2011 01:20 AM;0.929;0.000
02/08/2011 01:25 AM;0.929;0.000
02/08/2011 01:30 AM;0.929;0.000
02/08/2011 01:35 AM;0.929;0.000
02/08/2011 01:40 AM;0.929;0.000
02/08/2011 01:45 AM;0.929;0.000
02/08/2011 01:50 AM;0.929;0.000
02/08/2011 01:55 AM;0.929;0.000
02/08/2011 02:00 AM;0.929;0.000
02/08/2011 02:05 AM;0.929;0.000
02/08/2011 02:10 AM;0.929;0.000
02/08/2011 02:15 AM;0.929;0.000
02/08/2011 02:20 AM;0.929;0.000
02/08/2011 02:25 AM;0.929;0.000
02/08/2011 02:30 AM;0.929;0.000
02/08/2011 02:35 AM;0.929;0.000
02/08/2011 02:40 AM;0.929;0.000
02/08/2011 02:45 AM;0.929;0.000
02/08/2011 02:50 AM;0.929;0.000
02/08/2011 02:55 AM;0.929;0.000
02/08/2011 03:00 AM;0.929;0.000
02/08/2011 03:05 AM;0.929;0.000
02/08/2011 03:10 AM;0.929;0.000
02/08/2011 03:15 AM;0.929;0.000
02/08/2011 03:20 AM;0.929;0.000
02/08/2011 03:25 AM;0.929;0.000
02/08/2011 03:30 AM;0.929;0.000
02/08/2011 03:35 AM;0.929;0.000
02/08/2011 03:40 AM;0.929;0.000
02/08/2011 03:45 AM;0.929;0.000
02/08/2011 03:50 AM;0.929;0.000
02/08/2011 03:55 AM;0.929;0.000
02/08/2011 04:00 AM;0.929;0.000
02/08/2011 04:05 AM;0.929;0.000
02/08/2011 04:10 AM;0.929;0.000
02/08/2011 04:15 AM;0.929;0.000
02/08/2011 04:20 AM;0.929;0.000
02/08/2011 04:25 AM;0.929;0.000
02/08/2011 04:30 AM;0.929;0.000
02/08/2011 04:35 AM;0.929;0.000
02/08/2011 04:40 AM;0.929;0.000
02/08/2011 04:45 AM;0.929;0.000
02/08/2011 04:50 AM;0.929;0.000
02/08/2011 04:55 AM;0.929;0.000
02/08/2011 05:00 AM;0.929;0.000
02/08/2011 05:05 AM;0.929;0.000
02/08/2011 05:10 AM;0.929;0.000
02/08/2011 05:15 AM;0.929;0.000
02/08/2011 05:20 AM;0.929;0.000
02/08/2011 05:25 AM;0.929;0.000
02/08/2011 05:30 AM;0.929;0.000
02/08/2011 05:35 AM;0.929;0.000
02/08/2011 05:40 AM;0.929;0.000
02/08/2011 05:45 AM;0.929;0.000
02/08/2011 05:50 AM;0.929;0.000
02/08/2011 05:55 AM;0.929;0.000
02/08/2011 06:00 AM;0.929;0.000
02/08/2011 06:05 AM;0.929;0.000
02/08/2011 06:10 AM;0.929;0.000
02/08/2011 06:15 AM;0.929;0.000
02/08/2011 06:20 AM;0.929;0.000
02/08/2011 06:25 AM;0.929;0.000
02/08/2011 06:30 AM;0.929;0.000
02/08/2011 06:35 AM;0.929;0.000
02/08/2011 06:40 AM;0.929;0.000
02/08/2011 06:45 AM;0.929;0.000
02/08/2011 06:50 AM;0.929;0.000
02/08/2011 06:55 AM;0.929;0.000
02/08/2011 07:00 AM;0.929;0.000
02/08/2011 07:05 AM;0.929;0.000
02/08/2011 07:10 AM;0.929;0.000
02/08/2011 07:15 AM;0.929;0.000
02/08/2011 07:20 AM;0.929;0.000
02/08/2011 07:25 AM;0.929;0.000
02/08/2011 07:30 AM;0.929;0.000
02/08/2011 07:35 AM;0.932;0.036
02/08/2011 07:40 AM;0.933;0.012
02/08/2011 07:45 AM;0.933;0.000
02/08/2011 07:50 AM;0.934;0.012
02/08/2011 07:55 AM;0.935;0.012
02/08/2011 08:00 AM;0.936;0.012
02/08/2011 08:05 AM;0.938;0.024
02/08/2011 08:10 AM;0.947;0.108
02/08/2011 08:15 AM;0.965;0.216
02/08/2011 08:20 AM;0.976;0.132
02/08/2011 08:25 AM;0.991;0.180
02/08/2011 08:30 AM;1.007;0.192
02/08/2011 08:35 AM;1.024;0.204
02/08/2011 08:40 AM;1.040;0.192
02/08/2011 08:45 AM;1.060;0.240
02/08/2011 08:50 AM;1.109;0.588
02/08/2011 08:55 AM;1.195;1.032
02/08/2011 09:00 AM;1.259;0.768
02/08/2011 09:05 AM;1.332;0.876
02/08/2011 09:10 AM;1.429;1.164
02/08/2011 09:15 AM;1.479;0.600
02/08/2011 09:20 AM;1.521;0.504
02/08/2011 09:25 AM;1.598;0.924
02/08/2011 09:30 AM;1.636;0.456
02/08/2011 09:35 AM;1.672;0.432
02/08/2011 09:40 AM;1.739;0.804
02/08/2011 09:45 AM;1.822;0.996
02/08/2011 09:50 AM;1.863;0.492
02/08/2011 09:55 AM;1.955;1.104
02/08/2011 10:00 AM;2.014;0.708
02/08/2011 10:05 AM;2.048;0.408
02/08/2011 10:10 AM;2.167;1.428
02/08/2011 10:15 AM;2.305;1.656
02/08/2011 10:20 AM;2.450;1.740
02/08/2011 10:25 AM;2.594;1.728
02/08/2011 10:30 AM;2.733;1.668
02/08/2011 10:35 AM;2.892;1.908
02/08/2011 10:40 AM;2.987;1.140
02/08/2011 10:45 AM;3.026;0.468
02/08/2011 10:50 AM;3.070;0.528
02/08/2011 10:55 AM;3.214;1.728
02/08/2011 11:00 AM;3.340;1.512
02/08/2011 11:05 AM;3.434;1.128
02/08/2011 11:10 AM;3.583;1.788
02/08/2011 11:15 AM;3.649;0.792
02/08/2011 11:20 AM;3.758;1.308
02/08/2011 11:25 AM;3.889;1.572
02/08/2011 11:30 AM;4.018;1.548
02/08/2011 11:35 AM;4.116;1.176
02/08/2011 11:40 AM;4.209;1.116
02/08/2011 11:45 AM;4.241;0.384
02/08/2011 11:50 AM;4.393;1.824
02/08/2011 11:55 AM;4.577;2.208
02/08/2011 12:00 PM;4.646;0.828
02/08/2011 12:05 PM;4.699;0.636
02/08/2011 12:10 PM;4.767;0.816
02/08/2011 12:15 PM;4.816;0.588
02/08/2011 12:20 PM;4.869;0.636
02/08/2011 12:25 PM;4.939;0.840
02/08/2011 12:30 PM;5.068;1.548
02/08/2011 12:35 PM;5.268;2.400
02/08/2011 12:40 PM;5.371;1.236
02/08/2011 12:45 PM;5.492;1.452
02/08/2011 12:50 PM;5.675;2.196
02/08/2011 12:55 PM;5.846;2.052
02/08/2011 01:00 PM;6.029;2.196
02/08/2011 01:05 PM;6.221;2.304
02/08/2011 01:10 PM;6.334;1.356
02/08/2011 01:15 PM;6.426;1.104
02/08/2011 01:20 PM;6.524;1.176
02/08/2011 01:25 PM;6.579;0.660
02/08/2011 01:30 PM;6.687;1.296
02/08/2011 01:35 PM;6.810;1.476
02/08/2011 01:40 PM;6.894;1.008
02/08/2011 01:45 PM;6.942;0.576
02/08/2011 01:50 PM;6.972;0.360
02/08/2011 01:55 PM;7.004;0.384
02/08/2011 02:00 PM;7.018;0.168
02/08/2011 02:05 PM;7.137;1.428
02/08/2011 02:10 PM;7.225;1.056
02/08/2011 02:15 PM;7.255;0.360
02/08/2011 02:20 PM;7.287;0.384
02/08/2011 02:25 PM;7.380;1.116
02/08/2011 02:30 PM;7.513;1.596
02/08/2011 02:35 PM;7.575;0.744
02/08/2011 02:40 PM;7.689;1.368
02/08/2011 02:45 PM;7.751;0.744
02/08/2011 02:50 PM;7.830;0.948
02/08/2011 02:55 PM;7.904;0.888
02/08/2011 03:00 PM;7.941;0.444
02/08/2011 03:05 PM;7.956;0.180
02/08/2011 03:10 PM;7.971;0.180
02/08/2011 03:15 PM;7.979;0.096
02/08/2011 03:20 PM;7.987;0.096
02/08/2011 03:25 PM;7.998;0.132
02/08/2011 03:30 PM;8.019;0.252
02/08/2011 03:35 PM;8.044;0.300
02/08/2011 03:40 PM;8.115;0.852
02/08/2011 03:45 PM;8.140;0.300
02/08/2011 03:50 PM;8.166;0.312
02/08/2011 03:55 PM;8.175;0.108
02/08/2011 04:00 PM;8.180;0.060
02/08/2011 04:05 PM;8.185;0.060
02/08/2011 04:10 PM;8.197;0.144
02/08/2011 04:15 PM;8.210;0.156
02/08/2011 04:20 PM;8.219;0.108
02/08/2011 04:25 PM;8.236;0.204
02/08/2011 04:30 PM;8.252;0.192
02/08/2011 04:35 PM;8.260;0.096
02/08/2011 04:40 PM;8.269;0.108
02/08/2011 04:45 PM;8.274;0.060
02/08/2011 04:50 PM;8.276;0.024
02/08/2011 04:55 PM;8.277;0.012
02/08/2011 05:00 PM;8.278;0.012
02/08/2011 05:05 PM;8.278;0.000
02/08/2011 05:10 PM;8.278;0.000
02/08/2011 05:15 PM;8.278;0.000
02/08/2011 05:20 PM;8.278;0.000
02/08/2011 05:25 PM;8.278;0.000
02/08/2011 05:30 PM;8.279;0.012
02/08/2011 05:35 PM;8.279;0.000
02/08/2011 05:40 PM;8.279;0.000
02/08/2011 05:45 PM;8.279;0.000
02/08/2011 05:50 PM;8.279;0.000
02/08/2011 05:55 PM;8.279;0.000
02/08/2011 06:00 PM;8.279;0.000
02/08/2011 06:05 PM;8.279;0.000
02/08/2011 06:10 PM;8.279;0.000
02/08/2011 06:15 PM;8.279;0.000
02/08/2011 06:20 PM;8.279;0.000
02/08/2011 06:25 PM;8.279;0.000
02/08/2011 06:30 PM;8.279;0.000
02/08/2011 06:35 PM;8.279;0.000
02/08/2011 06:40 PM;8.279;0.000
02/08/2011 06:45 PM;8.279;0.000
02/08/2011 06:50 PM;8.279;0.000
02/08/2011 06:55 PM;8.279;0.000
02/08/2011 07:00 PM;8.279;0.000
02/08/2011 07:05 PM;8.279;0.000
02/08/2011 07:10 PM;8.279;0.000
02/08/2011 07:15 PM;8.279;0.000
02/08/2011 07:20 PM;8.279;0.000
02/08/2011 07:25 PM;8.279;0.000
02/08/2011 07:30 PM;8.279;0.000
02/08/2011 07:35 PM;8.279;0.000
02/08/2011 07:40 PM;8.279;0.000
02/08/2011 07:45 PM;8.279;0.000
02/08/2011 07:50 PM;8.279;0.000
02/08/2011 07:55 PM;8.279;0.000
02/08/2011 08:00 PM;8.279;0.000
02/08/2011 08:05 PM;8.279;0.000
02/08/2011 08:10 PM;8.279;0.000
02/08/2011 08:15 PM;8.279;0.000
02/08/2011 08:20 PM;8.279;0.000
02/08/2011 08:25 PM;8.279;0.000
02/08/2011 08:30 PM;8.279;0.000
02/08/2011 08:35 PM;8.279;0.000
02/08/2011 08:40 PM;8.279;0.000
02/08/2011 08:45 PM;8.279;0.000
02/08/2011 08:50 PM;8.279;0.000
02/08/2011 08:55 PM;8.279;0.000
02/08/2011 09:00 PM;8.279;0.000
02/08/2011 09:05 PM;8.279;0.000
02/08/2011 09:10 PM;8.279;0.000
02/08/2011 09:15 PM;8.279;0.000
02/08/2011 09:20 PM;8.279;0.000
02/08/2011 09:25 PM;8.279;0.000
02/08/2011 09:30 PM;8.279;0.000
02/08/2011 09:35 PM;8.279;0.000
02/08/2011 09:40 PM;8.279;0.000
02/08/2011 09:45 PM;8.279;0.000
02/08/2011 09:50 PM;8.279;0.000
02/08/2011 09:55 PM;8.279;0.000
02/08/2011 10:00 PM;8.279;0.000
02/08/2011 10:05 PM;8.279;0.000
02/08/2011 10:10 PM;8.279;0.000
02/08/2011 10:15 PM;8.279;0.000
02/08/2011 10:20 PM;8.279;0.000
02/08/2011 10:25 PM;8.279;0.000
02/08/2011 10:30 PM;8.279;0.000
02/08/2011 10:35 PM;8.279;0.000
02/08/2011 10:40 PM;8.279;0.000
02/08/2011 10:45 PM;8.279;0.000
02/08/2011 10:50 PM;8.279;0.000
02/08/2011 10:55 PM;8.279;0.000
02/08/2011 11:00 PM;8.279;0.000
02/08/2011 11:05 PM;8.279;0.000
02/08/2011 11:10 PM;8.279;0.000
02/08/2011 11:15 PM;8.279;0.000
02/08/2011 11:20 PM;8.279;0.000
02/08/2011 11:25 PM;8.279;0.000
02/08/2011 11:30 PM;8.279;0.000
02/08/2011 11:35 PM;8.279;0.000
02/08/2011 11:40 PM;8.279;0.000
02/08/2011 11:45 PM;8.279;0.000
02/08/2011 11:50 PM;8.279;0.000
02/08/2011 11:55 PM;8.279;0.000
