sep=;
Version CSV1|Tool SE|Linebreaks CR/LF|Delimiter semicolon|Decimalpoint dot|Precision 3

;SN: 2100448037;SN: 2100448037
;SB 3000TL-20;SB 3000TL-20
;2100448037;2100448037
;Total yield;Power
;Counter;Analog
dd/MM/yyyy hh:mm tt;kWh;kW
03/09/2011 12:00 AM;388.793;0.000
03/09/2011 12:05 AM;388.793;0.000
03/09/2011 12:10 AM;388.793;0.000
03/09/2011 12:15 AM;388.793;0.000
03/09/2011 12:20 AM;388.793;0.000
03/09/2011 12:25 AM;388.793;0.000
03/09/2011 12:30 AM;388.793;0.000
03/09/2011 12:35 AM;388.793;0.000
03/09/2011 12:40 AM;388.793;0.000
03/09/2011 12:45 AM;388.793;0.000
03/09/2011 12:50 AM;388.793;0.000
03/09/2011 12:55 AM;388.793;0.000
03/09/2011 01:00 AM;388.793;0.000
03/09/2011 01:05 AM;388.793;0.000
03/09/2011 01:10 AM;388.793;0.000
03/09/2011 01:15 AM;388.793;0.000
03/09/2011 01:20 AM;388.793;0.000
03/09/2011 01:25 AM;388.793;0.000
03/09/2011 01:30 AM;388.793;0.000
03/09/2011 01:35 AM;388.793;0.000
03/09/2011 01:40 AM;388.793;0.000
03/09/2011 01:45 AM;388.793;0.000
03/09/2011 01:50 AM;388.793;0.000
03/09/2011 01:55 AM;388.793;0.000
03/09/2011 02:00 AM;388.793;0.000
03/09/2011 02:05 AM;388.793;0.000
03/09/2011 02:10 AM;388.793;0.000
03/09/2011 02:15 AM;388.793;0.000
03/09/2011 02:20 AM;388.793;0.000
03/09/2011 02:25 AM;388.793;0.000
03/09/2011 02:30 AM;388.793;0.000
03/09/2011 02:35 AM;388.793;0.000
03/09/2011 02:40 AM;388.793;0.000
03/09/2011 02:45 AM;388.793;0.000
03/09/2011 02:50 AM;388.793;0.000
03/09/2011 02:55 AM;388.793;0.000
03/09/2011 03:00 AM;388.793;0.000
03/09/2011 03:05 AM;388.793;0.000
03/09/2011 03:10 AM;388.793;0.000
03/09/2011 03:15 AM;388.793;0.000
03/09/2011 03:20 AM;388.793;0.000
03/09/2011 03:25 AM;388.793;0.000
03/09/2011 03:30 AM;388.793;0.000
03/09/2011 03:35 AM;388.793;0.000
03/09/2011 03:40 AM;388.793;0.000
03/09/2011 03:45 AM;388.793;0.000
03/09/2011 03:50 AM;388.793;0.000
03/09/2011 03:55 AM;388.793;0.000
03/09/2011 04:00 AM;388.793;0.000
03/09/2011 04:05 AM;388.793;0.000
03/09/2011 04:10 AM;388.793;0.000
03/09/2011 04:15 AM;388.793;0.000
03/09/2011 04:20 AM;388.793;0.000
03/09/2011 04:25 AM;388.793;0.000
03/09/2011 04:30 AM;388.793;0.000
03/09/2011 04:35 AM;388.793;0.000
03/09/2011 04:40 AM;388.793;0.000
03/09/2011 04:45 AM;388.793;0.000
03/09/2011 04:50 AM;388.793;0.000
03/09/2011 04:55 AM;388.793;0.000
03/09/2011 05:00 AM;388.793;0.000
03/09/2011 05:05 AM;388.793;0.000
03/09/2011 05:10 AM;388.793;0.000
03/09/2011 05:15 AM;388.793;0.000
03/09/2011 05:20 AM;388.793;0.000
03/09/2011 05:25 AM;388.793;0.000
03/09/2011 05:30 AM;388.793;0.000
03/09/2011 05:35 AM;388.793;0.000
03/09/2011 05:40 AM;388.793;0.000
03/09/2011 05:45 AM;388.793;0.000
03/09/2011 05:50 AM;388.793;0.000
03/09/2011 05:55 AM;388.793;0.000
03/09/2011 06:00 AM;388.793;0.000
03/09/2011 06:05 AM;388.793;0.000
03/09/2011 06:10 AM;388.793;0.000
03/09/2011 06:15 AM;388.793;0.000
03/09/2011 06:20 AM;388.793;0.000
03/09/2011 06:25 AM;388.793;0.000
03/09/2011 06:30 AM;388.793;0.000
03/09/2011 06:35 AM;388.793;0.000
03/09/2011 06:40 AM;388.793;0.000
03/09/2011 06:45 AM;388.793;0.000
03/09/2011 06:50 AM;388.794;0.012
03/09/2011 06:55 AM;388.796;0.024
03/09/2011 07:00 AM;388.797;0.012
03/09/2011 07:05 AM;388.802;0.060
03/09/2011 07:10 AM;388.808;0.072
03/09/2011 07:15 AM;388.815;0.084
03/09/2011 07:20 AM;388.828;0.156
03/09/2011 07:25 AM;388.838;0.120
03/09/2011 07:30 AM;388.845;0.084
03/09/2011 07:35 AM;388.851;0.072
03/09/2011 07:40 AM;388.857;0.072
03/09/2011 07:45 AM;388.886;0.348
03/09/2011 07:50 AM;388.946;0.720
03/09/2011 07:55 AM;389.008;0.744
03/09/2011 08:00 AM;389.061;0.636
03/09/2011 08:05 AM;389.098;0.444
03/09/2011 08:10 AM;389.131;0.396
03/09/2011 08:15 AM;389.189;0.696
03/09/2011 08:20 AM;389.228;0.468
03/09/2011 08:25 AM;389.274;0.552
03/09/2011 08:30 AM;389.344;0.840
03/09/2011 08:35 AM;389.422;0.936
03/09/2011 08:40 AM;389.487;0.780
03/09/2011 08:45 AM;389.581;1.128
03/09/2011 08:50 AM;389.681;1.200
03/09/2011 08:55 AM;389.786;1.260
03/09/2011 09:00 AM;389.896;1.320
03/09/2011 09:05 AM;390.015;1.428
03/09/2011 09:10 AM;390.137;1.464
03/09/2011 09:15 AM;390.174;0.444
03/09/2011 09:20 AM;390.238;0.768
03/09/2011 09:25 AM;390.337;1.188
03/09/2011 09:30 AM;390.472;1.620
03/09/2011 09:35 AM;390.604;1.584
03/09/2011 09:40 AM;390.744;1.680
03/09/2011 09:45 AM;390.887;1.716
03/09/2011 09:50 AM;391.033;1.752
03/09/2011 09:55 AM;391.182;1.788
03/09/2011 10:00 AM;391.328;1.752
03/09/2011 10:05 AM;391.483;1.860
03/09/2011 10:10 AM;391.641;1.896
03/09/2011 10:15 AM;391.803;1.944
03/09/2011 10:20 AM;391.965;1.944
03/09/2011 10:25 AM;392.076;1.332
03/09/2011 10:30 AM;392.270;2.328
03/09/2011 10:35 AM;392.439;2.028
03/09/2011 10:40 AM;392.618;2.148
03/09/2011 10:45 AM;392.686;0.816
03/09/2011 10:50 AM;392.739;0.636
03/09/2011 10:55 AM;392.798;0.708
03/09/2011 11:00 AM;392.856;0.696
03/09/2011 11:05 AM;392.994;1.656
03/09/2011 11:10 AM;393.096;1.224
03/09/2011 11:15 AM;393.146;0.600
03/09/2011 11:20 AM;393.224;0.936
03/09/2011 11:25 AM;393.400;2.112
03/09/2011 11:30 AM;393.457;0.684
03/09/2011 11:35 AM;393.505;0.576
03/09/2011 11:40 AM;393.551;0.552
03/09/2011 11:45 AM;393.745;2.328
03/09/2011 11:50 AM;393.862;1.404
03/09/2011 11:55 AM;393.957;1.140
03/09/2011 12:00 PM;394.167;2.520
03/09/2011 12:05 PM;394.368;2.412
03/09/2011 12:10 PM;394.513;1.740
03/09/2011 12:15 PM;394.604;1.092
03/09/2011 12:20 PM;394.713;1.308
03/09/2011 12:25 PM;394.879;1.992
03/09/2011 12:30 PM;395.090;2.532
03/09/2011 12:35 PM;395.193;1.236
03/09/2011 12:40 PM;395.273;0.960
03/09/2011 12:45 PM;395.351;0.936
03/09/2011 12:50 PM;395.459;1.296
03/09/2011 12:55 PM;395.550;1.092
03/09/2011 01:00 PM;395.612;0.744
03/09/2011 01:05 PM;395.653;0.492
03/09/2011 01:10 PM;395.690;0.444
03/09/2011 01:15 PM;395.756;0.792
03/09/2011 01:20 PM;395.832;0.912
03/09/2011 01:25 PM;395.898;0.792
03/09/2011 01:30 PM;396.023;1.500
03/09/2011 01:35 PM;396.069;0.552
03/09/2011 01:40 PM;396.110;0.492
03/09/2011 01:45 PM;396.177;0.804
03/09/2011 01:50 PM;396.280;1.236
03/09/2011 01:55 PM;396.372;1.104
03/09/2011 02:00 PM;396.454;0.984
03/09/2011 02:05 PM;396.617;1.956
03/09/2011 02:10 PM;396.716;1.188
03/09/2011 02:15 PM;396.781;0.780
03/09/2011 02:20 PM;396.817;0.432
03/09/2011 02:25 PM;396.841;0.288
03/09/2011 02:30 PM;396.875;0.408
03/09/2011 02:35 PM;396.913;0.456
03/09/2011 02:40 PM;396.946;0.396
03/09/2011 02:45 PM;396.974;0.336
03/09/2011 02:50 PM;397.013;0.468
03/09/2011 02:55 PM;397.054;0.492
03/09/2011 03:00 PM;397.091;0.444
03/09/2011 03:05 PM;397.139;0.576
03/09/2011 03:10 PM;397.163;0.288
03/09/2011 03:15 PM;397.178;0.180
03/09/2011 03:20 PM;397.196;0.216
03/09/2011 03:25 PM;397.225;0.348
03/09/2011 03:30 PM;397.253;0.336
03/09/2011 03:35 PM;397.276;0.276
03/09/2011 03:40 PM;397.314;0.456
03/09/2011 03:45 PM;397.343;0.348
03/09/2011 03:50 PM;397.355;0.144
03/09/2011 03:55 PM;397.360;0.060
03/09/2011 04:00 PM;397.363;0.036
03/09/2011 04:05 PM;397.368;0.060
03/09/2011 04:10 PM;397.378;0.120
03/09/2011 04:15 PM;397.402;0.288
03/09/2011 04:20 PM;397.444;0.504
03/09/2011 04:25 PM;397.503;0.708
03/09/2011 04:30 PM;397.522;0.228
03/09/2011 04:35 PM;397.529;0.084
03/09/2011 04:40 PM;397.532;0.036
03/09/2011 04:45 PM;397.540;0.096
03/09/2011 04:50 PM;397.547;0.084
03/09/2011 04:55 PM;397.558;0.132
03/09/2011 05:00 PM;397.571;0.156
03/09/2011 05:05 PM;397.582;0.132
03/09/2011 05:10 PM;397.593;0.132
03/09/2011 05:15 PM;397.601;0.096
03/09/2011 05:20 PM;397.611;0.120
03/09/2011 05:25 PM;397.617;0.072
03/09/2011 05:30 PM;397.627;0.120
03/09/2011 05:35 PM;397.635;0.096
03/09/2011 05:40 PM;397.641;0.072
03/09/2011 05:45 PM;397.644;0.036
03/09/2011 05:50 PM;397.645;0.012
03/09/2011 05:55 PM;397.645;0.000
03/09/2011 06:00 PM;397.645;0.000
03/09/2011 06:05 PM;397.645;0.000
03/09/2011 06:10 PM;397.645;0.000
03/09/2011 06:15 PM;397.645;0.000
03/09/2011 06:20 PM;397.645;0.000
03/09/2011 06:25 PM;397.645;0.000
03/09/2011 06:30 PM;397.645;0.000
03/09/2011 06:35 PM;397.645;0.000
03/09/2011 06:40 PM;397.645;0.000
03/09/2011 06:45 PM;397.645;0.000
03/09/2011 06:50 PM;397.645;0.000
03/09/2011 06:55 PM;397.645;0.000
03/09/2011 07:00 PM;397.645;0.000
03/09/2011 07:05 PM;397.645;0.000
03/09/2011 07:10 PM;397.645;0.000
03/09/2011 07:15 PM;397.645;0.000
03/09/2011 07:20 PM;397.645;0.000
03/09/2011 07:25 PM;397.645;0.000
03/09/2011 07:30 PM;397.645;0.000
03/09/2011 07:35 PM;397.645;0.000
03/09/2011 07:40 PM;397.645;0.000
03/09/2011 07:45 PM;397.645;0.000
03/09/2011 07:50 PM;397.645;0.000
03/09/2011 07:55 PM;397.645;0.000
03/09/2011 08:00 PM;397.645;0.000
03/09/2011 08:05 PM;397.645;0.000
03/09/2011 08:10 PM;397.645;0.000
03/09/2011 08:15 PM;397.645;0.000
03/09/2011 08:20 PM;397.645;0.000
03/09/2011 08:25 PM;397.645;0.000
03/09/2011 08:30 PM;397.645;0.000
03/09/2011 08:35 PM;397.645;0.000
03/09/2011 08:40 PM;397.645;0.000
03/09/2011 08:45 PM;397.645;0.000
03/09/2011 08:50 PM;397.645;0.000
03/09/2011 08:55 PM;397.645;0.000
03/09/2011 09:00 PM;397.645;0.000
03/09/2011 09:05 PM;397.645;0.000
03/09/2011 09:10 PM;397.645;0.000
03/09/2011 09:15 PM;397.645;0.000
03/09/2011 09:20 PM;397.645;0.000
03/09/2011 09:25 PM;397.645;0.000
03/09/2011 09:30 PM;397.645;0.000
03/09/2011 09:35 PM;397.645;0.000
03/09/2011 09:40 PM;397.645;0.000
03/09/2011 09:45 PM;397.645;0.000
03/09/2011 09:50 PM;397.645;0.000
03/09/2011 09:55 PM;397.645;0.000
03/09/2011 10:00 PM;397.645;0.000
03/09/2011 10:05 PM;397.645;0.000
03/09/2011 10:10 PM;397.645;0.000
03/09/2011 10:15 PM;397.645;0.000
03/09/2011 10:20 PM;397.645;0.000
03/09/2011 10:25 PM;397.645;0.000
03/09/2011 10:30 PM;397.645;0.000
03/09/2011 10:35 PM;397.645;0.000
03/09/2011 10:40 PM;397.645;0.000
03/09/2011 10:45 PM;397.645;0.000
03/09/2011 10:50 PM;397.645;0.000
03/09/2011 10:55 PM;397.645;0.000
03/09/2011 11:00 PM;397.645;0.000
03/09/2011 11:05 PM;397.645;0.000
03/09/2011 11:10 PM;397.645;0.000
03/09/2011 11:15 PM;397.645;0.000
03/09/2011 11:20 PM;397.645;0.000
03/09/2011 11:25 PM;397.645;0.000
03/09/2011 11:30 PM;397.645;0.000
03/09/2011 11:35 PM;397.645;0.000
03/09/2011 11:40 PM;397.645;0.000
03/09/2011 11:45 PM;397.645;0.000
03/09/2011 11:50 PM;397.645;0.000
03/09/2011 11:55 PM;397.645;0.000
