sep=;
Version CSV1|Tool SE|Linebreaks CR/LF|Delimiter semicolon|Decimalpoint dot|Precision 3

;SN: 2100448037;SN: 2100448037
;SB 3000TL-20;SB 3000TL-20
;2100448037;2100448037
;Total yield;Power
;Counter;Analog
dd/MM/yyyy hh:mm tt;kWh;kW
10/08/2011 12:00 AM;87.065;0.000
10/08/2011 12:05 AM;87.065;0.000
10/08/2011 12:10 AM;87.065;0.000
10/08/2011 12:15 AM;87.065;0.000
10/08/2011 12:20 AM;87.065;0.000
10/08/2011 12:25 AM;87.065;0.000
10/08/2011 12:30 AM;87.065;0.000
10/08/2011 12:35 AM;87.065;0.000
10/08/2011 12:40 AM;87.065;0.000
10/08/2011 12:45 AM;87.065;0.000
10/08/2011 12:50 AM;87.065;0.000
10/08/2011 12:55 AM;87.065;0.000
10/08/2011 01:00 AM;87.065;0.000
10/08/2011 01:05 AM;87.065;0.000
10/08/2011 01:10 AM;87.065;0.000
10/08/2011 01:15 AM;87.065;0.000
10/08/2011 01:20 AM;87.065;0.000
10/08/2011 01:25 AM;87.065;0.000
10/08/2011 01:30 AM;87.065;0.000
10/08/2011 01:35 AM;87.065;0.000
10/08/2011 01:40 AM;87.065;0.000
10/08/2011 01:45 AM;87.065;0.000
10/08/2011 01:50 AM;87.065;0.000
10/08/2011 01:55 AM;87.065;0.000
10/08/2011 02:00 AM;87.065;0.000
10/08/2011 02:05 AM;87.065;0.000
10/08/2011 02:10 AM;87.065;0.000
10/08/2011 02:15 AM;87.065;0.000
10/08/2011 02:20 AM;87.065;0.000
10/08/2011 02:25 AM;87.065;0.000
10/08/2011 02:30 AM;87.065;0.000
10/08/2011 02:35 AM;87.065;0.000
10/08/2011 02:40 AM;87.065;0.000
10/08/2011 02:45 AM;87.065;0.000
10/08/2011 02:50 AM;87.065;0.000
10/08/2011 02:55 AM;87.065;0.000
10/08/2011 03:00 AM;87.065;0.000
10/08/2011 03:05 AM;87.065;0.000
10/08/2011 03:10 AM;87.065;0.000
10/08/2011 03:15 AM;87.065;0.000
10/08/2011 03:20 AM;87.065;0.000
10/08/2011 03:25 AM;87.065;0.000
10/08/2011 03:30 AM;87.065;0.000
10/08/2011 03:35 AM;87.065;0.000
10/08/2011 03:40 AM;87.065;0.000
10/08/2011 03:45 AM;87.065;0.000
10/08/2011 03:50 AM;87.065;0.000
10/08/2011 03:55 AM;87.065;0.000
10/08/2011 04:00 AM;87.065;0.000
10/08/2011 04:05 AM;87.065;0.000
10/08/2011 04:10 AM;87.065;0.000
10/08/2011 04:15 AM;87.065;0.000
10/08/2011 04:20 AM;87.065;0.000
10/08/2011 04:25 AM;87.065;0.000
10/08/2011 04:30 AM;87.065;0.000
10/08/2011 04:35 AM;87.065;0.000
10/08/2011 04:40 AM;87.065;0.000
10/08/2011 04:45 AM;87.065;0.000
10/08/2011 04:50 AM;87.065;0.000
10/08/2011 04:55 AM;87.065;0.000
10/08/2011 05:00 AM;87.065;0.000
10/08/2011 05:05 AM;87.065;0.000
10/08/2011 05:10 AM;87.065;0.000
10/08/2011 05:15 AM;87.065;0.000
10/08/2011 05:20 AM;87.065;0.000
10/08/2011 05:25 AM;87.065;0.000
10/08/2011 05:30 AM;87.065;0.000
10/08/2011 05:35 AM;87.065;0.000
10/08/2011 05:40 AM;87.065;0.000
10/08/2011 05:45 AM;87.065;0.000
10/08/2011 05:50 AM;87.065;0.000
10/08/2011 05:55 AM;87.065;0.000
10/08/2011 06:00 AM;87.065;0.000
10/08/2011 06:05 AM;87.065;0.000
10/08/2011 06:10 AM;87.065;0.000
10/08/2011 06:15 AM;87.065;0.000
10/08/2011 06:20 AM;87.065;0.000
10/08/2011 06:25 AM;87.065;0.000
10/08/2011 06:30 AM;87.065;0.000
10/08/2011 06:35 AM;87.065;0.000
10/08/2011 06:40 AM;87.065;0.000
10/08/2011 06:45 AM;87.065;0.000
10/08/2011 06:50 AM;87.065;0.000
10/08/2011 06:55 AM;87.065;0.000
10/08/2011 07:00 AM;87.065;0.000
10/08/2011 07:05 AM;87.065;0.000
10/08/2011 07:10 AM;87.065;0.000
10/08/2011 07:15 AM;87.065;0.000
10/08/2011 07:20 AM;87.066;0.012
10/08/2011 07:25 AM;87.069;0.036
10/08/2011 07:30 AM;87.073;0.048
10/08/2011 07:35 AM;87.081;0.096
10/08/2011 07:40 AM;87.096;0.180
10/08/2011 07:45 AM;87.119;0.276
10/08/2011 07:50 AM;87.148;0.348
10/08/2011 07:55 AM;87.181;0.396
10/08/2011 08:00 AM;87.218;0.444
10/08/2011 08:05 AM;87.261;0.516
10/08/2011 08:10 AM;87.308;0.564
10/08/2011 08:15 AM;87.360;0.624
10/08/2011 08:20 AM;87.416;0.672
10/08/2011 08:25 AM;87.477;0.732
10/08/2011 08:30 AM;87.543;0.792
10/08/2011 08:35 AM;87.614;0.852
10/08/2011 08:40 AM;87.688;0.888
10/08/2011 08:45 AM;87.767;0.948
10/08/2011 08:50 AM;87.850;0.996
10/08/2011 08:55 AM;87.937;1.044
10/08/2011 09:00 AM;88.028;1.092
10/08/2011 09:05 AM;88.123;1.140
10/08/2011 09:10 AM;88.222;1.188
10/08/2011 09:15 AM;88.324;1.224
10/08/2011 09:20 AM;88.430;1.272
10/08/2011 09:25 AM;88.539;1.308
10/08/2011 09:30 AM;88.652;1.356
10/08/2011 09:35 AM;88.768;1.392
10/08/2011 09:40 AM;88.887;1.428
10/08/2011 09:45 AM;89.010;1.476
10/08/2011 09:50 AM;89.135;1.500
10/08/2011 09:55 AM;89.264;1.548
10/08/2011 10:00 AM;89.395;1.572
10/08/2011 10:05 AM;89.529;1.608
10/08/2011 10:10 AM;89.666;1.644
10/08/2011 10:15 AM;89.806;1.680
10/08/2011 10:20 AM;89.948;1.704
10/08/2011 10:25 AM;90.093;1.740
10/08/2011 10:30 AM;90.240;1.764
10/08/2011 10:35 AM;90.390;1.800
10/08/2011 10:40 AM;90.541;1.812
10/08/2011 10:45 AM;90.695;1.848
10/08/2011 10:50 AM;90.850;1.860
10/08/2011 10:55 AM;91.008;1.896
10/08/2011 11:00 AM;91.167;1.908
10/08/2011 11:05 AM;91.328;1.932
10/08/2011 11:10 AM;91.490;1.944
10/08/2011 11:15 AM;91.655;1.980
10/08/2011 11:20 AM;91.821;1.992
10/08/2011 11:25 AM;91.988;2.004
10/08/2011 11:30 AM;92.156;2.016
10/08/2011 11:35 AM;92.325;2.028
10/08/2011 11:40 AM;92.495;2.040
10/08/2011 11:45 AM;92.666;2.052
10/08/2011 11:50 AM;92.837;2.052
10/08/2011 11:55 AM;93.010;2.076
10/08/2011 12:00 PM;93.185;2.100
10/08/2011 12:05 PM;93.342;1.884
10/08/2011 12:10 PM;93.519;2.124
10/08/2011 12:15 PM;93.694;2.100
10/08/2011 12:20 PM;93.870;2.112
10/08/2011 12:25 PM;94.046;2.112
10/08/2011 12:30 PM;94.222;2.112
10/08/2011 12:35 PM;94.396;2.088
10/08/2011 12:40 PM;94.571;2.100
10/08/2011 12:45 PM;94.749;2.136
10/08/2011 12:50 PM;94.927;2.136
10/08/2011 12:55 PM;95.105;2.136
10/08/2011 01:00 PM;95.283;2.136
10/08/2011 01:05 PM;95.461;2.136
10/08/2011 01:10 PM;95.638;2.124
10/08/2011 01:15 PM;95.814;2.112
10/08/2011 01:20 PM;95.990;2.112
10/08/2011 01:25 PM;96.156;1.992
10/08/2011 01:30 PM;96.333;2.124
10/08/2011 01:35 PM;96.510;2.124
10/08/2011 01:40 PM;96.585;0.900
10/08/2011 01:45 PM;96.696;1.332
10/08/2011 01:50 PM;96.856;1.920
10/08/2011 01:55 PM;97.033;2.124
10/08/2011 02:00 PM;97.210;2.124
10/08/2011 02:05 PM;97.381;2.052
10/08/2011 02:10 PM;97.549;2.016
10/08/2011 02:15 PM;97.717;2.016
10/08/2011 02:20 PM;97.883;1.992
10/08/2011 02:25 PM;98.049;1.992
10/08/2011 02:30 PM;98.209;1.920
10/08/2011 02:35 PM;98.369;1.920
10/08/2011 02:40 PM;98.526;1.884
10/08/2011 02:45 PM;98.594;0.816
10/08/2011 02:50 PM;98.653;0.708
10/08/2011 02:55 PM;98.807;1.848
10/08/2011 03:00 PM;98.951;1.728
10/08/2011 03:05 PM;99.043;1.104
10/08/2011 03:10 PM;99.066;0.276
10/08/2011 03:15 PM;99.165;1.188
10/08/2011 03:20 PM;99.300;1.620
10/08/2011 03:25 PM;99.430;1.560
10/08/2011 03:30 PM;99.555;1.500
10/08/2011 03:35 PM;99.676;1.452
10/08/2011 03:40 PM;99.794;1.416
10/08/2011 03:45 PM;99.906;1.344
10/08/2011 03:50 PM;100.014;1.296
10/08/2011 03:55 PM;100.116;1.224
10/08/2011 04:00 PM;100.212;1.152
10/08/2011 04:05 PM;100.304;1.104
10/08/2011 04:10 PM;100.391;1.044
10/08/2011 04:15 PM;100.474;0.996
10/08/2011 04:20 PM;100.552;0.936
10/08/2011 04:25 PM;100.625;0.876
10/08/2011 04:30 PM;100.694;0.828
10/08/2011 04:35 PM;100.757;0.756
10/08/2011 04:40 PM;100.814;0.684
10/08/2011 04:45 PM;100.867;0.636
10/08/2011 04:50 PM;100.915;0.576
10/08/2011 04:55 PM;100.957;0.504
10/08/2011 05:00 PM;100.994;0.444
10/08/2011 05:05 PM;101.024;0.360
10/08/2011 05:10 PM;101.049;0.300
10/08/2011 05:15 PM;101.068;0.228
10/08/2011 05:20 PM;101.079;0.132
10/08/2011 05:25 PM;101.087;0.096
10/08/2011 05:30 PM;101.092;0.060
10/08/2011 05:35 PM;101.093;0.012
10/08/2011 05:40 PM;101.093;0.000
10/08/2011 05:45 PM;101.093;0.000
10/08/2011 05:50 PM;101.093;0.000
10/08/2011 05:55 PM;101.093;0.000
10/08/2011 06:00 PM;101.093;0.000
10/08/2011 06:05 PM;101.093;0.000
10/08/2011 06:10 PM;101.093;0.000
10/08/2011 06:15 PM;101.093;0.000
10/08/2011 06:20 PM;101.093;0.000
10/08/2011 06:25 PM;101.093;0.000
10/08/2011 06:30 PM;101.093;0.000
10/08/2011 06:35 PM;101.093;0.000
10/08/2011 06:40 PM;101.093;0.000
10/08/2011 06:45 PM;101.093;0.000
10/08/2011 06:50 PM;101.093;0.000
10/08/2011 06:55 PM;101.093;0.000
10/08/2011 07:00 PM;101.093;0.000
10/08/2011 07:05 PM;101.093;0.000
10/08/2011 07:10 PM;101.093;0.000
10/08/2011 07:15 PM;101.093;0.000
10/08/2011 07:20 PM;101.093;0.000
10/08/2011 07:25 PM;101.093;0.000
10/08/2011 07:30 PM;101.093;0.000
10/08/2011 07:35 PM;101.093;0.000
10/08/2011 07:40 PM;101.093;0.000
10/08/2011 07:45 PM;101.093;0.000
10/08/2011 07:50 PM;101.093;0.000
10/08/2011 07:55 PM;101.093;0.000
10/08/2011 08:00 PM;101.093;0.000
10/08/2011 08:05 PM;101.093;0.000
10/08/2011 08:10 PM;101.093;0.000
10/08/2011 08:15 PM;101.093;0.000
10/08/2011 08:20 PM;101.093;0.000
10/08/2011 08:25 PM;101.093;0.000
10/08/2011 08:30 PM;101.093;0.000
10/08/2011 08:35 PM;101.093;0.000
10/08/2011 08:40 PM;101.093;0.000
10/08/2011 08:45 PM;101.093;0.000
10/08/2011 08:50 PM;101.093;0.000
10/08/2011 08:55 PM;101.093;0.000
10/08/2011 09:00 PM;101.093;0.000
10/08/2011 09:05 PM;101.093;0.000
10/08/2011 09:10 PM;101.093;0.000
10/08/2011 09:15 PM;101.093;0.000
10/08/2011 09:20 PM;101.093;0.000
10/08/2011 09:25 PM;101.093;0.000
10/08/2011 09:30 PM;101.093;0.000
10/08/2011 09:35 PM;101.093;0.000
10/08/2011 09:40 PM;101.093;0.000
10/08/2011 09:45 PM;101.093;0.000
10/08/2011 09:50 PM;101.093;0.000
10/08/2011 09:55 PM;101.093;0.000
10/08/2011 10:00 PM;101.093;0.000
10/08/2011 10:05 PM;101.093;0.000
10/08/2011 10:10 PM;101.093;0.000
10/08/2011 10:15 PM;101.093;0.000
10/08/2011 10:20 PM;101.093;0.000
10/08/2011 10:25 PM;101.093;0.000
10/08/2011 10:30 PM;101.093;0.000
10/08/2011 10:35 PM;101.093;0.000
10/08/2011 10:40 PM;101.093;0.000
10/08/2011 10:45 PM;101.093;0.000
10/08/2011 10:50 PM;101.093;0.000
10/08/2011 10:55 PM;101.093;0.000
10/08/2011 11:00 PM;101.093;0.000
10/08/2011 11:05 PM;101.093;0.000
10/08/2011 11:10 PM;101.093;0.000
10/08/2011 11:15 PM;101.093;0.000
10/08/2011 11:20 PM;101.093;0.000
10/08/2011 11:25 PM;101.093;0.000
10/08/2011 11:30 PM;101.093;0.000
10/08/2011 11:35 PM;101.093;0.000
10/08/2011 11:40 PM;101.093;0.000
10/08/2011 11:45 PM;101.093;0.000
10/08/2011 11:50 PM;101.093;0.000
10/08/2011 11:55 PM;101.093;0.000
