sep=;
Version CSV1|Tool SE|Linebreaks CR/LF|Delimiter semicolon|Decimalpoint dot|Precision 3

;SN: 2100448037;SN: 2100448037
;SB 3000TL-20;SB 3000TL-20
;2100448037;2100448037
;Total yield;Power
;Counter;Analog
dd/MM/yyyy hh:mm tt;kWh;kW
01/08/2011 02:45 PM;0.919
01/08/2011 02:50 PM;0.919;0.000
01/08/2011 02:55 PM;0.919;0.000
01/08/2011 03:00 PM;0.919;0.000
01/08/2011 03:05 PM;0.919;0.000
01/08/2011 03:10 PM;0.919;0.000
01/08/2011 03:15 PM;0.919;0.000
01/08/2011 03:20 PM;0.919;0.000
01/08/2011 03:25 PM;0.919;0.000
01/08/2011 03:30 PM;0.919;0.000
01/08/2011 03:35 PM;0.919;0.000
01/08/2011 03:40 PM;0.919;0.000
01/08/2011 03:45 PM;0.919;0.000
01/08/2011 03:50 PM;0.919;0.000
01/08/2011 03:55 PM;0.919;0.000
01/08/2011 04:00 PM;0.919;0.000
01/08/2011 04:05 PM;0.919;0.000
01/08/2011 04:10 PM;0.919;0.000
01/08/2011 04:15 PM;0.919;0.000
01/08/2011 04:20 PM;0.919;0.000
01/08/2011 04:25 PM;0.919;0.000
01/08/2011 04:30 PM;0.919;0.000
01/08/2011 04:35 PM;0.919;0.000
01/08/2011 04:40 PM;0.919;0.000
01/08/2011 04:45 PM;0.919;0.000
01/08/2011 04:50 PM;0.919;0.000
01/08/2011 04:55 PM;0.919;0.000
01/08/2011 05:00 PM;0.919;0.000
01/08/2011 05:05 PM;0.919;0.000
01/08/2011 05:10 PM;0.922;0.036
01/08/2011 05:15 PM;0.923;0.012
01/08/2011 05:20 PM;0.925;0.024
01/08/2011 05:25 PM;0.928;0.036
01/08/2011 05:30 PM;0.929;0.012
01/08/2011 05:35 PM;0.929;0.000
01/08/2011 05:40 PM;0.929;0.000
01/08/2011 05:45 PM;0.929;0.000
01/08/2011 05:50 PM;0.929;0.000
01/08/2011 05:55 PM;0.929;0.000
01/08/2011 06:00 PM;0.929;0.000
01/08/2011 06:05 PM;0.929;0.000
01/08/2011 06:10 PM;0.929;0.000
01/08/2011 06:15 PM;0.929;0.000
01/08/2011 06:20 PM;0.929;0.000
01/08/2011 06:25 PM;0.929;0.000
01/08/2011 06:30 PM;0.929;0.000
01/08/2011 06:35 PM;0.929;0.000
01/08/2011 06:40 PM;0.929;0.000
01/08/2011 06:45 PM;0.929;0.000
01/08/2011 06:50 PM;0.929;0.000
01/08/2011 06:55 PM;0.929;0.000
01/08/2011 07:00 PM;0.929;0.000
01/08/2011 07:05 PM;0.929;0.000
01/08/2011 07:10 PM;0.929;0.000
01/08/2011 07:15 PM;0.929;0.000
01/08/2011 07:20 PM;0.929;0.000
01/08/2011 07:25 PM;0.929;0.000
01/08/2011 07:30 PM;0.929;0.000
01/08/2011 07:35 PM;0.929;0.000
01/08/2011 07:40 PM;0.929;0.000
01/08/2011 07:45 PM;0.929;0.000
01/08/2011 07:50 PM;0.929;0.000
01/08/2011 07:55 PM;0.929;0.000
01/08/2011 08:00 PM;0.929;0.000
01/08/2011 08:05 PM;0.929;0.000
01/08/2011 08:10 PM;0.929;0.000
01/08/2011 08:15 PM;0.929;0.000
01/08/2011 08:20 PM;0.929;0.000
01/08/2011 08:25 PM;0.929;0.000
01/08/2011 08:30 PM;0.929;0.000
01/08/2011 08:35 PM;0.929;0.000
01/08/2011 08:40 PM;0.929;0.000
01/08/2011 08:45 PM;0.929;0.000
01/08/2011 08:50 PM;0.929;0.000
01/08/2011 08:55 PM;0.929;0.000
01/08/2011 09:00 PM;0.929;0.000
01/08/2011 09:05 PM;0.929;0.000
01/08/2011 09:10 PM;0.929;0.000
01/08/2011 09:15 PM;0.929;0.000
01/08/2011 09:20 PM;0.929;0.000
01/08/2011 09:25 PM;0.929;0.000
01/08/2011 09:30 PM;0.929;0.000
01/08/2011 09:35 PM;0.929;0.000
01/08/2011 09:40 PM;0.929;0.000
01/08/2011 09:45 PM;0.929;0.000
01/08/2011 09:50 PM;0.929;0.000
01/08/2011 09:55 PM;0.929;0.000
01/08/2011 10:00 PM;0.929;0.000
01/08/2011 10:05 PM;0.929;0.000
01/08/2011 10:10 PM;0.929;0.000
01/08/2011 10:15 PM;0.929;0.000
01/08/2011 10:20 PM;0.929;0.000
01/08/2011 10:25 PM;0.929;0.000
01/08/2011 10:30 PM;0.929;0.000
01/08/2011 10:35 PM;0.929;0.000
01/08/2011 10:40 PM;0.929;0.000
01/08/2011 10:45 PM;0.929;0.000
01/08/2011 10:50 PM;0.929;0.000
01/08/2011 10:55 PM;0.929;0.000
01/08/2011 11:00 PM;0.929;0.000
01/08/2011 11:05 PM;0.929;0.000
01/08/2011 11:10 PM;0.929;0.000
01/08/2011 11:15 PM;0.929;0.000
01/08/2011 11:20 PM;0.929;0.000
01/08/2011 11:25 PM;0.929;0.000
01/08/2011 11:30 PM;0.929;0.000
01/08/2011 11:35 PM;0.929;0.000
01/08/2011 11:40 PM;0.929;0.000
01/08/2011 11:45 PM;0.929;0.000
01/08/2011 11:50 PM;0.929;0.000
01/08/2011 11:55 PM;0.929;0.000
