sep=;
Version CSV1|Tool SE|Linebreaks CR/LF|Delimiter semicolon|Decimalpoint dot|Precision 3

;SN: 2100448037;SN: 2100448037
;SB 3000TL-20;SB 3000TL-20
;2100448037;2100448037
;Total yield;Power
;Counter;Analog
dd/MM/yyyy hh:mm tt;kWh;kW
07/08/2011 12:00 AM;59.878;0.000
07/08/2011 12:05 AM;59.878;0.000
07/08/2011 12:10 AM;59.878;0.000
07/08/2011 12:15 AM;59.878;0.000
07/08/2011 12:20 AM;59.878;0.000
07/08/2011 12:25 AM;59.878;0.000
07/08/2011 12:30 AM;59.878;0.000
07/08/2011 12:35 AM;59.878;0.000
07/08/2011 12:40 AM;59.878;0.000
07/08/2011 12:45 AM;59.878;0.000
07/08/2011 12:50 AM;59.878;0.000
07/08/2011 12:55 AM;59.878;0.000
07/08/2011 01:00 AM;59.878;0.000
07/08/2011 01:05 AM;59.878;0.000
07/08/2011 01:10 AM;59.878;0.000
07/08/2011 01:15 AM;59.878;0.000
07/08/2011 01:20 AM;59.878;0.000
07/08/2011 01:25 AM;59.878;0.000
07/08/2011 01:30 AM;59.878;0.000
07/08/2011 01:35 AM;59.878;0.000
07/08/2011 01:40 AM;59.878;0.000
07/08/2011 01:45 AM;59.878;0.000
07/08/2011 01:50 AM;59.878;0.000
07/08/2011 01:55 AM;59.878;0.000
07/08/2011 02:00 AM;59.878;0.000
07/08/2011 02:05 AM;59.878;0.000
07/08/2011 02:10 AM;59.878;0.000
07/08/2011 02:15 AM;59.878;0.000
07/08/2011 02:20 AM;59.878;0.000
07/08/2011 02:25 AM;59.878;0.000
07/08/2011 02:30 AM;59.878;0.000
07/08/2011 02:35 AM;59.878;0.000
07/08/2011 02:40 AM;59.878;0.000
07/08/2011 02:45 AM;59.878;0.000
07/08/2011 02:50 AM;59.878;0.000
07/08/2011 02:55 AM;59.878;0.000
07/08/2011 03:00 AM;59.878;0.000
07/08/2011 03:05 AM;59.878;0.000
07/08/2011 03:10 AM;59.878;0.000
07/08/2011 03:15 AM;59.878;0.000
07/08/2011 03:20 AM;59.878;0.000
07/08/2011 03:25 AM;59.878;0.000
07/08/2011 03:30 AM;59.878;0.000
07/08/2011 03:35 AM;59.878;0.000
07/08/2011 03:40 AM;59.878;0.000
07/08/2011 03:45 AM;59.878;0.000
07/08/2011 03:50 AM;59.878;0.000
07/08/2011 03:55 AM;59.878;0.000
07/08/2011 04:00 AM;59.878;0.000
07/08/2011 04:05 AM;59.878;0.000
07/08/2011 04:10 AM;59.878;0.000
07/08/2011 04:15 AM;59.878;0.000
07/08/2011 04:20 AM;59.878;0.000
07/08/2011 04:25 AM;59.878;0.000
07/08/2011 04:30 AM;59.878;0.000
07/08/2011 04:35 AM;59.878;0.000
07/08/2011 04:40 AM;59.878;0.000
07/08/2011 04:45 AM;59.878;0.000
07/08/2011 04:50 AM;59.878;0.000
07/08/2011 04:55 AM;59.878;0.000
07/08/2011 05:00 AM;59.878;0.000
07/08/2011 05:05 AM;59.878;0.000
07/08/2011 05:10 AM;59.878;0.000
07/08/2011 05:15 AM;59.878;0.000
07/08/2011 05:20 AM;59.878;0.000
07/08/2011 05:25 AM;59.878;0.000
07/08/2011 05:30 AM;59.878;0.000
07/08/2011 05:35 AM;59.878;0.000
07/08/2011 05:40 AM;59.878;0.000
07/08/2011 05:45 AM;59.878;0.000
07/08/2011 05:50 AM;59.878;0.000
07/08/2011 05:55 AM;59.878;0.000
07/08/2011 06:00 AM;59.878;0.000
07/08/2011 06:05 AM;59.878;0.000
07/08/2011 06:10 AM;59.878;0.000
07/08/2011 06:15 AM;59.878;0.000
07/08/2011 06:20 AM;59.878;0.000
07/08/2011 06:25 AM;59.878;0.000
07/08/2011 06:30 AM;59.878;0.000
07/08/2011 06:35 AM;59.878;0.000
07/08/2011 06:40 AM;59.878;0.000
07/08/2011 06:45 AM;59.878;0.000
07/08/2011 06:50 AM;59.878;0.000
07/08/2011 06:55 AM;59.878;0.000
07/08/2011 07:00 AM;59.878;0.000
07/08/2011 07:05 AM;59.878;0.000
07/08/2011 07:10 AM;59.878;0.000
07/08/2011 07:15 AM;59.878;0.000
07/08/2011 07:20 AM;59.878;0.000
07/08/2011 07:25 AM;59.878;0.000
07/08/2011 07:30 AM;59.880;0.024
07/08/2011 07:35 AM;59.885;0.060
07/08/2011 07:40 AM;59.897;0.144
07/08/2011 07:45 AM;59.912;0.180
07/08/2011 07:50 AM;59.937;0.300
07/08/2011 07:55 AM;59.965;0.336
07/08/2011 08:00 AM;59.996;0.372
07/08/2011 08:05 AM;60.033;0.444
07/08/2011 08:10 AM;60.072;0.468
07/08/2011 08:15 AM;60.116;0.528
07/08/2011 08:20 AM;60.167;0.612
07/08/2011 08:25 AM;60.221;0.648
07/08/2011 08:30 AM;60.281;0.720
07/08/2011 08:35 AM;60.348;0.804
07/08/2011 08:40 AM;60.423;0.900
07/08/2011 08:45 AM;60.470;0.564
07/08/2011 08:50 AM;60.551;0.972
07/08/2011 08:55 AM;60.639;1.056
07/08/2011 09:00 AM;60.727;1.056
07/08/2011 09:05 AM;60.821;1.128
07/08/2011 09:10 AM;60.914;1.116
07/08/2011 09:15 AM;61.047;1.596
07/08/2011 09:20 AM;61.171;1.488
07/08/2011 09:25 AM;61.301;1.560
07/08/2011 09:30 AM;61.413;1.344
07/08/2011 09:35 AM;61.470;0.684
07/08/2011 09:40 AM;61.546;0.912
07/08/2011 09:45 AM;61.652;1.272
07/08/2011 09:50 AM;61.700;0.576
07/08/2011 09:55 AM;61.739;0.468
07/08/2011 10:00 AM;61.796;0.684
07/08/2011 10:05 AM;61.858;0.744
07/08/2011 10:10 AM;62.002;1.728
07/08/2011 10:15 AM;62.114;1.344
07/08/2011 10:20 AM;62.179;0.780
07/08/2011 10:25 AM;62.242;0.756
07/08/2011 10:30 AM;62.301;0.708
07/08/2011 10:35 AM;62.411;1.320
07/08/2011 10:40 AM;62.519;1.296
07/08/2011 10:45 AM;62.653;1.608
07/08/2011 10:50 AM;62.723;0.840
07/08/2011 10:55 AM;62.768;0.540
07/08/2011 11:00 AM;62.804;0.432
07/08/2011 11:05 AM;62.834;0.360
07/08/2011 11:10 AM;62.908;0.888
07/08/2011 11:15 AM;63.047;1.668
07/08/2011 11:20 AM;63.219;2.064
07/08/2011 11:25 AM;63.391;2.064
07/08/2011 11:30 AM;63.451;0.720
07/08/2011 11:35 AM;63.534;0.996
07/08/2011 11:40 AM;63.627;1.116
07/08/2011 11:45 AM;63.742;1.380
07/08/2011 11:50 AM;63.922;2.160
07/08/2011 11:55 AM;64.100;2.136
07/08/2011 12:00 PM;64.278;2.136
07/08/2011 12:05 PM;64.446;2.016
07/08/2011 12:10 PM;64.576;1.560
07/08/2011 12:15 PM;64.723;1.764
07/08/2011 12:20 PM;64.875;1.824
07/08/2011 12:25 PM;65.034;1.908
07/08/2011 12:30 PM;65.169;1.620
07/08/2011 12:35 PM;65.349;2.160
07/08/2011 12:40 PM;65.450;1.212
07/08/2011 12:45 PM;65.642;2.304
07/08/2011 12:50 PM;65.773;1.572
07/08/2011 12:55 PM;65.909;1.632
07/08/2011 01:00 PM;66.048;1.668
07/08/2011 01:05 PM;66.228;2.160
07/08/2011 01:10 PM;66.405;2.124
07/08/2011 01:15 PM;66.586;2.172
07/08/2011 01:20 PM;66.739;1.836
07/08/2011 01:25 PM;66.860;1.452
07/08/2011 01:30 PM;67.016;1.872
07/08/2011 01:35 PM;67.171;1.860
07/08/2011 01:40 PM;67.342;2.052
07/08/2011 01:45 PM;67.511;2.028
07/08/2011 01:50 PM;67.678;2.004
07/08/2011 01:55 PM;67.845;2.004
07/08/2011 02:00 PM;68.010;1.980
07/08/2011 02:05 PM;68.174;1.968
07/08/2011 02:10 PM;68.337;1.956
07/08/2011 02:15 PM;68.501;1.968
07/08/2011 02:20 PM;68.662;1.932
07/08/2011 02:25 PM;68.822;1.920
07/08/2011 02:30 PM;68.980;1.896
07/08/2011 02:35 PM;69.137;1.884
07/08/2011 02:40 PM;69.291;1.848
07/08/2011 02:45 PM;69.443;1.824
07/08/2011 02:50 PM;69.591;1.776
07/08/2011 02:55 PM;69.737;1.752
07/08/2011 03:00 PM;69.881;1.728
07/08/2011 03:05 PM;70.021;1.680
07/08/2011 03:10 PM;70.160;1.668
07/08/2011 03:15 PM;70.294;1.608
07/08/2011 03:20 PM;70.426;1.584
07/08/2011 03:25 PM;70.555;1.548
07/08/2011 03:30 PM;70.679;1.488
07/08/2011 03:35 PM;70.800;1.452
07/08/2011 03:40 PM;70.918;1.416
07/08/2011 03:45 PM;71.034;1.392
07/08/2011 03:50 PM;71.145;1.332
07/08/2011 03:55 PM;71.252;1.284
07/08/2011 04:00 PM;71.356;1.248
07/08/2011 04:05 PM;71.417;0.732
07/08/2011 04:10 PM;71.473;0.672
07/08/2011 04:15 PM;71.512;0.468
07/08/2011 04:20 PM;71.549;0.444
07/08/2011 04:25 PM;71.593;0.528
07/08/2011 04:30 PM;71.646;0.636
07/08/2011 04:35 PM;71.693;0.564
07/08/2011 04:40 PM;71.726;0.396
07/08/2011 04:45 PM;71.748;0.264
07/08/2011 04:50 PM;71.766;0.216
07/08/2011 04:55 PM;71.800;0.408
07/08/2011 05:00 PM;71.840;0.480
07/08/2011 05:05 PM;71.873;0.396
07/08/2011 05:10 PM;71.900;0.324
07/08/2011 05:15 PM;71.917;0.204
07/08/2011 05:20 PM;71.923;0.072
07/08/2011 05:25 PM;71.923;0.000
07/08/2011 05:30 PM;71.923;0.000
07/08/2011 05:35 PM;71.923;0.000
07/08/2011 05:40 PM;71.923;0.000
07/08/2011 05:45 PM;71.923;0.000
07/08/2011 05:50 PM;71.923;0.000
07/08/2011 05:55 PM;71.923;0.000
07/08/2011 06:00 PM;71.923;0.000
07/08/2011 06:05 PM;71.923;0.000
07/08/2011 06:10 PM;71.923;0.000
07/08/2011 06:15 PM;71.923;0.000
07/08/2011 06:20 PM;71.923;0.000
07/08/2011 06:25 PM;71.923;0.000
07/08/2011 06:30 PM;71.923;0.000
07/08/2011 06:35 PM;71.923;0.000
07/08/2011 06:40 PM;71.923;0.000
07/08/2011 06:45 PM;71.923;0.000
07/08/2011 06:50 PM;71.923;0.000
07/08/2011 06:55 PM;71.923;0.000
07/08/2011 07:00 PM;71.923;0.000
07/08/2011 07:05 PM;71.923;0.000
07/08/2011 07:10 PM;71.923;0.000
07/08/2011 07:15 PM;71.923;0.000
07/08/2011 07:20 PM;71.923;0.000
07/08/2011 07:25 PM;71.923;0.000
07/08/2011 07:30 PM;71.923;0.000
07/08/2011 07:35 PM;71.923;0.000
07/08/2011 07:40 PM;71.923;0.000
07/08/2011 07:45 PM;71.923;0.000
07/08/2011 07:50 PM;71.923;0.000
07/08/2011 07:55 PM;71.923;0.000
07/08/2011 08:00 PM;71.923;0.000
07/08/2011 08:05 PM;71.923;0.000
07/08/2011 08:10 PM;71.923;0.000
07/08/2011 08:15 PM;71.923;0.000
07/08/2011 08:20 PM;71.923;0.000
07/08/2011 08:25 PM;71.923;0.000
07/08/2011 08:30 PM;71.923;0.000
07/08/2011 08:35 PM;71.923;0.000
07/08/2011 08:40 PM;71.923;0.000
07/08/2011 08:45 PM;71.923;0.000
07/08/2011 08:50 PM;71.923;0.000
07/08/2011 08:55 PM;71.923;0.000
07/08/2011 09:00 PM;71.923;0.000
07/08/2011 09:05 PM;71.923;0.000
07/08/2011 09:10 PM;71.923;0.000
07/08/2011 09:15 PM;71.923;0.000
07/08/2011 09:20 PM;71.923;0.000
07/08/2011 09:25 PM;71.923;0.000
07/08/2011 09:30 PM;71.923;0.000
07/08/2011 09:35 PM;71.923;0.000
07/08/2011 09:40 PM;71.923;0.000
07/08/2011 09:45 PM;71.923;0.000
07/08/2011 09:50 PM;71.923;0.000
07/08/2011 09:55 PM;71.923;0.000
07/08/2011 10:00 PM;71.923;0.000
07/08/2011 10:05 PM;71.923;0.000
07/08/2011 10:10 PM;71.923;0.000
07/08/2011 10:15 PM;71.923;0.000
07/08/2011 10:20 PM;71.923;0.000
07/08/2011 10:25 PM;71.923;0.000
07/08/2011 10:30 PM;71.923;0.000
07/08/2011 10:35 PM;71.923;0.000
07/08/2011 10:40 PM;71.923;0.000
07/08/2011 10:45 PM;71.923;0.000
07/08/2011 10:50 PM;71.923;0.000
07/08/2011 10:55 PM;71.923;0.000
07/08/2011 11:00 PM;71.923;0.000
07/08/2011 11:05 PM;71.923;0.000
07/08/2011 11:10 PM;71.923;0.000
07/08/2011 11:15 PM;71.923;0.000
07/08/2011 11:20 PM;71.923;0.000
07/08/2011 11:25 PM;71.923;0.000
07/08/2011 11:30 PM;71.923;0.000
07/08/2011 11:35 PM;71.923;0.000
07/08/2011 11:40 PM;71.923;0.000
07/08/2011 11:45 PM;71.923;0.000
07/08/2011 11:50 PM;71.923;0.000
07/08/2011 11:55 PM;71.923;0.000
