sep=;
Version CSV1|Tool SE|Linebreaks CR/LF|Delimiter semicolon|Decimalpoint dot|Precision 3

;SN: 2100448037;SN: 2100448037
;SB 3000TL-20;SB 3000TL-20
;2100448037;2100448037
;Total yield;Power
;Counter;Analog
dd/MM/yyyy hh:mm tt;kWh;kW
28/09/2011 12:00 AM;717.878;0.000
28/09/2011 12:05 AM;717.878;0.000
28/09/2011 12:10 AM;717.878;0.000
28/09/2011 12:15 AM;717.878;0.000
28/09/2011 12:20 AM;717.878;0.000
28/09/2011 12:25 AM;717.878;0.000
28/09/2011 12:30 AM;717.878;0.000
28/09/2011 12:35 AM;717.878;0.000
28/09/2011 12:40 AM;717.878;0.000
28/09/2011 12:45 AM;717.878;0.000
28/09/2011 12:50 AM;717.878;0.000
28/09/2011 12:55 AM;717.878;0.000
28/09/2011 01:00 AM;717.878;0.000
28/09/2011 01:05 AM;717.878;0.000
28/09/2011 01:10 AM;717.878;0.000
28/09/2011 01:15 AM;717.878;0.000
28/09/2011 01:20 AM;717.878;0.000
28/09/2011 01:25 AM;717.878;0.000
28/09/2011 01:30 AM;717.878;0.000
28/09/2011 01:35 AM;717.878;0.000
28/09/2011 01:40 AM;717.878;0.000
28/09/2011 01:45 AM;717.878;0.000
28/09/2011 01:50 AM;717.878;0.000
28/09/2011 01:55 AM;717.878;0.000
28/09/2011 02:00 AM;717.878;0.000
28/09/2011 02:05 AM;717.878;0.000
28/09/2011 02:10 AM;717.878;0.000
28/09/2011 02:15 AM;717.878;0.000
28/09/2011 02:20 AM;717.878;0.000
28/09/2011 02:25 AM;717.878;0.000
28/09/2011 02:30 AM;717.878;0.000
28/09/2011 02:35 AM;717.878;0.000
28/09/2011 02:40 AM;717.878;0.000
28/09/2011 02:45 AM;717.878;0.000
28/09/2011 02:50 AM;717.878;0.000
28/09/2011 02:55 AM;717.878;0.000
28/09/2011 03:00 AM;717.878;0.000
28/09/2011 03:05 AM;717.878;0.000
28/09/2011 03:10 AM;717.878;0.000
28/09/2011 03:15 AM;717.878;0.000
28/09/2011 03:20 AM;717.878;0.000
28/09/2011 03:25 AM;717.878;0.000
28/09/2011 03:30 AM;717.878;0.000
28/09/2011 03:35 AM;717.878;0.000
28/09/2011 03:40 AM;717.878;0.000
28/09/2011 03:45 AM;717.878;0.000
28/09/2011 03:50 AM;717.878;0.000
28/09/2011 03:55 AM;717.878;0.000
28/09/2011 04:00 AM;717.878;0.000
28/09/2011 04:05 AM;717.878;0.000
28/09/2011 04:10 AM;717.878;0.000
28/09/2011 04:15 AM;717.878;0.000
28/09/2011 04:20 AM;717.878;0.000
28/09/2011 04:25 AM;717.878;0.000
28/09/2011 04:30 AM;717.878;0.000
28/09/2011 04:35 AM;717.878;0.000
28/09/2011 04:40 AM;717.878;0.000
28/09/2011 04:45 AM;717.878;0.000
28/09/2011 04:50 AM;717.878;0.000
28/09/2011 04:55 AM;717.878;0.000
28/09/2011 05:00 AM;717.878;0.000
28/09/2011 05:05 AM;717.878;0.000
28/09/2011 05:10 AM;717.878;0.000
28/09/2011 05:15 AM;717.878;0.000
28/09/2011 05:20 AM;717.878;0.000
28/09/2011 05:25 AM;717.878;0.000
28/09/2011 05:30 AM;717.878;0.000
28/09/2011 05:35 AM;717.878;0.000
28/09/2011 05:40 AM;717.878;0.000
28/09/2011 05:45 AM;717.878;0.000
28/09/2011 05:50 AM;717.878;0.000
28/09/2011 05:55 AM;717.878;0.000
28/09/2011 06:00 AM;717.878;0.000
28/09/2011 06:05 AM;717.878;0.000
28/09/2011 06:10 AM;717.878;0.000
28/09/2011 06:15 AM;717.878;0.000
28/09/2011 06:20 AM;717.881;0.036
28/09/2011 06:25 AM;717.884;0.036
28/09/2011 06:30 AM;717.888;0.048
28/09/2011 06:35 AM;717.893;0.060
28/09/2011 06:40 AM;717.902;0.108
28/09/2011 06:45 AM;717.913;0.132
28/09/2011 06:50 AM;717.927;0.168
28/09/2011 06:55 AM;717.944;0.204
28/09/2011 07:00 AM;717.975;0.372
28/09/2011 07:05 AM;718.006;0.372
28/09/2011 07:10 AM;718.040;0.408
28/09/2011 07:15 AM;718.081;0.492
28/09/2011 07:20 AM;718.126;0.540
28/09/2011 07:25 AM;718.149;0.276
28/09/2011 07:30 AM;718.174;0.300
28/09/2011 07:35 AM;718.206;0.384
28/09/2011 07:40 AM;718.237;0.372
28/09/2011 07:45 AM;718.268;0.372
28/09/2011 07:50 AM;718.303;0.420
28/09/2011 07:55 AM;718.354;0.612
28/09/2011 08:00 AM;718.426;0.864
28/09/2011 08:05 AM;718.487;0.732
28/09/2011 08:10 AM;718.550;0.756
28/09/2011 08:15 AM;718.638;1.056
28/09/2011 08:20 AM;718.740;1.224
28/09/2011 08:25 AM;718.845;1.260
28/09/2011 08:30 AM;718.953;1.296
28/09/2011 08:35 AM;719.066;1.356
28/09/2011 08:40 AM;719.183;1.404
28/09/2011 08:45 AM;719.304;1.452
28/09/2011 08:50 AM;719.429;1.500
28/09/2011 08:55 AM;719.556;1.524
28/09/2011 09:00 AM;719.688;1.584
28/09/2011 09:05 AM;719.822;1.608
28/09/2011 09:10 AM;719.961;1.668
28/09/2011 09:15 AM;720.103;1.704
28/09/2011 09:20 AM;720.248;1.740
28/09/2011 09:25 AM;720.395;1.764
28/09/2011 09:30 AM;720.547;1.824
28/09/2011 09:35 AM;720.702;1.860
28/09/2011 09:40 AM;720.862;1.920
28/09/2011 09:45 AM;721.023;1.932
28/09/2011 09:50 AM;721.178;1.860
28/09/2011 09:55 AM;721.314;1.632
28/09/2011 10:00 AM;721.471;1.884
28/09/2011 10:05 AM;721.627;1.872
28/09/2011 10:10 AM;721.811;2.208
28/09/2011 10:15 AM;721.980;2.028
28/09/2011 10:20 AM;722.150;2.040
28/09/2011 10:25 AM;722.326;2.112
28/09/2011 10:30 AM;722.518;2.304
28/09/2011 10:35 AM;722.672;1.848
28/09/2011 10:40 AM;722.832;1.920
28/09/2011 10:45 AM;722.999;2.004
28/09/2011 10:50 AM;723.168;2.028
28/09/2011 10:55 AM;723.343;2.100
28/09/2011 11:00 AM;723.556;2.556
28/09/2011 11:05 AM;723.748;2.304
28/09/2011 11:10 AM;723.926;2.136
28/09/2011 11:15 AM;724.137;2.532
28/09/2011 11:20 AM;724.337;2.400
28/09/2011 11:25 AM;724.544;2.484
28/09/2011 11:30 AM;724.762;2.616
28/09/2011 11:35 AM;724.988;2.712
28/09/2011 11:40 AM;725.168;2.160
28/09/2011 11:45 AM;725.283;1.380
28/09/2011 11:50 AM;725.334;0.612
28/09/2011 11:55 AM;725.389;0.660
28/09/2011 12:00 PM;725.467;0.936
28/09/2011 12:05 PM;725.608;1.692
28/09/2011 12:10 PM;725.701;1.116
28/09/2011 12:15 PM;725.808;1.284
28/09/2011 12:20 PM;725.948;1.680
28/09/2011 12:25 PM;726.099;1.812
28/09/2011 12:30 PM;726.255;1.872
28/09/2011 12:35 PM;726.414;1.908
28/09/2011 12:40 PM;726.602;2.256
28/09/2011 12:45 PM;726.801;2.388
28/09/2011 12:50 PM;727.000;2.388
28/09/2011 12:55 PM;727.217;2.604
28/09/2011 01:00 PM;727.426;2.508
28/09/2011 01:05 PM;727.628;2.424
28/09/2011 01:10 PM;727.829;2.412
28/09/2011 01:15 PM;728.031;2.424
28/09/2011 01:20 PM;728.230;2.388
28/09/2011 01:25 PM;728.429;2.388
28/09/2011 01:30 PM;728.628;2.388
28/09/2011 01:35 PM;728.824;2.352
28/09/2011 01:40 PM;729.020;2.352
28/09/2011 01:45 PM;729.216;2.352
28/09/2011 01:50 PM;729.409;2.316
28/09/2011 01:55 PM;729.599;2.280
28/09/2011 02:00 PM;729.788;2.268
28/09/2011 02:05 PM;729.977;2.268
28/09/2011 02:10 PM;730.164;2.244
28/09/2011 02:15 PM;730.348;2.208
28/09/2011 02:20 PM;730.532;2.208
28/09/2011 02:25 PM;730.714;2.184
28/09/2011 02:30 PM;730.894;2.160
28/09/2011 02:35 PM;731.072;2.136
28/09/2011 02:40 PM;731.248;2.112
28/09/2011 02:45 PM;731.421;2.076
28/09/2011 02:50 PM;731.589;2.016
28/09/2011 02:55 PM;731.756;2.004
28/09/2011 03:00 PM;731.921;1.980
28/09/2011 03:05 PM;732.082;1.932
28/09/2011 03:10 PM;732.242;1.920
28/09/2011 03:15 PM;732.397;1.860
28/09/2011 03:20 PM;732.549;1.824
28/09/2011 03:25 PM;732.699;1.800
28/09/2011 03:30 PM;732.846;1.764
28/09/2011 03:35 PM;732.988;1.704
28/09/2011 03:40 PM;733.127;1.668
28/09/2011 03:45 PM;733.262;1.620
28/09/2011 03:50 PM;733.392;1.560
28/09/2011 03:55 PM;733.518;1.512
28/09/2011 04:00 PM;733.641;1.476
28/09/2011 04:05 PM;733.759;1.416
28/09/2011 04:10 PM;733.873;1.368
28/09/2011 04:15 PM;733.981;1.296
28/09/2011 04:20 PM;734.085;1.248
28/09/2011 04:25 PM;734.184;1.188
28/09/2011 04:30 PM;734.278;1.128
28/09/2011 04:35 PM;734.367;1.068
28/09/2011 04:40 PM;734.451;1.008
28/09/2011 04:45 PM;734.531;0.960
28/09/2011 04:50 PM;734.604;0.876
28/09/2011 04:55 PM;734.673;0.828
28/09/2011 05:00 PM;734.737;0.768
28/09/2011 05:05 PM;734.796;0.708
28/09/2011 05:10 PM;734.848;0.624
28/09/2011 05:15 PM;734.896;0.576
28/09/2011 05:20 PM;734.938;0.504
28/09/2011 05:25 PM;734.974;0.432
28/09/2011 05:30 PM;735.004;0.360
28/09/2011 05:35 PM;735.030;0.312
28/09/2011 05:40 PM;735.051;0.252
28/09/2011 05:45 PM;735.067;0.192
28/09/2011 05:50 PM;735.079;0.144
28/09/2011 05:55 PM;735.087;0.096
28/09/2011 06:00 PM;735.092;0.060
28/09/2011 06:05 PM;735.094;0.024
28/09/2011 06:10 PM;735.094;0.000
28/09/2011 06:15 PM;735.094;0.000
28/09/2011 06:20 PM;735.094;0.000
28/09/2011 06:25 PM;735.094;0.000
28/09/2011 06:30 PM;735.094;0.000
28/09/2011 06:35 PM;735.094;0.000
28/09/2011 06:40 PM;735.094;0.000
28/09/2011 06:45 PM;735.094;0.000
28/09/2011 06:50 PM;735.094;0.000
28/09/2011 06:55 PM;735.094;0.000
28/09/2011 07:00 PM;735.094;0.000
28/09/2011 07:05 PM;735.094;0.000
28/09/2011 07:10 PM;735.094;0.000
28/09/2011 07:15 PM;735.094;0.000
28/09/2011 07:20 PM;735.094;0.000
28/09/2011 07:25 PM;735.094;0.000
28/09/2011 07:30 PM;735.094;0.000
28/09/2011 07:35 PM;735.094;0.000
28/09/2011 07:40 PM;735.094;0.000
28/09/2011 07:45 PM;735.094;0.000
28/09/2011 07:50 PM;735.094;0.000
28/09/2011 07:55 PM;735.094;0.000
28/09/2011 08:00 PM;735.094;0.000
28/09/2011 08:05 PM;735.094;0.000
28/09/2011 08:10 PM;735.094;0.000
28/09/2011 08:15 PM;735.094;0.000
28/09/2011 08:20 PM;735.094;0.000
28/09/2011 08:25 PM;735.094;0.000
28/09/2011 08:30 PM;735.094;0.000
28/09/2011 08:35 PM;735.094;0.000
28/09/2011 08:40 PM;735.094;0.000
28/09/2011 08:45 PM;735.094;0.000
28/09/2011 08:50 PM;735.094;0.000
28/09/2011 08:55 PM;735.094;0.000
28/09/2011 09:00 PM;735.094;0.000
28/09/2011 09:05 PM;735.094;0.000
28/09/2011 09:10 PM;735.094;0.000
28/09/2011 09:15 PM;735.094;0.000
28/09/2011 09:20 PM;735.094;0.000
28/09/2011 09:25 PM;735.094;0.000
28/09/2011 09:30 PM;735.094;0.000
28/09/2011 09:35 PM;735.094;0.000
28/09/2011 09:40 PM;735.094;0.000
28/09/2011 09:45 PM;735.094;0.000
28/09/2011 09:50 PM;735.094;0.000
28/09/2011 09:55 PM;735.094;0.000
28/09/2011 10:00 PM;735.094;0.000
28/09/2011 10:05 PM;735.094;0.000
28/09/2011 10:10 PM;735.094;0.000
28/09/2011 10:15 PM;735.094;0.000
28/09/2011 10:20 PM;735.094;0.000
28/09/2011 10:25 PM;735.094;0.000
28/09/2011 10:30 PM;735.094;0.000
28/09/2011 10:35 PM;735.094;0.000
28/09/2011 10:40 PM;735.094;0.000
28/09/2011 10:45 PM;735.094;0.000
28/09/2011 10:50 PM;735.094;0.000
28/09/2011 10:55 PM;735.094;0.000
28/09/2011 11:00 PM;735.094;0.000
28/09/2011 11:05 PM;735.094;0.000
28/09/2011 11:10 PM;735.094;0.000
28/09/2011 11:15 PM;735.094;0.000
28/09/2011 11:20 PM;735.094;0.000
28/09/2011 11:25 PM;735.094;0.000
28/09/2011 11:30 PM;735.094;0.000
28/09/2011 11:35 PM;735.094;0.000
28/09/2011 11:40 PM;735.094;0.000
28/09/2011 11:45 PM;735.094;0.000
28/09/2011 11:50 PM;735.094;0.000
28/09/2011 11:55 PM;735.094;0.000
