sep=;
Version CSV1|Tool SE|Linebreaks CR/LF|Delimiter semicolon|Decimalpoint dot|Precision 3

;SN: 2100448037;SN: 2100448037
;SB 3000TL-20;SB 3000TL-20
;2100448037;2100448037
;Total yield;Power
;Counter;Analog
dd/MM/yyyy hh:mm tt;kWh;kW
23/09/2011 12:00 AM;649.781;0.000
23/09/2011 12:05 AM;649.781;0.000
23/09/2011 12:10 AM;649.781;0.000
23/09/2011 12:15 AM;649.781;0.000
23/09/2011 12:20 AM;649.781;0.000
23/09/2011 12:25 AM;649.781;0.000
23/09/2011 12:30 AM;649.781;0.000
23/09/2011 12:35 AM;649.781;0.000
23/09/2011 12:40 AM;649.781;0.000
23/09/2011 12:45 AM;649.781;0.000
23/09/2011 12:50 AM;649.781;0.000
23/09/2011 12:55 AM;649.781;0.000
23/09/2011 01:00 AM;649.781;0.000
23/09/2011 01:05 AM;649.781;0.000
23/09/2011 01:10 AM;649.781;0.000
23/09/2011 01:15 AM;649.781;0.000
23/09/2011 01:20 AM;649.781;0.000
23/09/2011 01:25 AM;649.781;0.000
23/09/2011 01:30 AM;649.781;0.000
23/09/2011 01:35 AM;649.781;0.000
23/09/2011 01:40 AM;649.781;0.000
23/09/2011 01:45 AM;649.781;0.000
23/09/2011 01:50 AM;649.781;0.000
23/09/2011 01:55 AM;649.781;0.000
23/09/2011 02:00 AM;649.781;0.000
23/09/2011 02:05 AM;649.781;0.000
23/09/2011 02:10 AM;649.781;0.000
23/09/2011 02:15 AM;649.781;0.000
23/09/2011 02:20 AM;649.781;0.000
23/09/2011 02:25 AM;649.781;0.000
23/09/2011 02:30 AM;649.781;0.000
23/09/2011 02:35 AM;649.781;0.000
23/09/2011 02:40 AM;649.781;0.000
23/09/2011 02:45 AM;649.781;0.000
23/09/2011 02:50 AM;649.781;0.000
23/09/2011 02:55 AM;649.781;0.000
23/09/2011 03:00 AM;649.781;0.000
23/09/2011 03:05 AM;649.781;0.000
23/09/2011 03:10 AM;649.781;0.000
23/09/2011 03:15 AM;649.781;0.000
23/09/2011 03:20 AM;649.781;0.000
23/09/2011 03:25 AM;649.781;0.000
23/09/2011 03:30 AM;649.781;0.000
23/09/2011 03:35 AM;649.781;0.000
23/09/2011 03:40 AM;649.781;0.000
23/09/2011 03:45 AM;649.781;0.000
23/09/2011 03:50 AM;649.781;0.000
23/09/2011 03:55 AM;649.781;0.000
23/09/2011 04:00 AM;649.781;0.000
23/09/2011 04:05 AM;649.781;0.000
23/09/2011 04:10 AM;649.781;0.000
23/09/2011 04:15 AM;649.781;0.000
23/09/2011 04:20 AM;649.781;0.000
23/09/2011 04:25 AM;649.781;0.000
23/09/2011 04:30 AM;649.781;0.000
23/09/2011 04:35 AM;649.781;0.000
23/09/2011 04:40 AM;649.781;0.000
23/09/2011 04:45 AM;649.781;0.000
23/09/2011 04:50 AM;649.781;0.000
23/09/2011 04:55 AM;649.781;0.000
23/09/2011 05:00 AM;649.781;0.000
23/09/2011 05:05 AM;649.781;0.000
23/09/2011 05:10 AM;649.781;0.000
23/09/2011 05:15 AM;649.781;0.000
23/09/2011 05:20 AM;649.781;0.000
23/09/2011 05:25 AM;649.781;0.000
23/09/2011 05:30 AM;649.781;0.000
23/09/2011 05:35 AM;649.781;0.000
23/09/2011 05:40 AM;649.781;0.000
23/09/2011 05:45 AM;649.781;0.000
23/09/2011 05:50 AM;649.781;0.000
23/09/2011 05:55 AM;649.781;0.000
23/09/2011 06:00 AM;649.781;0.000
23/09/2011 06:05 AM;649.781;0.000
23/09/2011 06:10 AM;649.781;0.000
23/09/2011 06:15 AM;649.781;0.000
23/09/2011 06:20 AM;649.781;0.000
23/09/2011 06:25 AM;649.782;0.012
23/09/2011 06:30 AM;649.784;0.024
23/09/2011 06:35 AM;649.789;0.060
23/09/2011 06:40 AM;649.796;0.084
23/09/2011 06:45 AM;649.805;0.108
23/09/2011 06:50 AM;649.817;0.144
23/09/2011 06:55 AM;649.830;0.156
23/09/2011 07:00 AM;649.840;0.120
23/09/2011 07:05 AM;649.856;0.192
23/09/2011 07:10 AM;649.883;0.324
23/09/2011 07:15 AM;649.914;0.372
23/09/2011 07:20 AM;649.949;0.420
23/09/2011 07:25 AM;649.990;0.492
23/09/2011 07:30 AM;650.035;0.540
23/09/2011 07:35 AM;650.085;0.600
23/09/2011 07:40 AM;650.140;0.660
23/09/2011 07:45 AM;650.199;0.708
23/09/2011 07:50 AM;650.264;0.780
23/09/2011 07:55 AM;650.333;0.828
23/09/2011 08:00 AM;650.408;0.900
23/09/2011 08:05 AM;650.487;0.948
23/09/2011 08:10 AM;650.570;0.996
23/09/2011 08:15 AM;650.657;1.044
23/09/2011 08:20 AM;650.749;1.104
23/09/2011 08:25 AM;650.844;1.140
23/09/2011 08:30 AM;650.943;1.188
23/09/2011 08:35 AM;651.047;1.248
23/09/2011 08:40 AM;651.154;1.284
23/09/2011 08:45 AM;651.266;1.344
23/09/2011 08:50 AM;651.381;1.380
23/09/2011 08:55 AM;651.501;1.440
23/09/2011 09:00 AM;651.624;1.476
23/09/2011 09:05 AM;651.751;1.524
23/09/2011 09:10 AM;651.882;1.572
23/09/2011 09:15 AM;652.015;1.596
23/09/2011 09:20 AM;652.152;1.644
23/09/2011 09:25 AM;652.292;1.680
23/09/2011 09:30 AM;652.435;1.716
23/09/2011 09:35 AM;652.581;1.752
23/09/2011 09:40 AM;652.728;1.764
23/09/2011 09:45 AM;652.879;1.812
23/09/2011 09:50 AM;653.032;1.836
23/09/2011 09:55 AM;653.189;1.884
23/09/2011 10:00 AM;653.348;1.908
23/09/2011 10:05 AM;653.509;1.932
23/09/2011 10:10 AM;653.674;1.980
23/09/2011 10:15 AM;653.841;2.004
23/09/2011 10:20 AM;654.009;2.016
23/09/2011 10:25 AM;654.181;2.064
23/09/2011 10:30 AM;654.353;2.064
23/09/2011 10:35 AM;654.527;2.088
23/09/2011 10:40 AM;654.703;2.112
23/09/2011 10:45 AM;654.883;2.160
23/09/2011 10:50 AM;655.067;2.208
23/09/2011 10:55 AM;655.250;2.196
23/09/2011 11:00 AM;655.436;2.232
23/09/2011 11:05 AM;655.622;2.232
23/09/2011 11:10 AM;655.810;2.256
23/09/2011 11:15 AM;655.998;2.256
23/09/2011 11:20 AM;656.187;2.268
23/09/2011 11:25 AM;656.380;2.316
23/09/2011 11:30 AM;656.575;2.340
23/09/2011 11:35 AM;656.771;2.352
23/09/2011 11:40 AM;656.851;0.960
23/09/2011 11:45 AM;656.970;1.428
23/09/2011 11:50 AM;657.177;2.484
23/09/2011 11:55 AM;657.381;2.448
23/09/2011 12:00 PM;657.586;2.460
23/09/2011 12:05 PM;657.796;2.520
23/09/2011 12:10 PM;657.923;1.524
23/09/2011 12:15 PM;658.134;2.532
23/09/2011 12:20 PM;658.352;2.616
23/09/2011 12:25 PM;658.495;1.716
23/09/2011 12:30 PM;658.562;0.804
23/09/2011 12:35 PM;658.607;0.540
23/09/2011 12:40 PM;658.656;0.588
23/09/2011 12:45 PM;658.713;0.684
23/09/2011 12:50 PM;658.943;2.760
23/09/2011 12:55 PM;659.183;2.880
23/09/2011 01:00 PM;659.297;1.368
23/09/2011 01:05 PM;659.371;0.888
23/09/2011 01:10 PM;659.453;0.984
23/09/2011 01:15 PM;659.509;0.672
23/09/2011 01:20 PM;659.557;0.576
23/09/2011 01:25 PM;659.607;0.600
23/09/2011 01:30 PM;659.802;2.340
23/09/2011 01:35 PM;660.026;2.688
23/09/2011 01:40 PM;660.200;2.088
23/09/2011 01:45 PM;660.321;1.452
23/09/2011 01:50 PM;660.389;0.816
23/09/2011 01:55 PM;660.588;2.388
23/09/2011 02:00 PM;660.678;1.080
23/09/2011 02:05 PM;660.874;2.352
23/09/2011 02:10 PM;661.065;2.292
23/09/2011 02:15 PM;661.262;2.364
23/09/2011 02:20 PM;661.455;2.316
23/09/2011 02:25 PM;661.523;0.816
23/09/2011 02:30 PM;661.600;0.924
23/09/2011 02:35 PM;661.701;1.212
23/09/2011 02:40 PM;661.868;2.004
23/09/2011 02:45 PM;662.041;2.076
23/09/2011 02:50 PM;662.216;2.100
23/09/2011 02:55 PM;662.390;2.088
23/09/2011 03:00 PM;662.558;2.016
23/09/2011 03:05 PM;662.714;1.872
23/09/2011 03:10 PM;662.865;1.812
23/09/2011 03:15 PM;663.015;1.800
23/09/2011 03:20 PM;663.160;1.740
23/09/2011 03:25 PM;663.302;1.704
23/09/2011 03:30 PM;663.439;1.644
23/09/2011 03:35 PM;663.573;1.608
23/09/2011 03:40 PM;663.704;1.572
23/09/2011 03:45 PM;663.831;1.524
23/09/2011 03:50 PM;663.954;1.476
23/09/2011 03:55 PM;664.074;1.440
23/09/2011 04:00 PM;664.188;1.368
23/09/2011 04:05 PM;664.298;1.320
23/09/2011 04:10 PM;664.405;1.284
23/09/2011 04:15 PM;664.506;1.212
23/09/2011 04:20 PM;664.603;1.164
23/09/2011 04:25 PM;664.695;1.104
23/09/2011 04:30 PM;664.783;1.056
23/09/2011 04:35 PM;664.865;0.984
23/09/2011 04:40 PM;664.942;0.924
23/09/2011 04:45 PM;665.015;0.876
23/09/2011 04:50 PM;665.082;0.804
23/09/2011 04:55 PM;665.145;0.756
23/09/2011 05:00 PM;665.202;0.684
23/09/2011 05:05 PM;665.254;0.624
23/09/2011 05:10 PM;665.300;0.552
23/09/2011 05:15 PM;665.341;0.492
23/09/2011 05:20 PM;665.377;0.432
23/09/2011 05:25 PM;665.408;0.372
23/09/2011 05:30 PM;665.434;0.312
23/09/2011 05:35 PM;665.455;0.252
23/09/2011 05:40 PM;665.471;0.192
23/09/2011 05:45 PM;665.484;0.156
23/09/2011 05:50 PM;665.493;0.108
23/09/2011 05:55 PM;665.498;0.060
23/09/2011 06:00 PM;665.501;0.036
23/09/2011 06:05 PM;665.502;0.012
23/09/2011 06:10 PM;665.502;0.000
23/09/2011 06:15 PM;665.502;0.000
23/09/2011 06:20 PM;665.502;0.000
23/09/2011 06:25 PM;665.502;0.000
23/09/2011 06:30 PM;665.502;0.000
23/09/2011 06:35 PM;665.502;0.000
23/09/2011 06:40 PM;665.502;0.000
23/09/2011 06:45 PM;665.502;0.000
23/09/2011 06:50 PM;665.502;0.000
23/09/2011 06:55 PM;665.502;0.000
23/09/2011 07:00 PM;665.502;0.000
23/09/2011 07:05 PM;665.502;0.000
23/09/2011 07:10 PM;665.502;0.000
23/09/2011 07:15 PM;665.502;0.000
23/09/2011 07:20 PM;665.502;0.000
23/09/2011 07:25 PM;665.502;0.000
23/09/2011 07:30 PM;665.502;0.000
23/09/2011 07:35 PM;665.502;0.000
23/09/2011 07:40 PM;665.502;0.000
23/09/2011 07:45 PM;665.502;0.000
23/09/2011 07:50 PM;665.502;0.000
23/09/2011 07:55 PM;665.502;0.000
23/09/2011 08:00 PM;665.502;0.000
23/09/2011 08:05 PM;665.502;0.000
23/09/2011 08:10 PM;665.502;0.000
23/09/2011 08:15 PM;665.502;0.000
23/09/2011 08:20 PM;665.502;0.000
23/09/2011 08:25 PM;665.502;0.000
23/09/2011 08:30 PM;665.502;0.000
23/09/2011 08:35 PM;665.502;0.000
23/09/2011 08:40 PM;665.502;0.000
23/09/2011 08:45 PM;665.502;0.000
23/09/2011 08:50 PM;665.502;0.000
23/09/2011 08:55 PM;665.502;0.000
23/09/2011 09:00 PM;665.502;0.000
23/09/2011 09:05 PM;665.502;0.000
23/09/2011 09:10 PM;665.502;0.000
23/09/2011 09:15 PM;665.502;0.000
23/09/2011 09:20 PM;665.502;0.000
23/09/2011 09:25 PM;665.502;0.000
23/09/2011 09:30 PM;665.502;0.000
23/09/2011 09:35 PM;665.502;0.000
23/09/2011 09:40 PM;665.502;0.000
23/09/2011 09:45 PM;665.502;0.000
23/09/2011 09:50 PM;665.502;0.000
23/09/2011 09:55 PM;665.502;0.000
23/09/2011 10:00 PM;665.502;0.000
23/09/2011 10:05 PM;665.502;0.000
23/09/2011 10:10 PM;665.502;0.000
23/09/2011 10:15 PM;665.502;0.000
23/09/2011 10:20 PM;665.502;0.000
23/09/2011 10:25 PM;665.502;0.000
23/09/2011 10:30 PM;665.502;0.000
23/09/2011 10:35 PM;665.502;0.000
23/09/2011 10:40 PM;665.502;0.000
23/09/2011 10:45 PM;665.502;0.000
23/09/2011 10:50 PM;665.502;0.000
23/09/2011 10:55 PM;665.502;0.000
23/09/2011 11:00 PM;665.502;0.000
23/09/2011 11:05 PM;665.502;0.000
23/09/2011 11:10 PM;665.502;0.000
23/09/2011 11:15 PM;665.502;0.000
23/09/2011 11:20 PM;665.502;0.000
23/09/2011 11:25 PM;665.502;0.000
23/09/2011 11:30 PM;665.502;0.000
23/09/2011 11:35 PM;665.502;0.000
23/09/2011 11:40 PM;665.502;0.000
23/09/2011 11:45 PM;665.502;0.000
23/09/2011 11:50 PM;665.502;0.000
23/09/2011 11:55 PM;665.502;0.000
