sep=;
Version CSV1|Tool SE|Linebreaks CR/LF|Delimiter semicolon|Decimalpoint dot|Precision 3

;SN: 2100448037;SN: 2100448037
;SB 3000TL-20;SB 3000TL-20
;2100448037;2100448037
;Total yield;Power
;Counter;Analog
dd/MM/yyyy hh:mm tt;kWh;kW
18/08/2011 12:00 AM;181.875;0.000
18/08/2011 12:05 AM;181.875;0.000
18/08/2011 12:10 AM;181.875;0.000
18/08/2011 12:15 AM;181.875;0.000
18/08/2011 12:20 AM;181.875;0.000
18/08/2011 12:25 AM;181.875;0.000
18/08/2011 12:30 AM;181.875;0.000
18/08/2011 12:35 AM;181.875;0.000
18/08/2011 12:40 AM;181.875;0.000
18/08/2011 12:45 AM;181.875;0.000
18/08/2011 12:50 AM;181.875;0.000
18/08/2011 12:55 AM;181.875;0.000
18/08/2011 01:00 AM;181.875;0.000
18/08/2011 01:05 AM;181.875;0.000
18/08/2011 01:10 AM;181.875;0.000
18/08/2011 01:15 AM;181.875;0.000
18/08/2011 01:20 AM;181.875;0.000
18/08/2011 01:25 AM;181.875;0.000
18/08/2011 01:30 AM;181.875;0.000
18/08/2011 01:35 AM;181.875;0.000
18/08/2011 01:40 AM;181.875;0.000
18/08/2011 01:45 AM;181.875;0.000
18/08/2011 01:50 AM;181.875;0.000
18/08/2011 01:55 AM;181.875;0.000
18/08/2011 02:00 AM;181.875;0.000
18/08/2011 02:05 AM;181.875;0.000
18/08/2011 02:10 AM;181.875;0.000
18/08/2011 02:15 AM;181.875;0.000
18/08/2011 02:20 AM;181.875;0.000
18/08/2011 02:25 AM;181.875;0.000
18/08/2011 02:30 AM;181.875;0.000
18/08/2011 02:35 AM;181.875;0.000
18/08/2011 02:40 AM;181.875;0.000
18/08/2011 02:45 AM;181.875;0.000
18/08/2011 02:50 AM;181.875;0.000
18/08/2011 02:55 AM;181.875;0.000
18/08/2011 03:00 AM;181.875;0.000
18/08/2011 03:05 AM;181.875;0.000
18/08/2011 03:10 AM;181.875;0.000
18/08/2011 03:15 AM;181.875;0.000
18/08/2011 03:20 AM;181.875;0.000
18/08/2011 03:25 AM;181.875;0.000
18/08/2011 03:30 AM;181.875;0.000
18/08/2011 03:35 AM;181.875;0.000
18/08/2011 03:40 AM;181.875;0.000
18/08/2011 03:45 AM;181.875;0.000
18/08/2011 03:50 AM;181.875;0.000
18/08/2011 03:55 AM;181.875;0.000
18/08/2011 04:00 AM;181.875;0.000
18/08/2011 04:05 AM;181.875;0.000
18/08/2011 04:10 AM;181.875;0.000
18/08/2011 04:15 AM;181.875;0.000
18/08/2011 04:20 AM;181.875;0.000
18/08/2011 04:25 AM;181.875;0.000
18/08/2011 04:30 AM;181.875;0.000
18/08/2011 04:35 AM;181.875;0.000
18/08/2011 04:40 AM;181.875;0.000
18/08/2011 04:45 AM;181.875;0.000
18/08/2011 04:50 AM;181.875;0.000
18/08/2011 04:55 AM;181.875;0.000
18/08/2011 05:00 AM;181.875;0.000
18/08/2011 05:05 AM;181.875;0.000
18/08/2011 05:10 AM;181.875;0.000
18/08/2011 05:15 AM;181.875;0.000
18/08/2011 05:20 AM;181.875;0.000
18/08/2011 05:25 AM;181.875;0.000
18/08/2011 05:30 AM;181.875;0.000
18/08/2011 05:35 AM;181.875;0.000
18/08/2011 05:40 AM;181.875;0.000
18/08/2011 05:45 AM;181.875;0.000
18/08/2011 05:50 AM;181.875;0.000
18/08/2011 05:55 AM;181.875;0.000
18/08/2011 06:00 AM;181.875;0.000
18/08/2011 06:05 AM;181.875;0.000
18/08/2011 06:10 AM;181.875;0.000
18/08/2011 06:15 AM;181.875;0.000
18/08/2011 06:20 AM;181.875;0.000
18/08/2011 06:25 AM;181.875;0.000
18/08/2011 06:30 AM;181.875;0.000
18/08/2011 06:35 AM;181.875;0.000
18/08/2011 06:40 AM;181.875;0.000
18/08/2011 06:45 AM;181.875;0.000
18/08/2011 06:50 AM;181.875;0.000
18/08/2011 06:55 AM;181.875;0.000
18/08/2011 07:00 AM;181.875;0.000
18/08/2011 07:05 AM;181.875;0.000
18/08/2011 07:10 AM;181.875;0.000
18/08/2011 07:15 AM;181.875;0.000
18/08/2011 07:20 AM;181.875;0.000
18/08/2011 07:25 AM;181.877;0.024
18/08/2011 07:30 AM;181.881;0.048
18/08/2011 07:35 AM;181.886;0.060
18/08/2011 07:40 AM;181.893;0.084
18/08/2011 07:45 AM;181.902;0.108
18/08/2011 07:50 AM;181.912;0.120
18/08/2011 07:55 AM;181.924;0.144
18/08/2011 08:00 AM;181.938;0.168
18/08/2011 08:05 AM;181.953;0.180
18/08/2011 08:10 AM;181.970;0.204
18/08/2011 08:15 AM;181.988;0.216
18/08/2011 08:20 AM;182.007;0.228
18/08/2011 08:25 AM;182.028;0.252
18/08/2011 08:30 AM;182.053;0.300
18/08/2011 08:35 AM;182.083;0.360
18/08/2011 08:40 AM;182.119;0.432
18/08/2011 08:45 AM;182.162;0.516
18/08/2011 08:50 AM;182.211;0.588
18/08/2011 08:55 AM;182.248;0.444
18/08/2011 09:00 AM;182.268;0.240
18/08/2011 09:05 AM;182.367;1.188
18/08/2011 09:10 AM;182.480;1.356
18/08/2011 09:15 AM;182.596;1.392
18/08/2011 09:20 AM;182.716;1.440
18/08/2011 09:25 AM;182.804;1.056
18/08/2011 09:30 AM;182.921;1.404
18/08/2011 09:35 AM;183.016;1.140
18/08/2011 09:40 AM;183.099;0.996
18/08/2011 09:45 AM;183.169;0.840
18/08/2011 09:50 AM;183.318;1.788
18/08/2011 09:55 AM;183.426;1.296
18/08/2011 10:00 AM;183.517;1.092
18/08/2011 10:05 AM;183.615;1.176
18/08/2011 10:10 AM;183.708;1.116
18/08/2011 10:15 AM;183.813;1.260
18/08/2011 10:20 AM;183.915;1.224
18/08/2011 10:25 AM;184.020;1.260
18/08/2011 10:30 AM;184.134;1.368
18/08/2011 10:35 AM;184.278;1.728
18/08/2011 10:40 AM;184.415;1.644
18/08/2011 10:45 AM;184.533;1.416
18/08/2011 10:50 AM;184.635;1.224
18/08/2011 10:55 AM;184.758;1.476
18/08/2011 11:00 AM;184.904;1.752
18/08/2011 11:05 AM;185.043;1.668
18/08/2011 11:10 AM;185.159;1.392
18/08/2011 11:15 AM;185.300;1.692
18/08/2011 11:20 AM;185.433;1.596
18/08/2011 11:25 AM;185.589;1.872
18/08/2011 11:30 AM;185.800;2.532
18/08/2011 11:35 AM;185.974;2.088
18/08/2011 11:40 AM;186.110;1.632
18/08/2011 11:45 AM;186.256;1.752
18/08/2011 11:50 AM;186.377;1.452
18/08/2011 11:55 AM;186.573;2.352
18/08/2011 12:00 PM;186.782;2.508
18/08/2011 12:05 PM;186.952;2.040
18/08/2011 12:10 PM;187.136;2.208
18/08/2011 12:15 PM;187.309;2.076
18/08/2011 12:20 PM;187.498;2.268
18/08/2011 12:25 PM;187.684;2.232
18/08/2011 12:30 PM;187.870;2.232
18/08/2011 12:35 PM;188.060;2.280
18/08/2011 12:40 PM;188.248;2.256
18/08/2011 12:45 PM;188.434;2.232
18/08/2011 12:50 PM;188.622;2.256
18/08/2011 12:55 PM;188.806;2.208
18/08/2011 01:00 PM;188.987;2.172
18/08/2011 01:05 PM;189.171;2.208
18/08/2011 01:10 PM;189.345;2.088
18/08/2011 01:15 PM;189.495;1.800
18/08/2011 01:20 PM;189.680;2.220
18/08/2011 01:25 PM;189.863;2.196
18/08/2011 01:30 PM;190.043;2.160
18/08/2011 01:35 PM;190.235;2.304
18/08/2011 01:40 PM;190.423;2.256
18/08/2011 01:45 PM;190.609;2.232
18/08/2011 01:50 PM;190.783;2.088
18/08/2011 01:55 PM;190.935;1.824
18/08/2011 02:00 PM;191.024;1.068
18/08/2011 02:05 PM;191.213;2.268
18/08/2011 02:10 PM;191.397;2.208
18/08/2011 02:15 PM;191.576;2.148
18/08/2011 02:20 PM;191.747;2.052
18/08/2011 02:25 PM;191.919;2.064
18/08/2011 02:30 PM;192.098;2.148
18/08/2011 02:35 PM;192.239;1.692
18/08/2011 02:40 PM;192.341;1.224
18/08/2011 02:45 PM;192.418;0.924
18/08/2011 02:50 PM;192.490;0.864
18/08/2011 02:55 PM;192.534;0.528
18/08/2011 03:00 PM;192.629;1.140
18/08/2011 03:05 PM;192.805;2.112
18/08/2011 03:10 PM;192.971;1.992
18/08/2011 03:15 PM;193.125;1.848
18/08/2011 03:20 PM;193.269;1.728
18/08/2011 03:25 PM;193.408;1.668
18/08/2011 03:30 PM;193.546;1.656
18/08/2011 03:35 PM;193.681;1.620
18/08/2011 03:40 PM;193.784;1.236
18/08/2011 03:45 PM;193.820;0.432
18/08/2011 03:50 PM;193.928;1.296
18/08/2011 03:55 PM;194.024;1.152
18/08/2011 04:00 PM;194.130;1.272
18/08/2011 04:05 PM;194.256;1.512
18/08/2011 04:10 PM;194.354;1.176
18/08/2011 04:15 PM;194.443;1.068
18/08/2011 04:20 PM;194.544;1.212
18/08/2011 04:25 PM;194.626;0.984
18/08/2011 04:30 PM;194.701;0.900
18/08/2011 04:35 PM;194.729;0.336
18/08/2011 04:40 PM;194.760;0.372
18/08/2011 04:45 PM;194.798;0.456
18/08/2011 04:50 PM;194.832;0.408
18/08/2011 04:55 PM;194.850;0.216
18/08/2011 05:00 PM;194.876;0.312
18/08/2011 05:05 PM;194.901;0.300
18/08/2011 05:10 PM;194.938;0.444
18/08/2011 05:15 PM;194.975;0.444
18/08/2011 05:20 PM;195.005;0.360
18/08/2011 05:25 PM;195.027;0.264
18/08/2011 05:30 PM;195.032;0.060
18/08/2011 05:35 PM;195.038;0.072
18/08/2011 05:40 PM;195.041;0.036
18/08/2011 05:45 PM;195.041;0.000
18/08/2011 05:50 PM;195.041;0.000
18/08/2011 05:55 PM;195.041;0.000
18/08/2011 06:00 PM;195.041;0.000
18/08/2011 06:05 PM;195.041;0.000
18/08/2011 06:10 PM;195.041;0.000
18/08/2011 06:15 PM;195.041;0.000
18/08/2011 06:20 PM;195.041;0.000
18/08/2011 06:25 PM;195.041;0.000
18/08/2011 06:30 PM;195.041;0.000
18/08/2011 06:35 PM;195.041;0.000
18/08/2011 06:40 PM;195.041;0.000
18/08/2011 06:45 PM;195.041;0.000
18/08/2011 06:50 PM;195.041;0.000
18/08/2011 06:55 PM;195.041;0.000
18/08/2011 07:00 PM;195.041;0.000
18/08/2011 07:05 PM;195.041;0.000
18/08/2011 07:10 PM;195.041;0.000
18/08/2011 07:15 PM;195.041;0.000
18/08/2011 07:20 PM;195.041;0.000
18/08/2011 07:25 PM;195.041;0.000
18/08/2011 07:30 PM;195.041;0.000
18/08/2011 07:35 PM;195.041;0.000
18/08/2011 07:40 PM;195.041;0.000
18/08/2011 07:45 PM;195.041;0.000
18/08/2011 07:50 PM;195.041;0.000
18/08/2011 07:55 PM;195.041;0.000
18/08/2011 08:00 PM;195.041;0.000
18/08/2011 08:05 PM;195.041;0.000
18/08/2011 08:10 PM;195.041;0.000
18/08/2011 08:15 PM;195.041;0.000
18/08/2011 08:20 PM;195.041;0.000
18/08/2011 08:25 PM;195.041;0.000
18/08/2011 08:30 PM;195.041;0.000
18/08/2011 08:35 PM;195.041;0.000
18/08/2011 08:40 PM;195.041;0.000
18/08/2011 08:45 PM;195.041;0.000
18/08/2011 08:50 PM;195.041;0.000
18/08/2011 08:55 PM;195.041;0.000
18/08/2011 09:00 PM;195.041;0.000
18/08/2011 09:05 PM;195.041;0.000
18/08/2011 09:10 PM;195.041;0.000
18/08/2011 09:15 PM;195.041;0.000
18/08/2011 09:20 PM;195.041;0.000
18/08/2011 09:25 PM;195.041;0.000
18/08/2011 09:30 PM;195.041;0.000
18/08/2011 09:35 PM;195.041;0.000
18/08/2011 09:40 PM;195.041;0.000
18/08/2011 09:45 PM;195.041;0.000
18/08/2011 09:50 PM;195.041;0.000
18/08/2011 09:55 PM;195.041;0.000
18/08/2011 10:00 PM;195.041;0.000
18/08/2011 10:05 PM;195.041;0.000
18/08/2011 10:10 PM;195.041;0.000
18/08/2011 10:15 PM;195.041;0.000
18/08/2011 10:20 PM;195.041;0.000
18/08/2011 10:25 PM;195.041;0.000
18/08/2011 10:30 PM;195.041;0.000
18/08/2011 10:35 PM;195.041;0.000
18/08/2011 10:40 PM;195.041;0.000
18/08/2011 10:45 PM;195.041;0.000
18/08/2011 10:50 PM;195.041;0.000
18/08/2011 10:55 PM;195.041;0.000
18/08/2011 11:00 PM;195.041;0.000
18/08/2011 11:05 PM;195.041;0.000
18/08/2011 11:10 PM;195.041;0.000
18/08/2011 11:15 PM;195.041;0.000
18/08/2011 11:20 PM;195.041;0.000
18/08/2011 11:25 PM;195.041;0.000
18/08/2011 11:30 PM;195.041;0.000
18/08/2011 11:35 PM;195.041;0.000
18/08/2011 11:40 PM;195.041;0.000
18/08/2011 11:45 PM;195.041;0.000
18/08/2011 11:50 PM;195.041;0.000
18/08/2011 11:55 PM;195.041;0.000
