sep=;
Version CSV1|Tool SE|Linebreaks CR/LF|Delimiter semicolon|Decimalpoint dot|Precision 3

;SN: 2100448037;SN: 2100448037
;SB 3000TL-20;SB 3000TL-20
;2100448037;2100448037
;Total yield;Power
;Counter;Analog
dd/MM/yyyy hh:mm tt;kWh;kW
19/09/2011 12:00 AM;609.885;0.000
19/09/2011 12:05 AM;609.885;0.000
19/09/2011 12:10 AM;609.885;0.000
19/09/2011 12:15 AM;609.885;0.000
19/09/2011 12:20 AM;609.885;0.000
19/09/2011 12:25 AM;609.885;0.000
19/09/2011 12:30 AM;609.885;0.000
19/09/2011 12:35 AM;609.885;0.000
19/09/2011 12:40 AM;609.885;0.000
19/09/2011 12:45 AM;609.885;0.000
19/09/2011 12:50 AM;609.885;0.000
19/09/2011 12:55 AM;609.885;0.000
19/09/2011 01:00 AM;609.885;0.000
19/09/2011 01:05 AM;609.885;0.000
19/09/2011 01:10 AM;609.885;0.000
19/09/2011 01:15 AM;609.885;0.000
19/09/2011 01:20 AM;609.885;0.000
19/09/2011 01:25 AM;609.885;0.000
19/09/2011 01:30 AM;609.885;0.000
19/09/2011 01:35 AM;609.885;0.000
19/09/2011 01:40 AM;609.885;0.000
19/09/2011 01:45 AM;609.885;0.000
19/09/2011 01:50 AM;609.885;0.000
19/09/2011 01:55 AM;609.885;0.000
19/09/2011 02:00 AM;609.885;0.000
19/09/2011 02:05 AM;609.885;0.000
19/09/2011 02:10 AM;609.885;0.000
19/09/2011 02:15 AM;609.885;0.000
19/09/2011 02:20 AM;609.885;0.000
19/09/2011 02:25 AM;609.885;0.000
19/09/2011 02:30 AM;609.885;0.000
19/09/2011 02:35 AM;609.885;0.000
19/09/2011 02:40 AM;609.885;0.000
19/09/2011 02:45 AM;609.885;0.000
19/09/2011 02:50 AM;609.885;0.000
19/09/2011 02:55 AM;609.885;0.000
19/09/2011 03:00 AM;609.885;0.000
19/09/2011 03:05 AM;609.885;0.000
19/09/2011 03:10 AM;609.885;0.000
19/09/2011 03:15 AM;609.885;0.000
19/09/2011 03:20 AM;609.885;0.000
19/09/2011 03:25 AM;609.885;0.000
19/09/2011 03:30 AM;609.885;0.000
19/09/2011 03:35 AM;609.885;0.000
19/09/2011 03:40 AM;609.885;0.000
19/09/2011 03:45 AM;609.885;0.000
19/09/2011 03:50 AM;609.885;0.000
19/09/2011 03:55 AM;609.885;0.000
19/09/2011 04:00 AM;609.885;0.000
19/09/2011 04:05 AM;609.885;0.000
19/09/2011 04:10 AM;609.885;0.000
19/09/2011 04:15 AM;609.885;0.000
19/09/2011 04:20 AM;609.885;0.000
19/09/2011 04:25 AM;609.885;0.000
19/09/2011 04:30 AM;609.885;0.000
19/09/2011 04:35 AM;609.885;0.000
19/09/2011 04:40 AM;609.885;0.000
19/09/2011 04:45 AM;609.885;0.000
19/09/2011 04:50 AM;609.885;0.000
19/09/2011 04:55 AM;609.885;0.000
19/09/2011 05:00 AM;609.885;0.000
19/09/2011 05:05 AM;609.885;0.000
19/09/2011 05:10 AM;609.885;0.000
19/09/2011 05:15 AM;609.885;0.000
19/09/2011 05:20 AM;609.885;0.000
19/09/2011 05:25 AM;609.885;0.000
19/09/2011 05:30 AM;609.885;0.000
19/09/2011 05:35 AM;609.885;0.000
19/09/2011 05:40 AM;609.885;0.000
19/09/2011 05:45 AM;609.885;0.000
19/09/2011 05:50 AM;609.885;0.000
19/09/2011 05:55 AM;609.885;0.000
19/09/2011 06:00 AM;609.885;0.000
19/09/2011 06:05 AM;609.885;0.000
19/09/2011 06:10 AM;609.885;0.000
19/09/2011 06:15 AM;609.885;0.000
19/09/2011 06:20 AM;609.885;0.000
19/09/2011 06:25 AM;609.885;0.000
19/09/2011 06:30 AM;609.885;0.000
19/09/2011 06:35 AM;609.886;0.012
19/09/2011 06:40 AM;609.889;0.036
19/09/2011 06:45 AM;609.895;0.072
19/09/2011 06:50 AM;609.909;0.168
19/09/2011 06:55 AM;609.920;0.132
19/09/2011 07:00 AM;609.927;0.084
19/09/2011 07:05 AM;609.938;0.132
19/09/2011 07:10 AM;609.947;0.108
19/09/2011 07:15 AM;609.955;0.096
19/09/2011 07:20 AM;609.965;0.120
19/09/2011 07:25 AM;609.979;0.168
19/09/2011 07:30 AM;609.992;0.156
19/09/2011 07:35 AM;610.028;0.432
19/09/2011 07:40 AM;610.074;0.552
19/09/2011 07:45 AM;610.122;0.576
19/09/2011 07:50 AM;610.152;0.360
19/09/2011 07:55 AM;610.175;0.276
19/09/2011 08:00 AM;610.200;0.300
19/09/2011 08:05 AM;610.217;0.204
19/09/2011 08:10 AM;610.237;0.240
19/09/2011 08:15 AM;610.268;0.372
19/09/2011 08:20 AM;610.300;0.384
19/09/2011 08:25 AM;610.355;0.660
19/09/2011 08:30 AM;610.443;1.056
19/09/2011 08:35 AM;610.544;1.212
19/09/2011 08:40 AM;610.648;1.248
19/09/2011 08:45 AM;610.761;1.356
19/09/2011 08:50 AM;610.859;1.176
19/09/2011 08:55 AM;610.992;1.596
19/09/2011 09:00 AM;611.093;1.212
19/09/2011 09:05 AM;611.150;0.684
19/09/2011 09:10 AM;611.212;0.744
19/09/2011 09:15 AM;611.282;0.840
19/09/2011 09:20 AM;611.414;1.584
19/09/2011 09:25 AM;611.525;1.332
19/09/2011 09:30 AM;611.604;0.948
19/09/2011 09:35 AM;611.678;0.888
19/09/2011 09:40 AM;611.788;1.320
19/09/2011 09:45 AM;611.888;1.200
19/09/2011 09:50 AM;611.993;1.260
19/09/2011 09:55 AM;612.085;1.104
19/09/2011 10:00 AM;612.221;1.632
19/09/2011 10:05 AM;612.287;0.792
19/09/2011 10:10 AM;612.331;0.528
19/09/2011 10:15 AM;612.376;0.540
19/09/2011 10:20 AM;612.441;0.780
19/09/2011 10:25 AM;612.540;1.188
19/09/2011 10:30 AM;612.682;1.704
19/09/2011 10:35 AM;612.771;1.068
19/09/2011 10:40 AM;612.928;1.884
19/09/2011 10:45 AM;613.130;2.424
19/09/2011 10:50 AM;613.314;2.208
19/09/2011 10:55 AM;613.505;2.292
19/09/2011 11:00 AM;613.651;1.752
19/09/2011 11:05 AM;613.755;1.248
19/09/2011 11:10 AM;613.888;1.596
19/09/2011 11:15 AM;614.026;1.656
19/09/2011 11:20 AM;614.177;1.812
19/09/2011 11:25 AM;614.342;1.980
19/09/2011 11:30 AM;614.552;2.520
19/09/2011 11:35 AM;614.760;2.496
19/09/2011 11:40 AM;614.905;1.740
19/09/2011 11:45 AM;615.027;1.464
19/09/2011 11:50 AM;615.181;1.848
19/09/2011 11:55 AM;615.349;2.016
19/09/2011 12:00 PM;615.575;2.712
19/09/2011 12:05 PM;615.734;1.908
19/09/2011 12:10 PM;615.929;2.340
19/09/2011 12:15 PM;616.096;2.004
19/09/2011 12:20 PM;616.306;2.520
19/09/2011 12:25 PM;616.496;2.280
19/09/2011 12:30 PM;616.576;0.960
19/09/2011 12:35 PM;616.733;1.884
19/09/2011 12:40 PM;616.962;2.748
19/09/2011 12:45 PM;617.179;2.604
19/09/2011 12:50 PM;617.389;2.520
19/09/2011 12:55 PM;617.556;2.004
19/09/2011 01:00 PM;617.733;2.124
19/09/2011 01:05 PM;617.905;2.064
19/09/2011 01:10 PM;618.113;2.496
19/09/2011 01:15 PM;618.334;2.652
19/09/2011 01:20 PM;618.560;2.712
19/09/2011 01:25 PM;618.736;2.112
19/09/2011 01:30 PM;618.809;0.876
19/09/2011 01:35 PM;618.960;1.812
19/09/2011 01:40 PM;619.200;2.880
19/09/2011 01:45 PM;619.383;2.196
19/09/2011 01:50 PM;619.575;2.304
19/09/2011 01:55 PM;619.713;1.656
19/09/2011 02:00 PM;619.903;2.280
19/09/2011 02:05 PM;620.103;2.400
19/09/2011 02:10 PM;620.283;2.160
19/09/2011 02:15 PM;620.473;2.280
19/09/2011 02:20 PM;620.604;1.572
19/09/2011 02:25 PM;620.668;0.768
19/09/2011 02:30 PM;620.712;0.528
19/09/2011 02:35 PM;620.804;1.104
19/09/2011 02:40 PM;620.899;1.140
19/09/2011 02:45 PM;620.989;1.080
19/09/2011 02:50 PM;621.101;1.344
19/09/2011 02:55 PM;621.245;1.728
19/09/2011 03:00 PM;621.349;1.248
19/09/2011 03:05 PM;621.429;0.960
19/09/2011 03:10 PM;621.538;1.308
19/09/2011 03:15 PM;621.642;1.248
19/09/2011 03:20 PM;621.715;0.876
19/09/2011 03:25 PM;621.805;1.080
19/09/2011 03:30 PM;621.871;0.792
19/09/2011 03:35 PM;621.919;0.576
19/09/2011 03:40 PM;621.975;0.672
19/09/2011 03:45 PM;622.020;0.540
19/09/2011 03:50 PM;622.077;0.684
19/09/2011 03:55 PM;622.154;0.924
19/09/2011 04:00 PM;622.221;0.804
19/09/2011 04:05 PM;622.298;0.924
19/09/2011 04:10 PM;622.329;0.372
19/09/2011 04:15 PM;622.358;0.348
19/09/2011 04:20 PM;622.382;0.288
19/09/2011 04:25 PM;622.406;0.288
19/09/2011 04:30 PM;622.434;0.336
19/09/2011 04:35 PM;622.475;0.492
19/09/2011 04:40 PM;622.512;0.444
19/09/2011 04:45 PM;622.547;0.420
19/09/2011 04:50 PM;622.570;0.276
19/09/2011 04:55 PM;622.586;0.192
19/09/2011 05:00 PM;622.601;0.180
19/09/2011 05:05 PM;622.618;0.204
19/09/2011 05:10 PM;622.632;0.168
19/09/2011 05:15 PM;622.644;0.144
19/09/2011 05:20 PM;622.658;0.168
19/09/2011 05:25 PM;622.671;0.156
19/09/2011 05:30 PM;622.680;0.108
19/09/2011 05:35 PM;622.686;0.072
19/09/2011 05:40 PM;622.696;0.120
19/09/2011 05:45 PM;622.705;0.108
19/09/2011 05:50 PM;622.710;0.060
19/09/2011 05:55 PM;622.712;0.024
19/09/2011 06:00 PM;622.713;0.012
19/09/2011 06:05 PM;622.713;0.000
19/09/2011 06:10 PM;622.713;0.000
19/09/2011 06:15 PM;622.713;0.000
19/09/2011 06:20 PM;622.713;0.000
19/09/2011 06:25 PM;622.713;0.000
19/09/2011 06:30 PM;622.713;0.000
19/09/2011 06:35 PM;622.713;0.000
19/09/2011 06:40 PM;622.713;0.000
19/09/2011 06:45 PM;622.713;0.000
19/09/2011 06:50 PM;622.713;0.000
19/09/2011 06:55 PM;622.713;0.000
19/09/2011 07:00 PM;622.713;0.000
19/09/2011 07:05 PM;622.713;0.000
19/09/2011 07:10 PM;622.713;0.000
19/09/2011 07:15 PM;622.713;0.000
19/09/2011 07:20 PM;622.713;0.000
19/09/2011 07:25 PM;622.713;0.000
19/09/2011 07:30 PM;622.713;0.000
19/09/2011 07:35 PM;622.713;0.000
19/09/2011 07:40 PM;622.713;0.000
19/09/2011 07:45 PM;622.713;0.000
19/09/2011 07:50 PM;622.713;0.000
19/09/2011 07:55 PM;622.713;0.000
19/09/2011 08:00 PM;622.713;0.000
19/09/2011 08:05 PM;622.713;0.000
19/09/2011 08:10 PM;622.713;0.000
19/09/2011 08:15 PM;622.713;0.000
19/09/2011 08:20 PM;622.713;0.000
19/09/2011 08:25 PM;622.713;0.000
19/09/2011 08:30 PM;622.713;0.000
19/09/2011 08:35 PM;622.713;0.000
19/09/2011 08:40 PM;622.713;0.000
19/09/2011 08:45 PM;622.713;0.000
19/09/2011 08:50 PM;622.713;0.000
19/09/2011 08:55 PM;622.713;0.000
19/09/2011 09:00 PM;622.713;0.000
19/09/2011 09:05 PM;622.713;0.000
19/09/2011 09:10 PM;622.713;0.000
19/09/2011 09:15 PM;622.713;0.000
19/09/2011 09:20 PM;622.713;0.000
19/09/2011 09:25 PM;622.713;0.000
19/09/2011 09:30 PM;622.713;0.000
19/09/2011 09:35 PM;622.713;0.000
19/09/2011 09:40 PM;622.713;0.000
19/09/2011 09:45 PM;622.713;0.000
19/09/2011 09:50 PM;622.713;0.000
19/09/2011 09:55 PM;622.713;0.000
19/09/2011 10:00 PM;622.713;0.000
19/09/2011 10:05 PM;622.713;0.000
19/09/2011 10:10 PM;622.713;0.000
19/09/2011 10:15 PM;622.713;0.000
19/09/2011 10:20 PM;622.713;0.000
19/09/2011 10:25 PM;622.713;0.000
19/09/2011 10:30 PM;622.713;0.000
19/09/2011 10:35 PM;622.713;0.000
19/09/2011 10:40 PM;622.713;0.000
19/09/2011 10:45 PM;622.713;0.000
19/09/2011 10:50 PM;622.713;0.000
19/09/2011 10:55 PM;622.713;0.000
19/09/2011 11:00 PM;622.713;0.000
19/09/2011 11:05 PM;622.713;0.000
19/09/2011 11:10 PM;622.713;0.000
19/09/2011 11:15 PM;622.713;0.000
19/09/2011 11:20 PM;622.713;0.000
19/09/2011 11:25 PM;622.713;0.000
19/09/2011 11:30 PM;622.713;0.000
19/09/2011 11:35 PM;622.713;0.000
19/09/2011 11:40 PM;622.713;0.000
19/09/2011 11:45 PM;622.713;0.000
19/09/2011 11:50 PM;622.713;0.000
19/09/2011 11:55 PM;622.713;0.000
