sep=;
Version CSV1|Tool SE|Linebreaks CR/LF|Delimiter semicolon|Decimalpoint dot|Precision 3

;SN: 2100448037;SN: 2100448037
;SB 3000TL-20;SB 3000TL-20
;2100448037;2100448037
;Total yield;Power
;Counter;Analog
dd/MM/yyyy hh:mm tt;kWh;kW
28/08/2011 12:00 AM;315.954;0.000
28/08/2011 12:05 AM;315.954;0.000
28/08/2011 12:10 AM;315.954;0.000
28/08/2011 12:15 AM;315.954;0.000
28/08/2011 12:20 AM;315.954;0.000
28/08/2011 12:25 AM;315.954;0.000
28/08/2011 12:30 AM;315.954;0.000
28/08/2011 12:35 AM;315.954;0.000
28/08/2011 12:40 AM;315.954;0.000
28/08/2011 12:45 AM;315.954;0.000
28/08/2011 12:50 AM;315.954;0.000
28/08/2011 12:55 AM;315.954;0.000
28/08/2011 01:00 AM;315.954;0.000
28/08/2011 01:05 AM;315.954;0.000
28/08/2011 01:10 AM;315.954;0.000
28/08/2011 01:15 AM;315.954;0.000
28/08/2011 01:20 AM;315.954;0.000
28/08/2011 01:25 AM;315.954;0.000
28/08/2011 01:30 AM;315.954;0.000
28/08/2011 01:35 AM;315.954;0.000
28/08/2011 01:40 AM;315.954;0.000
28/08/2011 01:45 AM;315.954;0.000
28/08/2011 01:50 AM;315.954;0.000
28/08/2011 01:55 AM;315.954;0.000
28/08/2011 02:00 AM;315.954;0.000
28/08/2011 02:05 AM;315.954;0.000
28/08/2011 02:10 AM;315.954;0.000
28/08/2011 02:15 AM;315.954;0.000
28/08/2011 02:20 AM;315.954;0.000
28/08/2011 02:25 AM;315.954;0.000
28/08/2011 02:30 AM;315.954;0.000
28/08/2011 02:35 AM;315.954;0.000
28/08/2011 02:40 AM;315.954;0.000
28/08/2011 02:45 AM;315.954;0.000
28/08/2011 02:50 AM;315.954;0.000
28/08/2011 02:55 AM;315.954;0.000
28/08/2011 03:00 AM;315.954;0.000
28/08/2011 03:05 AM;315.954;0.000
28/08/2011 03:10 AM;315.954;0.000
28/08/2011 03:15 AM;315.954;0.000
28/08/2011 03:20 AM;315.954;0.000
28/08/2011 03:25 AM;315.954;0.000
28/08/2011 03:30 AM;315.954;0.000
28/08/2011 03:35 AM;315.954;0.000
28/08/2011 03:40 AM;315.954;0.000
28/08/2011 03:45 AM;315.954;0.000
28/08/2011 03:50 AM;315.954;0.000
28/08/2011 03:55 AM;315.954;0.000
28/08/2011 04:00 AM;315.954;0.000
28/08/2011 04:05 AM;315.954;0.000
28/08/2011 04:10 AM;315.954;0.000
28/08/2011 04:15 AM;315.954;0.000
28/08/2011 04:20 AM;315.954;0.000
28/08/2011 04:25 AM;315.954;0.000
28/08/2011 04:30 AM;315.954;0.000
28/08/2011 04:35 AM;315.954;0.000
28/08/2011 04:40 AM;315.954;0.000
28/08/2011 04:45 AM;315.954;0.000
28/08/2011 04:50 AM;315.954;0.000
28/08/2011 04:55 AM;315.954;0.000
28/08/2011 05:00 AM;315.954;0.000
28/08/2011 05:05 AM;315.954;0.000
28/08/2011 05:10 AM;315.954;0.000
28/08/2011 05:15 AM;315.954;0.000
28/08/2011 05:20 AM;315.954;0.000
28/08/2011 05:25 AM;315.954;0.000
28/08/2011 05:30 AM;315.954;0.000
28/08/2011 05:35 AM;315.954;0.000
28/08/2011 05:40 AM;315.954;0.000
28/08/2011 05:45 AM;315.954;0.000
28/08/2011 05:50 AM;315.954;0.000
28/08/2011 05:55 AM;315.954;0.000
28/08/2011 06:00 AM;315.954;0.000
28/08/2011 06:05 AM;315.954;0.000
28/08/2011 06:10 AM;315.954;0.000
28/08/2011 06:15 AM;315.954;0.000
28/08/2011 06:20 AM;315.954;0.000
28/08/2011 06:25 AM;315.954;0.000
28/08/2011 06:30 AM;315.954;0.000
28/08/2011 06:35 AM;315.954;0.000
28/08/2011 06:40 AM;315.954;0.000
28/08/2011 06:45 AM;315.954;0.000
28/08/2011 06:50 AM;315.954;0.000
28/08/2011 06:55 AM;315.954;0.000
28/08/2011 07:00 AM;315.957;0.036
28/08/2011 07:05 AM;315.962;0.060
28/08/2011 07:10 AM;315.970;0.096
28/08/2011 07:15 AM;315.980;0.120
28/08/2011 07:20 AM;315.991;0.132
28/08/2011 07:25 AM;315.997;0.072
28/08/2011 07:30 AM;316.011;0.168
28/08/2011 07:35 AM;316.026;0.180
28/08/2011 07:40 AM;316.044;0.216
28/08/2011 07:45 AM;316.065;0.252
28/08/2011 07:50 AM;316.087;0.264
28/08/2011 07:55 AM;316.112;0.300
28/08/2011 08:00 AM;316.140;0.336
28/08/2011 08:05 AM;316.170;0.360
28/08/2011 08:10 AM;316.201;0.372
28/08/2011 08:15 AM;316.232;0.372
28/08/2011 08:20 AM;316.267;0.420
28/08/2011 08:25 AM;316.308;0.492
28/08/2011 08:30 AM;316.349;0.492
28/08/2011 08:35 AM;316.396;0.564
28/08/2011 08:40 AM;316.448;0.624
28/08/2011 08:45 AM;316.497;0.588
28/08/2011 08:50 AM;316.548;0.612
28/08/2011 08:55 AM;316.658;1.320
28/08/2011 09:00 AM;316.774;1.392
28/08/2011 09:05 AM;316.900;1.512
28/08/2011 09:10 AM;317.010;1.320
28/08/2011 09:15 AM;317.139;1.548
28/08/2011 09:20 AM;317.279;1.680
28/08/2011 09:25 AM;317.396;1.404
28/08/2011 09:30 AM;317.505;1.308
28/08/2011 09:35 AM;317.633;1.536
28/08/2011 09:40 AM;317.762;1.548
28/08/2011 09:45 AM;317.895;1.596
28/08/2011 09:50 AM;318.028;1.596
28/08/2011 09:55 AM;318.148;1.440
28/08/2011 10:00 AM;318.303;1.860
28/08/2011 10:05 AM;318.467;1.968
28/08/2011 10:10 AM;318.585;1.416
28/08/2011 10:15 AM;318.701;1.392
28/08/2011 10:20 AM;318.861;1.920
28/08/2011 10:25 AM;319.044;2.196
28/08/2011 10:30 AM;319.216;2.064
28/08/2011 10:35 AM;319.311;1.140
28/08/2011 10:40 AM;319.475;1.968
28/08/2011 10:45 AM;319.636;1.932
28/08/2011 10:50 AM;319.736;1.200
28/08/2011 10:55 AM;319.844;1.296
28/08/2011 11:00 AM;319.879;0.420
28/08/2011 11:05 AM;319.910;0.372
28/08/2011 11:10 AM;320.015;1.260
28/08/2011 11:15 AM;320.092;0.924
28/08/2011 11:20 AM;320.120;0.336
28/08/2011 11:25 AM;320.150;0.360
28/08/2011 11:30 AM;320.354;2.448
28/08/2011 11:35 AM;320.559;2.460
28/08/2011 11:40 AM;320.765;2.472
28/08/2011 11:45 AM;320.889;1.488
28/08/2011 11:50 AM;321.001;1.344
28/08/2011 11:55 AM;321.206;2.460
28/08/2011 12:00 PM;321.404;2.376
28/08/2011 12:05 PM;321.602;2.376
28/08/2011 12:10 PM;321.804;2.424
28/08/2011 12:15 PM;322.012;2.496
28/08/2011 12:20 PM;322.188;2.112
28/08/2011 12:25 PM;322.309;1.452
28/08/2011 12:30 PM;322.353;0.528
28/08/2011 12:35 PM;322.398;0.540
28/08/2011 12:40 PM;322.453;0.660
28/08/2011 12:45 PM;322.506;0.636
28/08/2011 12:50 PM;322.558;0.624
28/08/2011 12:55 PM;322.611;0.636
28/08/2011 01:00 PM;322.674;0.756
28/08/2011 01:05 PM;322.895;2.652
28/08/2011 01:10 PM;322.987;1.104
28/08/2011 01:15 PM;323.048;0.732
28/08/2011 01:20 PM;323.111;0.756
28/08/2011 01:25 PM;323.220;1.308
28/08/2011 01:30 PM;323.412;2.304
28/08/2011 01:35 PM;323.518;1.272
28/08/2011 01:40 PM;323.651;1.596
28/08/2011 01:45 PM;323.857;2.472
28/08/2011 01:50 PM;323.932;0.900
28/08/2011 01:55 PM;324.001;0.828
28/08/2011 02:00 PM;324.153;1.824
28/08/2011 02:05 PM;324.283;1.560
28/08/2011 02:10 PM;324.338;0.660
28/08/2011 02:15 PM;324.437;1.188
28/08/2011 02:20 PM;324.597;1.920
28/08/2011 02:25 PM;324.684;1.044
28/08/2011 02:30 PM;324.852;2.016
28/08/2011 02:35 PM;325.019;2.004
28/08/2011 02:40 PM;325.185;1.992
28/08/2011 02:45 PM;325.354;2.028
28/08/2011 02:50 PM;325.532;2.136
28/08/2011 02:55 PM;325.713;2.172
28/08/2011 03:00 PM;325.808;1.140
28/08/2011 03:05 PM;325.896;1.056
28/08/2011 03:10 PM;325.964;0.816
28/08/2011 03:15 PM;326.051;1.044
28/08/2011 03:20 PM;326.111;0.720
28/08/2011 03:25 PM;326.259;1.776
28/08/2011 03:30 PM;326.394;1.620
28/08/2011 03:35 PM;326.522;1.536
28/08/2011 03:40 PM;326.646;1.488
28/08/2011 03:45 PM;326.766;1.440
28/08/2011 03:50 PM;326.881;1.380
28/08/2011 03:55 PM;326.993;1.344
28/08/2011 04:00 PM;327.101;1.296
28/08/2011 04:05 PM;327.205;1.248
28/08/2011 04:10 PM;327.305;1.200
28/08/2011 04:15 PM;327.403;1.176
28/08/2011 04:20 PM;327.497;1.128
28/08/2011 04:25 PM;327.583;1.032
28/08/2011 04:30 PM;327.663;0.960
28/08/2011 04:35 PM;327.739;0.912
28/08/2011 04:40 PM;327.809;0.840
28/08/2011 04:45 PM;327.875;0.792
28/08/2011 04:50 PM;327.936;0.732
28/08/2011 04:55 PM;327.992;0.672
28/08/2011 05:00 PM;328.042;0.600
28/08/2011 05:05 PM;328.087;0.540
28/08/2011 05:10 PM;328.126;0.468
28/08/2011 05:15 PM;328.160;0.408
28/08/2011 05:20 PM;328.187;0.324
28/08/2011 05:25 PM;328.209;0.264
28/08/2011 05:30 PM;328.226;0.204
28/08/2011 05:35 PM;328.238;0.144
28/08/2011 05:40 PM;328.246;0.096
28/08/2011 05:45 PM;328.250;0.048
28/08/2011 05:50 PM;328.251;0.012
28/08/2011 05:55 PM;328.251;0.000
28/08/2011 06:00 PM;328.251;0.000
28/08/2011 06:05 PM;328.251;0.000
28/08/2011 06:10 PM;328.251;0.000
28/08/2011 06:15 PM;328.251;0.000
28/08/2011 06:20 PM;328.251;0.000
28/08/2011 06:25 PM;328.251;0.000
28/08/2011 06:30 PM;328.251;0.000
28/08/2011 06:35 PM;328.251;0.000
28/08/2011 06:40 PM;328.251;0.000
28/08/2011 06:45 PM;328.251;0.000
28/08/2011 06:50 PM;328.251;0.000
28/08/2011 06:55 PM;328.251;0.000
28/08/2011 07:00 PM;328.251;0.000
28/08/2011 07:05 PM;328.251;0.000
28/08/2011 07:10 PM;328.251;0.000
28/08/2011 07:15 PM;328.251;0.000
28/08/2011 07:20 PM;328.251;0.000
28/08/2011 07:25 PM;328.251;0.000
28/08/2011 07:30 PM;328.251;0.000
28/08/2011 07:35 PM;328.251;0.000
28/08/2011 07:40 PM;328.251;0.000
28/08/2011 07:45 PM;328.251;0.000
28/08/2011 07:50 PM;328.251;0.000
28/08/2011 07:55 PM;328.251;0.000
28/08/2011 08:00 PM;328.251;0.000
28/08/2011 08:05 PM;328.251;0.000
28/08/2011 08:10 PM;328.251;0.000
28/08/2011 08:15 PM;328.251;0.000
28/08/2011 08:20 PM;328.251;0.000
28/08/2011 08:25 PM;328.251;0.000
28/08/2011 08:30 PM;328.251;0.000
28/08/2011 08:35 PM;328.251;0.000
28/08/2011 08:40 PM;328.251;0.000
28/08/2011 08:45 PM;328.251;0.000
28/08/2011 08:50 PM;328.251;0.000
28/08/2011 08:55 PM;328.251;0.000
28/08/2011 09:00 PM;328.251;0.000
28/08/2011 09:05 PM;328.251;0.000
28/08/2011 09:10 PM;328.251;0.000
28/08/2011 09:15 PM;328.251;0.000
28/08/2011 09:20 PM;328.251;0.000
28/08/2011 09:25 PM;328.251;0.000
28/08/2011 09:30 PM;328.251;0.000
28/08/2011 09:35 PM;328.251;0.000
28/08/2011 09:40 PM;328.251;0.000
28/08/2011 09:45 PM;328.251;0.000
28/08/2011 09:50 PM;328.251;0.000
28/08/2011 09:55 PM;328.251;0.000
28/08/2011 10:00 PM;328.251;0.000
28/08/2011 10:05 PM;328.251;0.000
28/08/2011 10:10 PM;328.251;0.000
28/08/2011 10:15 PM;328.251;0.000
28/08/2011 10:20 PM;328.251;0.000
28/08/2011 10:25 PM;328.251;0.000
28/08/2011 10:30 PM;328.251;0.000
28/08/2011 10:35 PM;328.251;0.000
28/08/2011 10:40 PM;328.251;0.000
28/08/2011 10:45 PM;328.251;0.000
28/08/2011 10:50 PM;328.251;0.000
28/08/2011 10:55 PM;328.251;0.000
28/08/2011 11:00 PM;328.251;0.000
28/08/2011 11:05 PM;328.251;0.000
28/08/2011 11:10 PM;328.251;0.000
28/08/2011 11:15 PM;328.251;0.000
28/08/2011 11:20 PM;328.251;0.000
28/08/2011 11:25 PM;328.251;0.000
28/08/2011 11:30 PM;328.251;0.000
28/08/2011 11:35 PM;328.251;0.000
28/08/2011 11:40 PM;328.251;0.000
28/08/2011 11:45 PM;328.251;0.000
28/08/2011 11:50 PM;328.251;0.000
28/08/2011 11:55 PM;328.251;0.000
