sep=;
Version CSV1|Tool SE|Linebreaks CR/LF|Delimiter semicolon|Decimalpoint dot|Precision 3

;SN: 2100448037;SN: 2100448037
;SB 3000TL-20;SB 3000TL-20
;2100448037;2100448037
;Total yield;Power
;Counter;Analog
dd/MM/yyyy hh:mm tt;kWh;kW
13/09/2011 12:00 AM;539.660;0.000
13/09/2011 12:05 AM;539.660;0.000
13/09/2011 12:10 AM;539.660;0.000
13/09/2011 12:15 AM;539.660;0.000
13/09/2011 12:20 AM;539.660;0.000
13/09/2011 12:25 AM;539.660;0.000
13/09/2011 12:30 AM;539.660;0.000
13/09/2011 12:35 AM;539.660;0.000
13/09/2011 12:40 AM;539.660;0.000
13/09/2011 12:45 AM;539.660;0.000
13/09/2011 12:50 AM;539.660;0.000
13/09/2011 12:55 AM;539.660;0.000
13/09/2011 01:00 AM;539.660;0.000
13/09/2011 01:05 AM;539.660;0.000
13/09/2011 01:10 AM;539.660;0.000
13/09/2011 01:15 AM;539.660;0.000
13/09/2011 01:20 AM;539.660;0.000
13/09/2011 01:25 AM;539.660;0.000
13/09/2011 01:30 AM;539.660;0.000
13/09/2011 01:35 AM;539.660;0.000
13/09/2011 01:40 AM;539.660;0.000
13/09/2011 01:45 AM;539.660;0.000
13/09/2011 01:50 AM;539.660;0.000
13/09/2011 01:55 AM;539.660;0.000
13/09/2011 02:00 AM;539.660;0.000
13/09/2011 02:05 AM;539.660;0.000
13/09/2011 02:10 AM;539.660;0.000
13/09/2011 02:15 AM;539.660;0.000
13/09/2011 02:20 AM;539.660;0.000
13/09/2011 02:25 AM;539.660;0.000
13/09/2011 02:30 AM;539.660;0.000
13/09/2011 02:35 AM;539.660;0.000
13/09/2011 02:40 AM;539.660;0.000
13/09/2011 02:45 AM;539.660;0.000
13/09/2011 02:50 AM;539.660;0.000
13/09/2011 02:55 AM;539.660;0.000
13/09/2011 03:00 AM;539.660;0.000
13/09/2011 03:05 AM;539.660;0.000
13/09/2011 03:10 AM;539.660;0.000
13/09/2011 03:15 AM;539.660;0.000
13/09/2011 03:20 AM;539.660;0.000
13/09/2011 03:25 AM;539.660;0.000
13/09/2011 03:30 AM;539.660;0.000
13/09/2011 03:35 AM;539.660;0.000
13/09/2011 03:40 AM;539.660;0.000
13/09/2011 03:45 AM;539.660;0.000
13/09/2011 03:50 AM;539.660;0.000
13/09/2011 03:55 AM;539.660;0.000
13/09/2011 04:00 AM;539.660;0.000
13/09/2011 04:05 AM;539.660;0.000
13/09/2011 04:10 AM;539.660;0.000
13/09/2011 04:15 AM;539.660;0.000
13/09/2011 04:20 AM;539.660;0.000
13/09/2011 04:25 AM;539.660;0.000
13/09/2011 04:30 AM;539.660;0.000
13/09/2011 04:35 AM;539.660;0.000
13/09/2011 04:40 AM;539.660;0.000
13/09/2011 04:45 AM;539.660;0.000
13/09/2011 04:50 AM;539.660;0.000
13/09/2011 04:55 AM;539.660;0.000
13/09/2011 05:00 AM;539.660;0.000
13/09/2011 05:05 AM;539.660;0.000
13/09/2011 05:10 AM;539.660;0.000
13/09/2011 05:15 AM;539.660;0.000
13/09/2011 05:20 AM;539.660;0.000
13/09/2011 05:25 AM;539.660;0.000
13/09/2011 05:30 AM;539.660;0.000
13/09/2011 05:35 AM;539.660;0.000
13/09/2011 05:40 AM;539.660;0.000
13/09/2011 05:45 AM;539.660;0.000
13/09/2011 05:50 AM;539.660;0.000
13/09/2011 05:55 AM;539.660;0.000
13/09/2011 06:00 AM;539.660;0.000
13/09/2011 06:05 AM;539.660;0.000
13/09/2011 06:10 AM;539.660;0.000
13/09/2011 06:15 AM;539.660;0.000
13/09/2011 06:20 AM;539.660;0.000
13/09/2011 06:25 AM;539.660;0.000
13/09/2011 06:30 AM;539.660;0.000
13/09/2011 06:35 AM;539.660;0.000
13/09/2011 06:40 AM;539.662;0.024
13/09/2011 06:45 AM;539.667;0.060
13/09/2011 06:50 AM;539.673;0.072
13/09/2011 06:55 AM;539.682;0.108
13/09/2011 07:00 AM;539.692;0.120
13/09/2011 07:05 AM;539.704;0.144
13/09/2011 07:10 AM;539.716;0.144
13/09/2011 07:15 AM;539.724;0.096
13/09/2011 07:20 AM;539.734;0.120
13/09/2011 07:25 AM;539.745;0.132
13/09/2011 07:30 AM;539.753;0.096
13/09/2011 07:35 AM;539.767;0.168
13/09/2011 07:40 AM;539.779;0.144
13/09/2011 07:45 AM;539.789;0.120
13/09/2011 07:50 AM;539.812;0.276
13/09/2011 07:55 AM;539.833;0.252
13/09/2011 08:00 AM;539.898;0.780
13/09/2011 08:05 AM;539.968;0.840
13/09/2011 08:10 AM;540.041;0.876
13/09/2011 08:15 AM;540.124;0.996
13/09/2011 08:20 AM;540.212;1.056
13/09/2011 08:25 AM;540.306;1.128
13/09/2011 08:30 AM;540.397;1.092
13/09/2011 08:35 AM;540.470;0.876
13/09/2011 08:40 AM;540.554;1.008
13/09/2011 08:45 AM;540.629;0.900
13/09/2011 08:50 AM;540.732;1.236
13/09/2011 08:55 AM;540.843;1.332
13/09/2011 09:00 AM;540.951;1.296
13/09/2011 09:05 AM;541.059;1.296
13/09/2011 09:10 AM;541.156;1.164
13/09/2011 09:15 AM;541.290;1.608
13/09/2011 09:20 AM;541.434;1.728
13/09/2011 09:25 AM;541.565;1.572
13/09/2011 09:30 AM;541.642;0.924
13/09/2011 09:35 AM;541.688;0.552
13/09/2011 09:40 AM;541.733;0.540
13/09/2011 09:45 AM;541.814;0.972
13/09/2011 09:50 AM;541.969;1.860
13/09/2011 09:55 AM;542.095;1.512
13/09/2011 10:00 AM;542.280;2.220
13/09/2011 10:05 AM;542.458;2.136
13/09/2011 10:10 AM;542.581;1.476
13/09/2011 10:15 AM;542.752;2.052
13/09/2011 10:20 AM;542.947;2.340
13/09/2011 10:25 AM;543.115;2.016
13/09/2011 10:30 AM;543.278;1.956
13/09/2011 10:35 AM;543.363;1.020
13/09/2011 10:40 AM;543.531;2.016
13/09/2011 10:45 AM;543.712;2.172
13/09/2011 10:50 AM;543.899;2.244
13/09/2011 10:55 AM;544.098;2.388
13/09/2011 11:00 AM;544.213;1.380
13/09/2011 11:05 AM;544.368;1.860
13/09/2011 11:10 AM;544.557;2.268
13/09/2011 11:15 AM;544.706;1.788
13/09/2011 11:20 AM;544.902;2.352
13/09/2011 11:25 AM;545.101;2.388
13/09/2011 11:30 AM;545.299;2.376
13/09/2011 11:35 AM;545.453;1.848
13/09/2011 11:40 AM;545.643;2.280
13/09/2011 11:45 AM;545.733;1.080
13/09/2011 11:50 AM;545.903;2.040
13/09/2011 11:55 AM;546.101;2.376
13/09/2011 12:00 PM;546.245;1.728
13/09/2011 12:05 PM;546.320;0.900
13/09/2011 12:10 PM;546.534;2.568
13/09/2011 12:15 PM;546.746;2.544
13/09/2011 12:20 PM;546.951;2.460
13/09/2011 12:25 PM;547.155;2.448
13/09/2011 12:30 PM;547.351;2.352
13/09/2011 12:35 PM;547.544;2.316
13/09/2011 12:40 PM;547.727;2.196
13/09/2011 12:45 PM;547.914;2.244
13/09/2011 12:50 PM;548.078;1.968
13/09/2011 12:55 PM;548.180;1.224
13/09/2011 01:00 PM;548.302;1.464
13/09/2011 01:05 PM;548.474;2.064
13/09/2011 01:10 PM;548.668;2.328
13/09/2011 01:15 PM;548.860;2.304
13/09/2011 01:20 PM;549.050;2.280
13/09/2011 01:25 PM;549.238;2.256
13/09/2011 01:30 PM;549.425;2.244
13/09/2011 01:35 PM;549.610;2.220
13/09/2011 01:40 PM;549.796;2.232
13/09/2011 01:45 PM;549.979;2.196
13/09/2011 01:50 PM;550.162;2.196
13/09/2011 01:55 PM;550.343;2.172
13/09/2011 02:00 PM;550.523;2.160
13/09/2011 02:05 PM;550.685;1.944
13/09/2011 02:10 PM;550.867;2.184
13/09/2011 02:15 PM;551.042;2.100
13/09/2011 02:20 PM;551.215;2.076
13/09/2011 02:25 PM;551.387;2.064
13/09/2011 02:30 PM;551.558;2.052
13/09/2011 02:35 PM;551.728;2.040
13/09/2011 02:40 PM;551.887;1.908
13/09/2011 02:45 PM;552.052;1.980
13/09/2011 02:50 PM;552.213;1.932
13/09/2011 02:55 PM;552.384;2.052
13/09/2011 03:00 PM;552.488;1.248
13/09/2011 03:05 PM;552.568;0.960
13/09/2011 03:10 PM;552.646;0.936
13/09/2011 03:15 PM;552.719;0.876
13/09/2011 03:20 PM;552.807;1.056
13/09/2011 03:25 PM;552.878;0.852
13/09/2011 03:30 PM;552.952;0.888
13/09/2011 03:35 PM;553.019;0.804
13/09/2011 03:40 PM;553.078;0.708
13/09/2011 03:45 PM;553.143;0.780
13/09/2011 03:50 PM;553.207;0.768
13/09/2011 03:55 PM;553.263;0.672
13/09/2011 04:00 PM;553.322;0.708
13/09/2011 04:05 PM;553.383;0.732
13/09/2011 04:10 PM;553.450;0.804
13/09/2011 04:15 PM;553.515;0.780
13/09/2011 04:20 PM;553.568;0.636
13/09/2011 04:25 PM;553.611;0.516
13/09/2011 04:30 PM;553.650;0.468
13/09/2011 04:35 PM;553.687;0.444
13/09/2011 04:40 PM;553.719;0.384
13/09/2011 04:45 PM;553.752;0.396
13/09/2011 04:50 PM;553.782;0.360
13/09/2011 04:55 PM;553.810;0.336
13/09/2011 05:00 PM;553.835;0.300
13/09/2011 05:05 PM;553.856;0.252
13/09/2011 05:10 PM;553.874;0.216
13/09/2011 05:15 PM;553.890;0.192
13/09/2011 05:20 PM;553.903;0.156
13/09/2011 05:25 PM;553.914;0.132
13/09/2011 05:30 PM;553.924;0.120
13/09/2011 05:35 PM;553.930;0.072
13/09/2011 05:40 PM;553.935;0.060
13/09/2011 05:45 PM;553.938;0.036
13/09/2011 05:50 PM;553.939;0.012
13/09/2011 05:55 PM;553.939;0.000
13/09/2011 06:00 PM;553.939;0.000
13/09/2011 06:05 PM;553.939;0.000
13/09/2011 06:10 PM;553.939;0.000
13/09/2011 06:15 PM;553.939;0.000
13/09/2011 06:20 PM;553.939;0.000
13/09/2011 06:25 PM;553.939;0.000
13/09/2011 06:30 PM;553.939;0.000
13/09/2011 06:35 PM;553.939;0.000
13/09/2011 06:40 PM;553.939;0.000
13/09/2011 06:45 PM;553.939;0.000
13/09/2011 06:50 PM;553.939;0.000
13/09/2011 06:55 PM;553.939;0.000
13/09/2011 07:00 PM;553.939;0.000
13/09/2011 07:05 PM;553.939;0.000
13/09/2011 07:10 PM;553.939;0.000
13/09/2011 07:15 PM;553.939;0.000
13/09/2011 07:20 PM;553.939;0.000
13/09/2011 07:25 PM;553.939;0.000
13/09/2011 07:30 PM;553.939;0.000
13/09/2011 07:35 PM;553.939;0.000
13/09/2011 07:40 PM;553.939;0.000
13/09/2011 07:45 PM;553.939;0.000
13/09/2011 07:50 PM;553.939;0.000
13/09/2011 07:55 PM;553.939;0.000
13/09/2011 08:00 PM;553.939;0.000
13/09/2011 08:05 PM;553.939;0.000
13/09/2011 08:10 PM;553.939;0.000
13/09/2011 08:15 PM;553.939;0.000
13/09/2011 08:20 PM;553.939;0.000
13/09/2011 08:25 PM;553.939;0.000
13/09/2011 08:30 PM;553.939;0.000
13/09/2011 08:35 PM;553.939;0.000
13/09/2011 08:40 PM;553.939;0.000
13/09/2011 08:45 PM;553.939;0.000
13/09/2011 08:50 PM;553.939;0.000
13/09/2011 08:55 PM;553.939;0.000
13/09/2011 09:00 PM;553.939;0.000
13/09/2011 09:05 PM;553.939;0.000
13/09/2011 09:10 PM;553.939;0.000
13/09/2011 09:15 PM;553.939;0.000
13/09/2011 09:20 PM;553.939;0.000
13/09/2011 09:25 PM;553.939;0.000
13/09/2011 09:30 PM;553.939;0.000
13/09/2011 09:35 PM;553.939;0.000
13/09/2011 09:40 PM;553.939;0.000
13/09/2011 09:45 PM;553.939;0.000
13/09/2011 09:50 PM;553.939;0.000
13/09/2011 09:55 PM;553.939;0.000
13/09/2011 10:00 PM;553.939;0.000
13/09/2011 10:05 PM;553.939;0.000
13/09/2011 10:10 PM;553.939;0.000
13/09/2011 10:15 PM;553.939;0.000
13/09/2011 10:20 PM;553.939;0.000
13/09/2011 10:25 PM;553.939;0.000
13/09/2011 10:30 PM;553.939;0.000
13/09/2011 10:35 PM;553.939;0.000
13/09/2011 10:40 PM;553.939;0.000
13/09/2011 10:45 PM;553.939;0.000
13/09/2011 10:50 PM;553.939;0.000
13/09/2011 10:55 PM;553.939;0.000
13/09/2011 11:00 PM;553.939;0.000
13/09/2011 11:05 PM;553.939;0.000
13/09/2011 11:10 PM;553.939;0.000
13/09/2011 11:15 PM;553.939;0.000
13/09/2011 11:20 PM;553.939;0.000
13/09/2011 11:25 PM;553.939;0.000
13/09/2011 11:30 PM;553.939;0.000
13/09/2011 11:35 PM;553.939;0.000
13/09/2011 11:40 PM;553.939;0.000
13/09/2011 11:45 PM;553.939;0.000
13/09/2011 11:50 PM;553.939;0.000
13/09/2011 11:55 PM;553.939;0.000
