sep=;
Version CSV1|Tool SE|Linebreaks CR/LF|Delimiter semicolon|Decimalpoint dot|Precision 3

;SN: 2100448037;SN: 2100448037
;SB 3000TL-20;SB 3000TL-20
;2100448037;2100448037
;Total yield;Power
;Counter;Analog
dd/MM/yyyy hh:mm tt;kWh;kW
09/09/2011 12:00 AM;471.481;0.000
09/09/2011 12:05 AM;471.481;0.000
09/09/2011 12:10 AM;471.481;0.000
09/09/2011 12:15 AM;471.481;0.000
09/09/2011 12:20 AM;471.481;0.000
09/09/2011 12:25 AM;471.481;0.000
09/09/2011 12:30 AM;471.481;0.000
09/09/2011 12:35 AM;471.481;0.000
09/09/2011 12:40 AM;471.481;0.000
09/09/2011 12:45 AM;471.481;0.000
09/09/2011 12:50 AM;471.481;0.000
09/09/2011 12:55 AM;471.481;0.000
09/09/2011 01:00 AM;471.481;0.000
09/09/2011 01:05 AM;471.481;0.000
09/09/2011 01:10 AM;471.481;0.000
09/09/2011 01:15 AM;471.481;0.000
09/09/2011 01:20 AM;471.481;0.000
09/09/2011 01:25 AM;471.481;0.000
09/09/2011 01:30 AM;471.481;0.000
09/09/2011 01:35 AM;471.481;0.000
09/09/2011 01:40 AM;471.481;0.000
09/09/2011 01:45 AM;471.481;0.000
09/09/2011 01:50 AM;471.481;0.000
09/09/2011 01:55 AM;471.481;0.000
09/09/2011 02:00 AM;471.481;0.000
09/09/2011 02:05 AM;471.481;0.000
09/09/2011 02:10 AM;471.481;0.000
09/09/2011 02:15 AM;471.481;0.000
09/09/2011 02:20 AM;471.481;0.000
09/09/2011 02:25 AM;471.481;0.000
09/09/2011 02:30 AM;471.481;0.000
09/09/2011 02:35 AM;471.481;0.000
09/09/2011 02:40 AM;471.481;0.000
09/09/2011 02:45 AM;471.481;0.000
09/09/2011 02:50 AM;471.481;0.000
09/09/2011 02:55 AM;471.481;0.000
09/09/2011 03:00 AM;471.481;0.000
09/09/2011 03:05 AM;471.481;0.000
09/09/2011 03:10 AM;471.481;0.000
09/09/2011 03:15 AM;471.481;0.000
09/09/2011 03:20 AM;471.481;0.000
09/09/2011 03:25 AM;471.481;0.000
09/09/2011 03:30 AM;471.481;0.000
09/09/2011 03:35 AM;471.481;0.000
09/09/2011 03:40 AM;471.481;0.000
09/09/2011 03:45 AM;471.481;0.000
09/09/2011 03:50 AM;471.481;0.000
09/09/2011 03:55 AM;471.481;0.000
09/09/2011 04:00 AM;471.481;0.000
09/09/2011 04:05 AM;471.481;0.000
09/09/2011 04:10 AM;471.481;0.000
09/09/2011 04:15 AM;471.481;0.000
09/09/2011 04:20 AM;471.481;0.000
09/09/2011 04:25 AM;471.481;0.000
09/09/2011 04:30 AM;471.481;0.000
09/09/2011 04:35 AM;471.481;0.000
09/09/2011 04:40 AM;471.481;0.000
09/09/2011 04:45 AM;471.481;0.000
09/09/2011 04:50 AM;471.481;0.000
09/09/2011 04:55 AM;471.481;0.000
09/09/2011 05:00 AM;471.481;0.000
09/09/2011 05:05 AM;471.481;0.000
09/09/2011 05:10 AM;471.481;0.000
09/09/2011 05:15 AM;471.481;0.000
09/09/2011 05:20 AM;471.481;0.000
09/09/2011 05:25 AM;471.481;0.000
09/09/2011 05:30 AM;471.481;0.000
09/09/2011 05:35 AM;471.481;0.000
09/09/2011 05:40 AM;471.481;0.000
09/09/2011 05:45 AM;471.481;0.000
09/09/2011 05:50 AM;471.481;0.000
09/09/2011 05:55 AM;471.481;0.000
09/09/2011 06:00 AM;471.481;0.000
09/09/2011 06:05 AM;471.481;0.000
09/09/2011 06:10 AM;471.481;0.000
09/09/2011 06:15 AM;471.481;0.000
09/09/2011 06:20 AM;471.481;0.000
09/09/2011 06:25 AM;471.481;0.000
09/09/2011 06:30 AM;471.481;0.000
09/09/2011 06:35 AM;471.481;0.000
09/09/2011 06:40 AM;471.481;0.000
09/09/2011 06:45 AM;471.482;0.012
09/09/2011 06:50 AM;471.484;0.024
09/09/2011 06:55 AM;471.486;0.024
09/09/2011 07:00 AM;471.491;0.060
09/09/2011 07:05 AM;471.497;0.072
09/09/2011 07:10 AM;471.509;0.144
09/09/2011 07:15 AM;471.523;0.168
09/09/2011 07:20 AM;471.544;0.252
09/09/2011 07:25 AM;471.573;0.348
09/09/2011 07:30 AM;471.607;0.408
09/09/2011 07:35 AM;471.645;0.456
09/09/2011 07:40 AM;471.688;0.516
09/09/2011 07:45 AM;471.735;0.564
09/09/2011 07:50 AM;471.788;0.636
09/09/2011 07:55 AM;471.845;0.684
09/09/2011 08:00 AM;471.906;0.732
09/09/2011 08:05 AM;471.972;0.792
09/09/2011 08:10 AM;472.041;0.828
09/09/2011 08:15 AM;472.114;0.876
09/09/2011 08:20 AM;472.193;0.948
09/09/2011 08:25 AM;472.276;0.996
09/09/2011 08:30 AM;472.365;1.068
09/09/2011 08:35 AM;472.458;1.116
09/09/2011 08:40 AM;472.556;1.176
09/09/2011 08:45 AM;472.659;1.236
09/09/2011 08:50 AM;472.767;1.296
09/09/2011 08:55 AM;472.879;1.344
09/09/2011 09:00 AM;472.996;1.404
09/09/2011 09:05 AM;473.117;1.452
09/09/2011 09:10 AM;473.243;1.512
09/09/2011 09:15 AM;473.372;1.548
09/09/2011 09:20 AM;473.505;1.596
09/09/2011 09:25 AM;473.643;1.656
09/09/2011 09:30 AM;473.783;1.680
09/09/2011 09:35 AM;473.927;1.728
09/09/2011 09:40 AM;474.075;1.776
09/09/2011 09:45 AM;474.225;1.800
09/09/2011 09:50 AM;474.378;1.836
09/09/2011 09:55 AM;474.535;1.884
09/09/2011 10:00 AM;474.694;1.908
09/09/2011 10:05 AM;474.855;1.932
09/09/2011 10:10 AM;475.020;1.980
09/09/2011 10:15 AM;475.187;2.004
09/09/2011 10:20 AM;475.356;2.028
09/09/2011 10:25 AM;475.527;2.052
09/09/2011 10:30 AM;475.701;2.088
09/09/2011 10:35 AM;475.877;2.112
09/09/2011 10:40 AM;476.055;2.136
09/09/2011 10:45 AM;476.234;2.148
09/09/2011 10:50 AM;476.415;2.172
09/09/2011 10:55 AM;476.597;2.184
09/09/2011 11:00 AM;476.779;2.184
09/09/2011 11:05 AM;476.963;2.208
09/09/2011 11:10 AM;477.148;2.220
09/09/2011 11:15 AM;477.334;2.232
09/09/2011 11:20 AM;477.522;2.256
09/09/2011 11:25 AM;477.712;2.280
09/09/2011 11:30 AM;477.902;2.280
09/09/2011 11:35 AM;478.094;2.304
09/09/2011 11:40 AM;478.286;2.304
09/09/2011 11:45 AM;478.479;2.316
09/09/2011 11:50 AM;478.673;2.328
09/09/2011 11:55 AM;478.867;2.328
09/09/2011 12:00 PM;479.062;2.340
09/09/2011 12:05 PM;479.258;2.352
09/09/2011 12:10 PM;479.455;2.364
09/09/2011 12:15 PM;479.652;2.364
09/09/2011 12:20 PM;479.850;2.376
09/09/2011 12:25 PM;480.048;2.376
09/09/2011 12:30 PM;480.244;2.352
09/09/2011 12:35 PM;480.441;2.364
09/09/2011 12:40 PM;480.637;2.352
09/09/2011 12:45 PM;480.832;2.340
09/09/2011 12:50 PM;481.027;2.340
09/09/2011 12:55 PM;481.223;2.352
09/09/2011 01:00 PM;481.415;2.304
09/09/2011 01:05 PM;481.607;2.304
09/09/2011 01:10 PM;481.799;2.304
09/09/2011 01:15 PM;481.991;2.304
09/09/2011 01:20 PM;482.182;2.292
09/09/2011 01:25 PM;482.371;2.268
09/09/2011 01:30 PM;482.559;2.256
09/09/2011 01:35 PM;482.747;2.256
09/09/2011 01:40 PM;482.934;2.244
09/09/2011 01:45 PM;483.119;2.220
09/09/2011 01:50 PM;483.304;2.220
09/09/2011 01:55 PM;483.486;2.184
09/09/2011 02:00 PM;483.666;2.160
09/09/2011 02:05 PM;483.844;2.136
09/09/2011 02:10 PM;484.022;2.136
09/09/2011 02:15 PM;484.196;2.088
09/09/2011 02:20 PM;484.368;2.064
09/09/2011 02:25 PM;484.538;2.040
09/09/2011 02:30 PM;484.706;2.016
09/09/2011 02:35 PM;484.872;1.992
09/09/2011 02:40 PM;485.035;1.956
09/09/2011 02:45 PM;485.196;1.932
09/09/2011 02:50 PM;485.355;1.908
09/09/2011 02:55 PM;485.511;1.872
09/09/2011 03:00 PM;485.664;1.836
09/09/2011 03:05 PM;485.814;1.800
09/09/2011 03:10 PM;485.962;1.776
09/09/2011 03:15 PM;486.109;1.764
09/09/2011 03:20 PM;486.251;1.704
09/09/2011 03:25 PM;486.392;1.692
09/09/2011 03:30 PM;486.529;1.644
09/09/2011 03:35 PM;486.662;1.596
09/09/2011 03:40 PM;486.791;1.548
09/09/2011 03:45 PM;486.916;1.500
09/09/2011 03:50 PM;487.038;1.464
09/09/2011 03:55 PM;487.154;1.392
09/09/2011 04:00 PM;487.266;1.344
09/09/2011 04:05 PM;487.375;1.308
09/09/2011 04:10 PM;487.479;1.248
09/09/2011 04:15 PM;487.579;1.200
09/09/2011 04:20 PM;487.675;1.152
09/09/2011 04:25 PM;487.767;1.104
09/09/2011 04:30 PM;487.854;1.044
09/09/2011 04:35 PM;487.937;0.996
09/09/2011 04:40 PM;488.014;0.924
09/09/2011 04:45 PM;488.084;0.840
09/09/2011 04:50 PM;488.144;0.720
09/09/2011 04:55 PM;488.188;0.528
09/09/2011 05:00 PM;488.232;0.528
09/09/2011 05:05 PM;488.277;0.540
09/09/2011 05:10 PM;488.315;0.456
09/09/2011 05:15 PM;488.346;0.372
09/09/2011 05:20 PM;488.371;0.300
09/09/2011 05:25 PM;488.393;0.264
09/09/2011 05:30 PM;488.411;0.216
09/09/2011 05:35 PM;488.423;0.144
09/09/2011 05:40 PM;488.431;0.096
09/09/2011 05:45 PM;488.437;0.072
09/09/2011 05:50 PM;488.440;0.036
09/09/2011 05:55 PM;488.441;0.012
09/09/2011 06:00 PM;488.441;0.000
09/09/2011 06:05 PM;488.441;0.000
09/09/2011 06:10 PM;488.441;0.000
09/09/2011 06:15 PM;488.441;0.000
09/09/2011 06:20 PM;488.441;0.000
09/09/2011 06:25 PM;488.441;0.000
09/09/2011 06:30 PM;488.441;0.000
09/09/2011 06:35 PM;488.441;0.000
09/09/2011 06:40 PM;488.441;0.000
09/09/2011 06:45 PM;488.441;0.000
09/09/2011 06:50 PM;488.441;0.000
09/09/2011 06:55 PM;488.441;0.000
09/09/2011 07:00 PM;488.441;0.000
09/09/2011 07:05 PM;488.441;0.000
09/09/2011 07:10 PM;488.441;0.000
09/09/2011 07:15 PM;488.441;0.000
09/09/2011 07:20 PM;488.441;0.000
09/09/2011 07:25 PM;488.441;0.000
09/09/2011 07:30 PM;488.441;0.000
09/09/2011 07:35 PM;488.441;0.000
09/09/2011 07:40 PM;488.441;0.000
09/09/2011 07:45 PM;488.441;0.000
09/09/2011 07:50 PM;488.441;0.000
09/09/2011 07:55 PM;488.441;0.000
09/09/2011 08:00 PM;488.441;0.000
09/09/2011 08:05 PM;488.441;0.000
09/09/2011 08:10 PM;488.441;0.000
09/09/2011 08:15 PM;488.441;0.000
09/09/2011 08:20 PM;488.441;0.000
09/09/2011 08:25 PM;488.441;0.000
09/09/2011 08:30 PM;488.441;0.000
09/09/2011 08:35 PM;488.441;0.000
09/09/2011 08:40 PM;488.441;0.000
09/09/2011 08:45 PM;488.441;0.000
09/09/2011 08:50 PM;488.441;0.000
09/09/2011 08:55 PM;488.441;0.000
09/09/2011 09:00 PM;488.441;0.000
09/09/2011 09:05 PM;488.441;0.000
09/09/2011 09:10 PM;488.441;0.000
09/09/2011 09:15 PM;488.441;0.000
09/09/2011 09:20 PM;488.441;0.000
09/09/2011 09:25 PM;488.441;0.000
09/09/2011 09:30 PM;488.441;0.000
09/09/2011 09:35 PM;488.441;0.000
09/09/2011 09:40 PM;488.441;0.000
09/09/2011 09:45 PM;488.441;0.000
09/09/2011 09:50 PM;488.441;0.000
09/09/2011 09:55 PM;488.441;0.000
09/09/2011 10:00 PM;488.441;0.000
09/09/2011 10:05 PM;488.441;0.000
09/09/2011 10:10 PM;488.441;0.000
09/09/2011 10:15 PM;488.441;0.000
09/09/2011 10:20 PM;488.441;0.000
09/09/2011 10:25 PM;488.441;0.000
09/09/2011 10:30 PM;488.441;0.000
09/09/2011 10:35 PM;488.441;0.000
09/09/2011 10:40 PM;488.441;0.000
09/09/2011 10:45 PM;488.441;0.000
09/09/2011 10:50 PM;488.441;0.000
09/09/2011 10:55 PM;488.441;0.000
09/09/2011 11:00 PM;488.441;0.000
09/09/2011 11:05 PM;488.441;0.000
09/09/2011 11:10 PM;488.441;0.000
09/09/2011 11:15 PM;488.441;0.000
09/09/2011 11:20 PM;488.441;0.000
09/09/2011 11:25 PM;488.441;0.000
09/09/2011 11:30 PM;488.441;0.000
09/09/2011 11:35 PM;488.441;0.000
09/09/2011 11:40 PM;488.441;0.000
09/09/2011 11:45 PM;488.441;0.000
09/09/2011 11:50 PM;488.441;0.000
09/09/2011 11:55 PM;488.441;0.000
